Lab_3/ALL0003/F0003FFT.CSV

Record Length,1.024000e+03,,          0.00000, -44.58970,
Sample Interval,1.233033e+00,,          1.23303, -43.38970,
Trigger Point,-0.000000000000e+00,,          2.46607, -49.38970,
,,,          3.69910, -66.98970,
,,,          4.93213, -66.98970,
,,,          6.16517, -66.98970,
Source,FFT,,          7.39820, -66.98970,
Vertical Units,dB,,          8.63123, -61.38970,
Vertical Scale,1.000000e+01,,          9.86427, -66.98970,
Vertical Offset,0.000000e+00,,         11.09730, -66.98970,
Horizontal Units,Hz,,         12.33033, -66.98970,
Horizontal Scale,1.262626e+02,,         13.56337, -66.98970,
Pt Fmt,Y,,         14.79640, -66.98970,
Yzero,-2.698970e+01,,         16.02943, -64.58970,
Probe Atten,1.000000e+00,,         17.26247, -64.58970,
Model Number,TBS1072B-EDU,,         18.49550, -66.98970,
Serial Number,C013385,,         19.72854, -61.38970,
Firmware Version,FV:v4.06,,         20.96157, -61.38970,
,,,22.19460, -66.98970,
,,,23.42763, -66.98970,
,,,24.66066, -64.58970,
,,,25.89369, -60.58970,
,,,27.12672, -60.58970,
,,,28.35975, -66.98970,
,,,29.59278, -66.98970,
,,,30.82581, -66.98970,
,,,32.05884, -66.98970,
,,,33.29187, -64.58970,
,,,34.52490, -66.98970,
,,,35.75793, -66.98970,
,,,36.99096, -64.58970,
,,,38.22399, -64.58970,
,,,39.45702, -64.58970,
,,,40.69005, -61.38970,
,,,41.92308, -66.98970,
,,,43.15611, -64.58970,
,,,44.38914, -66.98970,
,,,45.62217, -66.98970,
,,,46.85520, -66.98970,
,,,48.08823, -66.98970,
,,,49.32126, -66.98970,
,,,50.55429, -66.98970,
,,,51.78732, -66.98970,
,,,53.02035, -61.38970,
,,,54.25338, -61.38970,
,,,55.48641, -60.58970,
,,,56.71944, -60.58970,
,,,57.95247, -64.58970,
,,,59.18550, -61.38970,
,,,60.41853, -60.58970,
,,,61.65156, -64.58970,
,,,62.88459, -66.98970,
,,,64.11762, -64.58970,
,,,65.35065, -64.58970,
,,,66.58368, -60.58970,
,,,67.81671, -58.58970,
,,,69.04974, -60.58970,
,,,70.28277, -66.98970,
,,,71.51580, -66.98970,
,,,72.74883, -66.98970,
,,,73.98186, -66.98970,
,,,75.21489, -66.98970,
,,,76.44792, -61.38970,
,,,77.68095, -61.38970,
,,,78.91398, -60.58970,
,,,80.14701, -64.58970,
,,,81.38004, -60.58970,
,,,82.61307, -64.58970,
,,,83.84610, -66.98970,
,,,85.07913, -66.98970,
,,,86.31216, -66.98970,
,,,87.54519, -64.58970,
,,,88.77822, -60.58970,
,,,90.01125, -61.38970,
,,,91.24428, -61.38970,
,,,92.47731, -60.58970,
,,,93.71034, -60.58970,
,,,94.94337, -60.58970,
,,,96.17640, -60.58970,
,,,97.40943, -61.38970,
,,,98.64246, -60.58970,
,,,99.87549, -60.58970,
,,,101.10852, -57.38970,
,,,102.34155, -60.58970,
,,,103.57458, -60.58970,
,,,104.80761, -64.58970,
,,,106.04064, -66.98970,
,,,107.27367, -64.58970,
,,,108.50670, -64.58970,
,,,109.73973, -66.98970,
,,,110.97276, -66.98970,
,,,112.20579, -66.98970,
,,,113.43882, -66.98970,
,,,114.67185, -66.98970,
,,,115.90488, -64.58970,
,,,117.13791, -64.58970,
,,,118.37094, -61.38970,
,,,119.60397, -61.38970,
,,,120.83700, -57.38970,
,,,122.07003, -57.78970,
,,,123.30306, -57.38970,
,,,124.53609, -56.18970,
,,,125.76912, -60.58970,
,,,127.00215, -66.98970,
,,,128.23518, -66.98970,
,,,129.46821, -64.58970,
,,,130.70124, -64.58970,
,,,131.93427, -64.58970,
,,,133.16730, -64.58970,
,,,134.40033, -61.38970,
,,,135.63336, -66.98970,
,,,136.86639, -66.98970,
,,,138.09942, -66.98970,
,,,139.33245, -60.58970,
,,,140.56548, -60.58970,
,,,141.79851, -64.58970,
,,,143.03154, -64.58970,
,,,144.26457, -66.98970,
,,,145.49760, -66.98970,
,,,146.73063, -64.58970,
,,,147.96366, -64.58970,
,,,149.19669, -60.58970,
,,,150.42972, -66.98970,
,,,151.66275, -66.98970,
,,,152.89578, -66.98970,
,,,154.12881, -61.38970,
,,,155.36184, -57.78970,
,,,156.59487, -61.38970,
,,,157.82790, -60.58970,
,,,159.06093, -60.58970,
,,,160.29396, -66.98970,
,,,161.52699, -64.58970,
,,,162.76002, -60.58970,
,,,163.99305, -60.58970,
,,,165.22608, -60.58970,
,,,166.45911, -61.38970,
,,,167.69214, -61.38970,
,,,168.92517, -66.98970,
,,,170.15820, -66.98970,
,,,171.39123, -66.98970,
,,,172.62426, -66.98970,
,,,173.85729, -66.98970,
,,,175.09032, -66.98970,
,,,176.32335, -66.98970,
,,,177.55638, -66.98970,
,,,178.78941, -66.98970,
,,,180.02244, -64.58970,
,,,181.25547, -66.98970,
,,,182.48850, -66.98970,
,,,183.72153, -66.98970,
,,,184.95456, -66.98970,
,,,186.18759, -64.58970,
,,,187.42062, -66.98970,
,,,188.65365, -66.98970,
,,,189.88668, -66.98970,
,,,191.11971, -66.98970,
,,,192.35274, -66.98970,
,,,193.58577, -66.98970,
,,,194.81880, -66.98970,
,,,196.05183, -66.98970,
,,,197.28486, -66.98970,
,,,198.51789, -64.58970,
,,,199.75092, -66.98970,
,,,200.98395, -66.98970,
,,,202.21698, -66.98970,
,,,203.45001, -66.98970,
,,,204.68304, -64.58970,
,,,205.91607, -64.58970,
,,,207.14910, -64.58970,
,,,208.38213, -64.58970,
,,,209.61516, -66.98970,
,,,210.84819, -64.58970,
,,,212.08122, -64.58970,
,,,213.31425, -60.58970,
,,,214.54728, -60.58970,
,,,215.78031, -61.38970,
,,,217.01334, -64.58970,
,,,218.24637, -64.58970,
,,,219.47940, -64.58970,
,,,220.71243, -66.98970,
,,,221.94546, -66.98970,
,,,223.17849, -66.98970,
,,,224.41152, -66.98970,
,,,225.64455, -66.98970,
,,,226.87758, -66.98970,
,,,228.11061, -61.38970,
,,,229.34364, -66.98970,
,,,230.57667, -64.58970,
,,,231.80970, -64.58970,
,,,233.04273, -66.98970,
,,,234.27576, -58.58970,
,,,235.50879, -60.58970,
,,,236.74182, -61.38970,
,,,237.97485, -60.58970,
,,,239.20788, -66.98970,
,,,240.44091, -66.98970,
,,,241.67394, -64.58970,
,,,242.90697, -60.58970,
,,,244.14000, -64.58970,
,,,245.37303, -64.58970,
,,,246.60606, -66.98970,
,,,247.83909, -66.98970,
,,,249.07212, -64.58970,
,,,250.30515, -66.98970,
,,,251.53818, -64.58970,
,,,252.77121, -64.58970,
,,,254.00424, -66.98970,
,,,255.23727, -66.98970,
,,,256.47030, -66.98970,
,,,257.70333, -64.58970,
,,,258.93636, -66.98970,
,,,260.16939, -66.98970,
,,,261.40242, -64.58970,
,,,262.63545, -64.58970,
,,,263.86848, -64.58970,
,,,265.10151, -66.98970,
,,,266.33454, -66.98970,
,,,267.56757, -66.98970,
,,,268.80060, -60.58970,
,,,270.03363, -66.98970,
,,,271.26666, -64.58970,
,,,272.49969, -64.58970,
,,,273.73272, -66.98970,
,,,274.96575, -64.58970,
,,,276.19878, -64.58970,
,,,277.43181, -64.58970,
,,,278.66484, -66.98970,
,,,279.89787, -66.98970,
,,,281.13090, -64.58970,
,,,282.36393, -61.38970,
,,,283.59696, -64.58970,
,,,284.82999, -61.38970,
,,,286.06302, -66.98970,
,,,287.29605, -66.98970,
,,,288.52908, -66.98970,
,,,289.76211, -61.38970,
,,,290.99514, -66.98970,
,,,292.22817, -66.98970,
,,,293.46120, -66.98970,
,,,294.69423, -66.98970,
,,,295.92726, -66.98970,
,,,297.16029, -64.58970,
,,,298.39332, -64.58970,
,,,299.62635, -66.98970,
,,,300.85938, -66.98970,
,,,302.09241, -66.98970,
,,,303.32544, -66.98970,
,,,304.55847, -64.58970,
,,,305.79150, -66.98970,
,,,307.02453, -60.58970,
,,,308.25756, -60.58970,
,,,309.49059, -61.38970,
,,,310.72362, -66.98970,
,,,311.95665, -66.98970,
,,,313.18968, -66.98970,
,,,314.42271, -66.98970,
,,,315.65574, -66.98970,
,,,316.88877, -61.38970,
,,,318.12180, -61.38970,
,,,319.35483, -57.38970,
,,,320.58786, -56.18970,
,,,321.82089, -56.18970,
,,,323.05392, -60.58970,
,,,324.28695, -64.58970,
,,,325.51998, -66.98970,
,,,326.75301, -66.98970,
,,,327.98604, -66.98970,
,,,329.21907, -66.98970,
,,,330.45210, -61.38970,
,,,331.68513, -60.58970,
,,,332.91816, -60.58970,
,,,334.15119, -60.58970,
,,,335.38422, -66.98970,
,,,336.61725, -66.98970,
,,,337.85028, -64.58970,
,,,339.08331, -64.58970,
,,,340.31634, -66.98970,
,,,341.54937, -66.98970,
,,,342.78240, -66.98970,
,,,344.01543, -66.98970,
,,,345.24846, -66.98970,
,,,346.48149, -66.98970,
,,,347.71452, -66.98970,
,,,348.94755, -66.98970,
,,,350.18058, -64.58970,
,,,351.41361, -66.98970,
,,,352.64664, -66.98970,
,,,353.87967, -66.98970,
,,,355.11270, -66.98970,
,,,356.34573, -66.98970,
,,,357.57876, -66.98970,
,,,358.81179, -66.98970,
,,,360.04482, -66.98970,
,,,361.27785, -66.98970,
,,,362.51088, -66.98970,
,,,363.74391, -66.98970,
,,,364.97694, -66.98970,
,,,366.20997, -66.98970,
,,,367.44300, -66.98970,
,,,368.67603, -64.58970,
,,,369.90906, -64.58970,
,,,371.14209, -61.38970,
,,,372.37512, -60.58970,
,,,373.60815, -64.58970,
,,,374.84118, -64.58970,
,,,376.07421, -66.98970,
,,,377.30724, -64.58970,
,,,378.54027, -64.58970,
,,,379.77330, -66.98970,
,,,381.00633, -66.98970,
,,,382.23936, -66.98970,
,,,383.47239, -66.98970,
,,,384.70542, -66.98970,
,,,385.93845, -66.98970,
,,,387.17148, -66.98970,
,,,388.40451, -66.98970,
,,,389.63754, -66.98970,
,,,390.87057, -64.58970,
,,,392.10360, -64.58970,
,,,393.33663, -66.98970,
,,,394.56966, -66.98970,
,,,395.80269, -66.98970,
,,,397.03572, -66.98970,
,,,398.26875, -66.98970,
,,,399.50178, -66.98970,
,,,400.73481, -64.58970,
,,,401.96784, -60.58970,
,,,403.20087, -64.58970,
,,,404.43390, -64.58970,
,,,405.66693, -64.58970,
,,,406.89996, -66.98970,
,,,408.13299, -66.98970,
,,,409.36602, -60.58970,
,,,410.59905, -64.58970,
,,,411.83208, -66.98970,
,,,413.06511, -66.98970,
,,,414.29814, -66.98970,
,,,415.53117, -66.98970,
,,,416.76420, -66.98970,
,,,417.99723, -66.98970,
,,,419.23026, -66.98970,
,,,420.46329, -66.98970,
,,,421.69632, -64.58970,
,,,422.92935, -66.98970,
,,,424.16238, -66.98970,
,,,425.39541, -66.98970,
,,,426.62844, -64.58970,
,,,427.86147, -66.98970,
,,,429.09450, -64.58970,
,,,430.32753, -64.58970,
,,,431.56056, -66.98970,
,,,432.79359, -66.98970,
,,,434.02662, -66.98970,
,,,435.25965, -66.98970,
,,,436.49268, -66.98970,
,,,437.72571, -66.98970,
,,,438.95874, -66.98970,
,,,440.19177, -66.98970,
,,,441.42480, -60.58970,
,,,442.65783, -61.38970,
,,,443.89086, -66.98970,
,,,445.12389, -66.98970,
,,,446.35692, -58.58970,
,,,447.58995, -64.58970,
,,,448.82298, -66.98970,
,,,450.05601, -66.98970,
,,,451.28904, -64.58970,
,,,452.52207, -60.58970,
,,,453.75510, -60.58970,
,,,454.98813, -64.58970,
,,,456.22116, -66.98970,
,,,457.45419, -66.98970,
,,,458.68722, -66.98970,
,,,459.92025, -64.58970,
,,,461.15328, -66.98970,
,,,462.38631, -66.98970,
,,,463.61934, -66.98970,
,,,464.85237, -66.98970,
,,,466.08540, -66.98970,
,,,467.31843, -66.98970,
,,,468.55146, -64.58970,
,,,469.78449, -66.98970,
,,,471.01752, -60.58970,
,,,472.25055, -66.98970,
,,,473.48358, -64.58970,
,,,474.71661, -60.58970,
,,,475.94964, -57.78970,
,,,477.18267, -60.58970,
,,,478.41570, -66.98970,
,,,479.64873, -66.98970,
,,,480.88176, -66.98970,
,,,482.11479, -64.58970,
,,,483.34782, -64.58970,
,,,484.58085, -56.18970,
,,,485.81388, -64.58970,
,,,487.04691, -60.58970,
,,,488.27994, -66.98970,
,,,489.51297, -58.58970,
,,,490.74600, -60.58970,
,,,491.97903, -57.38970,
,,,493.21206, -49.78970,
,,,494.44509, -44.98970,
,,,495.67812, -34.98970,
,,,496.91115, -19.38970,
,,,498.14418,  -5.38970,
,,,499.37721,  -2.98970,
,,,500.61024,  -2.98970,
,,,501.84327,  -5.38970,
,,,503.07630, -18.98970,
,,,504.30933, -34.98970,
,,,505.54236, -44.58970,
,,,506.77539, -50.98970,
,,,508.00842, -60.58970,
,,,509.24145, -56.18970,
,,,510.47448, -61.38970,
,,,511.70751, -66.98970,
,,,512.94054, -60.58970,
,,,514.17357, -66.98970,
,,,515.40660, -66.98970,
,,,516.63963, -64.58970,
,,,517.87266, -66.98970,
,,,519.10569, -61.38970,
,,,520.33872, -66.98970,
,,,521.57175, -64.58970,
,,,522.80478, -61.38970,
,,,524.03781, -66.98970,
,,,525.27084, -61.38970,
,,,526.50387, -64.58970,
,,,527.73690, -64.58970,
,,,528.96993, -64.58970,
,,,530.20296, -60.58970,
,,,531.43599, -61.38970,
,,,532.66902, -66.98970,
,,,533.90205, -66.98970,
,,,535.13508, -66.98970,
,,,536.36811, -66.98970,
,,,537.60114, -66.98970,
,,,538.83417, -66.98970,
,,,540.06720, -66.98970,
,,,541.30023, -66.98970,
,,,542.53326, -64.58970,
,,,543.76629, -66.98970,
,,,544.99932, -66.98970,
,,,546.23235, -66.98970,
,,,547.46538, -66.98970,
,,,548.69841, -61.38970,
,,,549.93144, -61.38970,
,,,551.16447, -66.98970,
,,,552.39750, -60.58970,
,,,553.63053, -60.58970,
,,,554.86356, -64.58970,
,,,556.09659, -64.58970,
,,,557.32962, -66.98970,
,,,558.56265, -66.98970,
,,,559.79568, -66.98970,
,,,561.02871, -64.58970,
,,,562.26174, -64.58970,
,,,563.49477, -64.58970,
,,,564.72780, -66.98970,
,,,565.96083, -66.98970,
,,,567.19386, -66.98970,
,,,568.42689, -66.98970,
,,,569.65992, -61.38970,
,,,570.89295, -60.58970,
,,,572.12598, -64.58970,
,,,573.35901, -64.58970,
,,,574.59204, -66.98970,
,,,575.82507, -66.98970,
,,,577.05810, -61.38970,
,,,578.29113, -60.58970,
,,,579.52416, -60.58970,
,,,580.75719, -60.58970,
,,,581.99022, -60.58970,
,,,583.22325, -60.58970,
,,,584.45628, -60.58970,
,,,585.68931, -60.58970,
,,,586.92234, -66.98970,
,,,588.15537, -66.98970,
,,,589.38840, -66.98970,
,,,590.62143, -64.58970,
,,,591.85446, -64.58970,
,,,593.08749, -60.58970,
,,,594.32052, -66.98970,
,,,595.55355, -64.58970,
,,,596.78658, -61.38970,
,,,598.01961, -64.58970,
,,,599.25264, -64.58970,
,,,600.48567, -66.98970,
,,,601.71870, -66.98970,
,,,602.95173, -66.98970,
,,,604.18476, -64.58970,
,,,605.41779, -66.98970,
,,,606.65082, -66.98970,
,,,607.88385, -66.98970,
,,,609.11688, -66.98970,
,,,610.34991, -66.98970,
,,,611.58294, -64.58970,
,,,612.81597, -64.58970,
,,,614.04900, -64.58970,
,,,615.28203, -61.38970,
,,,616.51506, -66.98970,
,,,617.74809, -66.98970,
,,,618.98112, -66.98970,
,,,620.21415, -61.38970,
,,,621.44718, -61.38970,
,,,622.68021, -61.38970,
,,,623.91324, -66.98970,
,,,625.14627, -66.98970,
,,,626.37930, -66.98970,
,,,627.61233, -66.98970,
,,,628.84536, -66.98970,
,,,630.07839, -64.58970,
,,,631.31142, -66.98970,
,,,632.54445, -66.98970,
,,,633.77748, -66.98970,
,,,635.01051, -64.58970,
,,,636.24354, -64.58970,
,,,637.47657, -64.58970,
,,,638.70960, -66.98970,
,,,639.94263, -64.58970,
,,,641.17566, -66.98970,
,,,642.40869, -66.98970,
,,,643.64172, -66.98970,
,,,644.87475, -66.98970,
,,,646.10778, -60.58970,
,,,647.34081, -60.58970,
,,,648.57384, -66.98970,
,,,649.80687, -66.98970,
,,,651.03990, -66.98970,
,,,652.27293, -66.98970,
,,,653.50596, -64.58970,
,,,654.73899, -66.98970,
,,,655.97202, -66.98970,
,,,657.20505, -66.98970,
,,,658.43808, -66.98970,
,,,659.67111, -66.98970,
,,,660.90414, -66.98970,
,,,662.13717, -60.58970,
,,,663.37020, -64.58970,
,,,664.60323, -64.58970,
,,,665.83626, -66.98970,
,,,667.06929, -66.98970,
,,,668.30232, -66.98970,
,,,669.53535, -66.98970,
,,,670.76838, -66.98970,
,,,672.00141, -61.38970,
,,,673.23444, -57.78970,
,,,674.46747, -61.38970,
,,,675.70050, -60.58970,
,,,676.93353, -66.98970,
,,,678.16656, -66.98970,
,,,679.39959, -66.98970,
,,,680.63262, -64.58970,
,,,681.86565, -64.58970,
,,,683.09868, -66.98970,
,,,684.33171, -66.98970,
,,,685.56474, -64.58970,
,,,686.79777, -64.58970,
,,,688.03080, -66.98970,
,,,689.26383, -66.98970,
,,,690.49686, -66.98970,
,,,691.72989, -66.98970,
,,,692.96292, -60.58970,
,,,694.19595, -66.98970,
,,,695.42898, -66.98970,
,,,696.66201, -66.98970,
,,,697.89504, -66.98970,
,,,699.12807, -64.58970,
,,,700.36110, -60.58970,
,,,701.59413, -60.58970,
,,,702.82716, -64.58970,
,,,704.06019, -61.38970,
,,,705.29322, -66.98970,
,,,706.52625, -66.98970,
,,,707.75928, -66.98970,
,,,708.99231, -64.58970,
,,,710.22534, -64.58970,
,,,711.45837, -64.58970,
,,,712.69140, -66.98970,
,,,713.92443, -66.98970,
,,,715.15746, -66.98970,
,,,716.39049, -66.98970,
,,,717.62352, -64.58970,
,,,718.85655, -64.58970,
,,,720.08958, -60.58970,
,,,721.32261, -61.38970,
,,,722.55564, -64.58970,
,,,723.78867, -66.98970,
,,,725.02170, -66.98970,
,,,726.25473, -66.98970,
,,,727.48776, -64.58970,
,,,728.72079, -61.38970,
,,,729.95382, -66.98970,
,,,731.18685, -61.38970,
,,,732.41988, -66.98970,
,,,733.65291, -61.38970,
,,,734.88594, -66.98970,
,,,736.11897, -64.58970,
,,,737.35200, -66.98970,
,,,738.58503, -60.58970,
,,,739.81806, -64.58970,
,,,741.05109, -66.98970,
,,,742.28412, -66.98970,
,,,743.51715, -66.98970,
,,,744.75018, -66.98970,
,,,745.98321, -64.58970,
,,,747.21624, -60.58970,
,,,748.44927, -64.58970,
,,,749.68230, -66.98970,
,,,750.91533, -64.58970,
,,,752.14836, -60.58970,
,,,753.38139, -66.98970,
,,,754.61442, -66.98970,
,,,755.84745, -64.58970,
,,,757.08048, -66.98970,
,,,758.31351, -66.98970,
,,,759.54654, -66.98970,
,,,760.77957, -66.98970,
,,,762.01260, -66.98970,
,,,763.24563, -66.98970,
,,,764.47866, -66.98970,
,,,765.71169, -66.98970,
,,,766.94472, -66.98970,
,,,768.17775, -66.98970,
,,,769.41078, -66.98970,
,,,770.64381, -66.98970,
,,,771.87684, -66.98970,
,,,773.10987, -66.98970,
,,,774.34290, -66.98970,
,,,775.57593, -66.98970,
,,,776.80896, -66.98970,
,,,778.04199, -64.58970,
,,,779.27502, -66.98970,
,,,780.50805, -64.58970,
,,,781.74108, -66.98970,
,,,782.97411, -66.98970,
,,,784.20714, -66.98970,
,,,785.44017, -66.98970,
,,,786.67320, -64.58970,
,,,787.90623, -64.58970,
,,,789.13926, -66.98970,
,,,790.37229, -66.98970,
,,,791.60532, -61.38970,
,,,792.83835, -61.38970,
,,,794.07138, -66.98970,
,,,795.30441, -66.98970,
,,,796.53744, -66.98970,
,,,797.77047, -66.98970,
,,,799.00350, -64.58970,
,,,800.23653, -66.98970,
,,,801.46956, -66.98970,
,,,802.70259, -66.98970,
,,,803.93562, -64.58970,
,,,805.16865, -61.38970,
,,,806.40168, -66.98970,
,,,807.63471, -64.58970,
,,,808.86774, -64.58970,
,,,810.10077, -64.58970,
,,,811.33380, -66.98970,
,,,812.56683, -66.98970,
,,,813.79986, -66.98970,
,,,815.03289, -66.98970,
,,,816.26592, -66.98970,
,,,817.49895, -66.98970,
,,,818.73198, -66.98970,
,,,819.96501, -64.58970,
,,,821.19804, -66.98970,
,,,822.43107, -64.58970,
,,,823.66410, -66.98970,
,,,824.89713, -64.58970,
,,,826.13016, -66.98970,
,,,827.36319, -66.98970,
,,,828.59622, -66.98970,
,,,829.82925, -66.98970,
,,,831.06228, -64.58970,
,,,832.29531, -66.98970,
,,,833.52834, -61.38970,
,,,834.76137, -61.38970,
,,,835.99440, -61.38970,
,,,837.22743, -66.98970,
,,,838.46046, -66.98970,
,,,839.69349, -64.58970,
,,,840.92652, -61.38970,
,,,842.15955, -66.98970,
,,,843.39258, -66.98970,
,,,844.62561, -66.98970,
,,,845.85864, -66.98970,
,,,847.09167, -64.58970,
,,,848.32470, -61.38970,
,,,849.55773, -60.58970,
,,,850.79076, -66.98970,
,,,852.02379, -66.98970,
,,,853.25682, -66.98970,
,,,854.48985, -66.98970,
,,,855.72288, -64.58970,
,,,856.95591, -66.98970,
,,,858.18894, -66.98970,
,,,859.42197, -66.98970,
,,,860.65500, -66.98970,
,,,861.88803, -66.98970,
,,,863.12106, -66.98970,
,,,864.35409, -64.58970,
,,,865.58712, -64.58970,
,,,866.82015, -66.98970,
,,,868.05318, -66.98970,
,,,869.28621, -66.98970,
,,,870.51924, -61.38970,
,,,871.75227, -64.58970,
,,,872.98530, -64.58970,
,,,874.21833, -64.58970,
,,,875.45136, -64.58970,
,,,876.68439, -64.58970,
,,,877.91742, -64.58970,
,,,879.15045, -64.58970,
,,,880.38348, -66.98970,
,,,881.61651, -64.58970,
,,,882.84954, -66.98970,
,,,884.08257, -64.58970,
,,,885.31560, -60.58970,
,,,886.54863, -64.58970,
,,,887.78166, -64.58970,
,,,889.01469, -64.58970,
,,,890.24772, -66.98970,
,,,891.48075, -66.98970,
,,,892.71378, -66.98970,
,,,893.94681, -66.98970,
,,,895.17984, -66.98970,
,,,896.41287, -66.98970,
,,,897.64590, -64.58970,
,,,898.87893, -64.58970,
,,,900.11196, -66.98970,
,,,901.34499, -66.98970,
,,,902.57802, -60.58970,
,,,903.81105, -60.58970,
,,,905.04408, -60.58970,
,,,906.27711, -60.58970,
,,,907.51014, -61.38970,
,,,908.74317, -64.58970,
,,,909.97620, -66.98970,
,,,911.20923, -66.98970,
,,,912.44226, -66.98970,
,,,913.67529, -66.98970,
,,,914.90832, -66.98970,
,,,916.14135, -64.58970,
,,,917.37438, -64.58970,
,,,918.60741, -64.58970,
,,,919.84044, -66.98970,
,,,921.07347, -64.58970,
,,,922.30650, -64.58970,
,,,923.53953, -64.58970,
,,,924.77256, -64.58970,
,,,926.00559, -64.58970,
,,,927.23862, -66.98970,
,,,928.47165, -66.98970,
,,,929.70468, -66.98970,
,,,930.93771, -66.98970,
,,,932.17074, -64.58970,
,,,933.40377, -66.98970,
,,,934.63680, -66.98970,
,,,935.86983, -64.58970,
,,,937.10286, -66.98970,
,,,938.33589, -66.98970,
,,,939.56892, -60.58970,
,,,940.80195, -66.98970,
,,,942.03498, -64.58970,
,,,943.26801, -66.98970,
,,,944.50104, -66.98970,
,,,945.73407, -66.98970,
,,,946.96710, -66.98970,
,,,948.20013, -61.38970,
,,,949.43316, -61.38970,
,,,950.66619, -64.58970,
,,,951.89922, -66.98970,
,,,953.13225, -66.98970,
,,,954.36528, -64.58970,
,,,955.59831, -66.98970,
,,,956.83134, -64.58970,
,,,958.06437, -66.98970,
,,,959.29740, -66.98970,
,,,960.53043, -66.98970,
,,,961.76346, -57.78970,
,,,962.99649, -57.78970,
,,,964.22952, -66.98970,
