Lab_3/ALL0009/F0009FFT.CSV

Record Length,1.024000e+03,,          0.00000, -28.98970,
Sample Interval,1.233033e+02,,        123.30335, -29.38970,
Trigger Point,-0.000000000000e+00,,        246.60669, -46.98970,
,,,        369.91004, -25.78970,
,,,        493.21338, -31.38970,
,,,        616.51673, -15.78970,
Source,FFT,,        739.82008,  10.61030,
Vertical Units,dB,,        863.12342,  18.61030,
Vertical Scale,1.000000e+01,,        986.42677,  19.01030,
Vertical Offset,0.000000e+00,,       1109.73011,  19.01030,
Horizontal Units,Hz,,       1233.03346,  13.41030,
Horizontal Scale,1.262626e+04,,       1356.33681, -13.38970,
Pt Fmt,Y,,       1479.64015, -27.38970,
Yzero,-6.989700e+00,,       1602.94350, -25.38970,
Probe Atten,1.000000e+00,,       1726.24684, -37.38970,
Model Number,TBS1072B-EDU,,       1849.55019, -33.38970,
Serial Number,C013385,,       1972.85354, -30.58970,
Firmware Version,FV:v4.06,,       2096.15688, -30.18970,
,,,2219.46023, -33.38970,
,,,2342.76358, -25.38970,
,,,2466.06693, -30.58970,
,,,2589.37028, -18.98970,
,,,2712.67363,  -2.98970,
,,,2835.97698,   8.21030,
,,,2959.28033,   9.81030,
,,,3082.58368,   9.41030,
,,,3205.88703,   5.81030,
,,,3329.19038, -10.98970,
,,,3452.49373, -27.78970,
,,,3575.79708, -25.78970,
,,,3699.10043, -36.18970,
,,,3822.40378, -34.98970,
,,,3945.70713, -31.78970,
,,,4069.01048, -31.78970,
,,,4192.31383, -40.58970,
,,,4315.61718, -28.58970,
,,,4438.92053, -29.38970,
,,,4562.22388, -22.98970,
,,,4685.52723, -13.38970,
,,,4808.83058,   2.21030,
,,,4932.13393,   5.01030,
,,,5055.43728,   5.01030,
,,,5178.74063,   3.01030,
,,,5302.04398,  -8.98970,
,,,5425.34733, -29.78970,
,,,5548.65068, -24.98970,
,,,5671.95403, -30.58970,
,,,5795.25738, -36.18970,
,,,5918.56073, -30.58970,
,,,6041.86408, -30.58970,
,,,6165.16743, -33.38970,
,,,6288.47078, -32.18970,
,,,6411.77413, -28.18970,
,,,6535.07748, -25.78970,
,,,6658.38083, -26.58970,
,,,6781.68418,  -2.58970,
,,,6904.98753,   2.21030,
,,,7028.29088,   2.21030,
,,,7151.59423,   1.01030,
,,,7274.89758,  -7.78970,
,,,7398.20093, -31.78970,
,,,7521.50428, -26.18970,
,,,7644.80763, -29.78970,
,,,7768.11098, -38.58970,
,,,7891.41433, -29.78970,
,,,8014.71768, -30.18970,
,,,8138.02103, -30.98970,
,,,8261.32438, -32.98970,
,,,8384.62773, -26.98970,
,,,8507.93108, -26.18970,
,,,8631.23443, -27.38970,
,,,8754.53778,  -7.38970,
,,,8877.84113,  -0.18970,
,,,9001.14448,   0.21030,
,,,9124.44783,  -0.58970,
,,,9247.75118,  -6.98970,
,,,9371.05453, -31.38970,
,,,9494.35788, -28.98970,
,,,9617.66123, -29.78970,
,,,9740.96458, -41.38970,
,,,9864.26793, -30.18970,
,,,9987.57128, -30.58970,
,,,10110.87463, -30.18970,
,,,10234.17798, -37.38970,
,,,10357.48133, -27.38970,
,,,10480.78468, -27.78970,
,,,10604.08803, -24.58970,
,,,10727.39138, -12.58970,
,,,10850.69473,  -2.98970,
,,,10973.99808,  -1.78970,
,,,11097.30143,  -1.78970,
,,,11220.60478,  -6.18970,
,,,11343.90813, -22.18970,
,,,11467.21148, -28.18970,
,,,11590.51483, -26.18970,
,,,11713.81818, -33.38970,
,,,11837.12153, -32.98970,
,,,11960.42488, -29.78970,
,,,12083.72823, -30.18970,
,,,12207.03158, -33.38970,
,,,12330.33493, -29.78970,
,,,12453.63828, -29.38970,
,,,12576.94163, -25.78970,
,,,12700.24498, -18.98970,
,,,12823.54833,  -5.38970,
,,,12946.85168,  -2.98970,
,,,13070.15503,  -2.98970,
,,,13193.45838,  -5.78970,
,,,13316.76173, -18.98970,
,,,13440.06508, -32.18970,
,,,13563.36843, -28.58970,
,,,13686.67178, -34.58970,
,,,13809.97513, -37.38970,
,,,13933.27848, -32.98970,
,,,14056.58183, -32.98970,
,,,14179.88518, -36.18970,
,,,14303.18853, -31.38970,
,,,14426.49188, -27.78970,
,,,14549.79523, -25.78970,
,,,14673.09858, -28.58970,
,,,14796.40193,  -8.18970,
,,,14919.70528,  -4.58970,
,,,15043.00863,  -4.18970,
,,,15166.31198,  -5.78970,
,,,15289.61533, -15.38970,
,,,15412.91868, -30.58970,
,,,15536.22203, -27.78970,
,,,15659.52538, -30.98970,
,,,15782.82873, -34.98970,
,,,15906.13208, -29.78970,
,,,16029.43543, -30.18970,
,,,16152.73878, -31.38970,
,,,16276.04213, -37.38970,
,,,16399.34548, -29.78970,
,,,16522.64883, -27.78970,
,,,16645.95218, -31.78970,
,,,16769.25553, -11.38970,
,,,16892.55888,  -5.78970,
,,,17015.86223,  -5.38970,
,,,17139.16558,  -6.18970,
,,,17262.46893, -13.38970,
,,,17385.77228, -29.78970,
,,,17509.07563, -27.38970,
,,,17632.37898, -28.98970,
,,,17755.68233, -46.98970,
,,,17878.98568, -31.38970,
,,,18002.28903, -31.38970,
,,,18125.59238, -30.18970,
,,,18248.89573, -40.58970,
,,,18372.19908, -30.58970,
,,,18495.50243, -32.58970,
,,,18618.80578, -28.58970,
,,,18742.10913, -15.78970,
,,,18865.41248,  -6.98970,
,,,18988.71583,  -6.58970,
,,,19112.01918,  -6.98970,
,,,19235.32253, -11.78970,
,,,19358.62588, -26.58970,
,,,19481.92923, -27.78970,
,,,19605.23258, -27.78970,
,,,19728.53593, -34.98970,
,,,19851.83928, -33.38970,
,,,19975.14263, -32.18970,
,,,20098.44598, -31.38970,
,,,20221.74933, -37.78970,
,,,20345.05268, -29.38970,
,,,20468.35603, -30.18970,
,,,20591.65938, -28.18970,
,,,20714.96273, -20.58970,
,,,20838.26608,  -8.98970,
,,,20961.56943,  -6.98970,
,,,21084.87278,  -7.38970,
,,,21208.17613, -10.98970,
,,,21331.47948, -23.78970,
,,,21454.78283, -28.58970,
,,,21578.08618, -25.78970,
,,,21701.38953, -31.38970,
,,,21824.69288, -33.38970,
,,,21947.99623, -30.18970,
,,,22071.29958, -30.18970,
,,,22194.60293, -34.98970,
,,,22317.90628, -30.18970,
,,,22441.20963, -28.98970,
,,,22564.51298, -26.58970,
,,,22687.81633, -28.18970,
,,,22811.11968, -10.98970,
,,,22934.42303,  -7.78970,
,,,23057.72638,  -7.78970,
,,,23181.02973, -10.18970,
,,,23304.33308, -20.98970,
,,,23427.63643, -29.78970,
,,,23550.93978, -26.98970,
,,,23674.24313, -30.18970,
,,,23797.54648, -33.38970,
,,,23920.84983, -29.38970,
,,,24044.15318, -29.38970,
,,,24167.45653, -32.18970,
,,,24290.75988, -34.98970,
,,,24414.06323, -30.18970,
,,,24537.36658, -28.58970,
,,,24660.66993, -37.38970,
,,,24783.97328, -13.78970,
,,,24907.27663,  -8.98970,
,,,25030.57998,  -8.58970,
,,,25153.88333,  -9.78970,
,,,25277.18668, -17.78970,
,,,25400.49003, -27.78970,
,,,25523.79338, -26.18970,
,,,25647.09673, -27.38970,
,,,25770.40008, -37.78970,
,,,25893.70343, -33.38970,
,,,26017.00678, -33.38970,
,,,26140.31013, -32.98970,
,,,26263.61348, -36.18970,
,,,26386.91683, -28.18970,
,,,26510.22018, -28.98970,
,,,26633.52353, -30.18970,
,,,26756.82688, -16.98970,
,,,26880.13023, -10.18970,
,,,27003.43358,  -9.38970,
,,,27126.73693, -10.18970,
,,,27250.04028, -15.78970,
,,,27373.34363, -26.98970,
,,,27496.64698, -26.18970,
,,,27619.95033, -26.18970,
,,,27743.25368, -35.38970,
,,,27866.55703, -34.98970,
,,,27989.86038, -33.38970,
,,,28113.16373, -33.38970,
,,,28236.46708, -41.38970,
,,,28359.77043, -28.98970,
,,,28483.07378, -28.18970,
,,,28606.37713, -27.78970,
,,,28729.68048, -21.38970,
,,,28852.98383, -11.38970,
,,,28976.28718, -10.18970,
,,,29099.59053, -10.18970,
,,,29222.89388, -14.18970,
,,,29346.19723, -26.58970,
,,,29469.50058, -26.98970,
,,,29592.80393, -26.58970,
,,,29716.10728, -30.58970,
,,,29839.41063, -33.38970,
,,,29962.71398, -30.98970,
,,,30086.01733, -30.98970,
,,,30209.32068, -38.58970,
,,,30332.62403, -30.18970,
,,,30455.92738, -29.78970,
,,,30579.23073, -27.78970,
,,,30702.53408, -27.38970,
,,,30825.83743, -12.98970,
,,,30949.14078, -10.58970,
,,,31072.44413, -10.58970,
,,,31195.74748, -13.38970,
,,,31319.05083, -23.38970,
,,,31442.35418, -30.18970,
,,,31565.65753, -26.58970,
,,,31688.96088, -31.78970,
,,,31812.26423, -35.38970,
,,,31935.56758, -30.98970,
,,,32058.87093, -30.98970,
,,,32182.17428, -33.38970,
,,,32305.47763, -31.38970,
,,,32428.78098, -27.38970,
,,,32552.08433, -26.58970,
,,,32675.38768, -30.58970,
,,,32798.69103, -14.58970,
,,,32921.99438, -10.98970,
,,,33045.29773, -11.38970,
,,,33168.60108, -12.58970,
,,,33291.90443, -20.58970,
,,,33415.20778, -26.18970,
,,,33538.51113, -24.98970,
,,,33661.81448, -26.98970,
,,,33785.11783, -36.18970,
,,,33908.42118, -31.38970,
,,,34031.72453, -30.18970,
,,,34155.02788, -31.78970,
,,,34278.33123, -40.58970,
,,,34401.63458, -29.38970,
,,,34524.93793, -29.38970,
,,,34648.24128, -30.58970,
,,,34771.54463, -18.18970,
,,,34894.84798, -12.18970,
,,,35018.15133, -11.78970,
,,,35141.45468, -12.58970,
,,,35264.75803, -18.98970,
,,,35388.06138, -27.78970,
,,,35511.36473, -26.98970,
,,,35634.66808, -28.98970,
,,,35757.97143, -36.18970,
,,,35881.27478, -29.38970,
,,,36004.57813, -28.98970,
,,,36127.88148, -30.18970,
,,,36251.18483, -46.98970,
,,,36374.48818, -31.78970,
,,,36497.79153, -29.38970,
,,,36621.09488, -30.58970,
,,,36744.39823, -21.78970,
,,,36867.70158, -12.98970,
,,,36991.00493, -12.18970,
,,,37114.30828, -12.58970,
,,,37237.61163, -17.38970,
,,,37360.91498, -27.38970,
,,,37484.21833, -28.18970,
,,,37607.52168, -27.78970,
,,,37730.82503, -35.38970,
,,,37854.12838, -32.18970,
,,,37977.43173, -32.18970,
,,,38100.73508, -30.98970,
,,,38224.03843, -46.98970,
,,,38347.34178, -30.58970,
,,,38470.64513, -28.18970,
,,,38593.94848, -28.18970,
,,,38717.25183, -26.18970,
,,,38840.55518, -14.18970,
,,,38963.85853, -12.58970,
,,,39087.16188, -12.58970,
,,,39210.46523, -15.78970,
,,,39333.76858, -25.78970,
,,,39457.07193, -27.38970,
,,,39580.37528, -26.58970,
,,,39703.67863, -30.58970,
,,,39826.98198, -33.38970,
,,,39950.28533, -32.18970,
,,,40073.58868, -29.78970,
,,,40196.89203, -33.38970,
,,,40320.19538, -32.18970,
,,,40443.49873, -30.18970,
,,,40566.80208, -28.98970,
,,,40690.10543, -33.38970,
,,,40813.40878, -15.78970,
,,,40936.71213, -12.98970,
,,,41060.01548, -13.38970,
,,,41183.31883, -15.38970,
,,,41306.62218, -23.78970,
,,,41429.92553, -27.78970,
,,,41553.22888, -27.38970,
,,,41676.53223, -29.38970,
,,,41799.83558, -37.78970,
,,,41923.13893, -31.38970,
,,,42046.44228, -32.18970,
,,,42169.74563, -36.18970,
,,,42293.04898, -31.38970,
,,,42416.35233, -28.18970,
,,,42539.65568, -28.18970,
,,,42662.95903, -30.58970,
,,,42786.26238, -18.98970,
,,,42909.56573, -13.78970,
,,,43032.86908, -13.38970,
,,,43156.17243, -14.58970,
,,,43279.47578, -20.98970,
,,,43402.77913, -27.38970,
,,,43526.08248, -26.58970,
,,,43649.38583, -29.38970,
,,,43772.68918, -37.78970,
,,,43895.99253, -29.78970,
,,,44019.29588, -32.58970,
,,,44142.59923, -32.18970,
,,,44265.90258, -40.58970,
,,,44389.20593, -29.38970,
,,,44512.50928, -29.38970,
,,,44635.81263, -30.58970,
,,,44759.11598, -21.78970,
,,,44882.41933, -14.58970,
,,,45005.72268, -13.78970,
,,,45129.02603, -14.58970,
,,,45252.32938, -20.18970,
,,,45375.63273, -27.38970,
,,,45498.93608, -26.58970,
,,,45622.23943, -26.58970,
,,,45745.54278, -33.38970,
,,,45868.84613, -31.38970,
,,,45992.14948, -31.38970,
,,,46115.45283, -31.38970,
,,,46238.75618, -37.78970,
,,,46362.05953, -29.38970,
,,,46485.36288, -28.18970,
,,,46608.66623, -26.98970,
,,,46731.96958, -27.78970,
,,,46855.27293, -15.38970,
,,,46978.57628, -14.18970,
,,,47101.87963, -14.18970,
,,,47225.18298, -17.78970,
,,,47348.48633, -24.98970,
,,,47471.78968, -26.58970,
,,,47595.09303, -25.78970,
,,,47718.39638, -33.38970,
,,,47841.69973, -32.58970,
,,,47965.00308, -29.78970,
,,,48088.30643, -30.58970,
,,,48211.60978, -37.38970,
,,,48334.91313, -30.58970,
,,,48458.21648, -29.38970,
,,,48581.51983, -29.38970,
,,,48704.82318, -31.78970,
,,,48828.12653, -16.98970,
,,,48951.42988, -14.58970,
,,,49074.73323, -14.58970,
,,,49198.03658, -16.98970,
,,,49321.33993, -24.98970,
,,,49444.64328, -27.38970,
,,,49567.94663, -26.58970,
,,,49691.24998, -30.58970,
,,,49814.55333, -34.58970,
,,,49937.85668, -31.38970,
,,,50061.16003, -30.58970,
,,,50184.46338, -33.38970,
,,,50307.76673, -35.38970,
,,,50431.07008, -30.58970,
,,,50554.37343, -29.38970,
,,,50677.67678, -34.98970,
,,,50800.98013, -18.98970,
,,,50924.28348, -15.38970,
,,,51047.58683, -14.98970,
,,,51170.89018, -16.58970,
,,,51294.19353, -23.38970,
,,,51417.49688, -26.58970,
,,,51540.80023, -24.98970,
,,,51664.10358, -27.38970,
,,,51787.40693, -37.38970,
,,,51910.71028, -31.38970,
,,,52034.01363, -30.58970,
,,,52157.31698, -29.78970,
,,,52280.62033, -34.58970,
,,,52403.92368, -30.58970,
,,,52527.22703, -29.38970,
,,,52650.53038, -30.58970,
,,,52773.83373, -21.78970,
,,,52897.13708, -15.38970,
,,,53020.44043, -14.98970,
,,,53143.74378, -16.18970,
,,,53267.04713, -22.18970,
,,,53390.35048, -27.38970,
,,,53513.65383, -25.78970,
,,,53636.95718, -27.38970,
,,,53760.26053, -40.58970,
,,,53883.56388, -32.18970,
,,,54006.86723, -32.18970,
,,,54130.17058, -33.38970,
,,,54253.47393, -41.38970,
,,,54376.77728, -28.98970,
,,,54500.08063, -28.18970,
,,,54623.38398, -28.18970,
,,,54746.68733, -24.98970,
,,,54869.99068, -16.18970,
,,,54993.29403, -15.38970,
,,,55116.59738, -15.78970,
,,,55239.90073, -19.38970,
,,,55363.20408, -25.78970,
,,,55486.50743, -25.78970,
,,,55609.81078, -25.78970,
,,,55733.11413, -33.38970,
,,,55856.41748, -32.58970,
,,,55979.72083, -30.18970,
,,,56103.02418, -29.78970,
,,,56226.32753, -37.38970,
,,,56349.63088, -30.58970,
,,,56472.93423, -29.38970,
,,,56596.23758, -29.38970,
,,,56719.54093, -32.98970,
,,,56842.84428, -18.18970,
,,,56966.14763, -15.78970,
,,,57089.45098, -16.18970,
,,,57212.75433, -18.98970,
,,,57336.05768, -26.18970,
,,,57459.36103, -26.58970,
,,,57582.66438, -26.58970,
,,,57705.96773, -30.98970,
,,,57829.27108, -32.18970,
,,,57952.57443, -30.58970,
,,,58075.87778, -31.38970,
,,,58199.18113, -37.38970,
,,,58322.48448, -29.38970,
,,,58445.78783, -26.58970,
,,,58569.09118, -26.58970,
,,,58692.39453, -33.38970,
,,,58815.69788, -19.38970,
,,,58939.00123, -16.18970,
,,,59062.30458, -16.58970,
,,,59185.60793, -18.18970,
,,,59308.91128, -24.98970,
,,,59432.21463, -27.38970,
,,,59555.51798, -26.58970,
,,,59678.82133, -29.38970,
,,,59802.12468, -36.18970,
,,,59925.42803, -30.18970,
,,,60048.73138, -31.38970,
,,,60172.03473, -32.98970,
,,,60295.33808, -33.38970,
,,,60418.64143, -28.18970,
,,,60541.94478, -29.38970,
,,,60665.24813, -30.98970,
,,,60788.55148, -22.18970,
,,,60911.85483, -16.98970,
,,,61035.15818, -16.98970,
,,,61158.46153, -17.78970,
,,,61281.76488, -23.78970,
,,,61405.06823, -27.38970,
,,,61528.37158, -26.58970,
,,,61651.67493, -27.38970,
,,,61774.97828, -40.58970,
,,,61898.28163, -32.18970,
,,,62021.58498, -32.18970,
,,,62144.88833, -31.38970,
,,,62268.19168, -40.58970,
,,,62391.49503, -30.18970,
,,,62514.79838, -30.18970,
,,,62638.10173, -30.18970,
,,,62761.40508, -24.98970,
,,,62884.70843, -17.38970,
,,,63008.01178, -16.98970,
,,,63131.31513, -17.38970,
,,,63254.61848, -22.58970,
,,,63377.92183, -26.98970,
,,,63501.22518, -26.58970,
,,,63624.52853, -25.78970,
,,,63747.83188, -34.58970,
,,,63871.13523, -31.38970,
,,,63994.43858, -30.98970,
,,,64117.74193, -32.98970,
,,,64241.04528, -40.58970,
,,,64364.34863, -28.98970,
,,,64487.65198, -28.98970,
,,,64610.95533, -28.18970,
,,,64734.25868, -28.58970,
,,,64857.56203, -18.18970,
,,,64980.86538, -16.98970,
,,,65104.16873, -17.38970,
,,,65227.47208, -20.98970,
,,,65350.77543, -25.78970,
,,,65474.07878, -26.18970,
,,,65597.38213, -26.18970,
,,,65720.68548, -30.98970,
,,,65843.98883, -33.38970,
,,,65967.29218, -30.98970,
,,,66090.59553, -30.18970,
,,,66213.89888, -33.38970,
,,,66337.20223, -30.58970,
,,,66460.50558, -29.38970,
,,,66583.80893, -28.18970,
,,,66707.11228, -34.98970,
,,,66830.41563, -19.78970,
,,,66953.71898, -17.38970,
,,,67077.02233, -16.98970,
,,,67200.32568, -19.78970,
,,,67323.62903, -26.18970,
,,,67446.93238, -26.18970,
,,,67570.23573, -25.78970,
,,,67693.53908, -27.78970,
,,,67816.84243, -36.18970,
,,,67940.14578, -30.98970,
,,,68063.44913, -31.38970,
,,,68186.75248, -34.58970,
,,,68310.05583, -34.98970,
,,,68433.35918, -30.18970,
,,,68556.66253, -28.98970,
,,,68679.96588, -32.58970,
,,,68803.26923, -21.78970,
,,,68926.57258, -17.78970,
,,,69049.87593, -17.78970,
,,,69173.17928, -19.38970,
,,,69296.48263, -24.58970,
,,,69419.78598, -26.18970,
,,,69543.08933, -25.38970,
,,,69666.39268, -26.98970,
,,,69789.69603, -37.78970,
,,,69912.99938, -30.98970,
,,,70036.30273, -30.18970,
,,,70159.60608, -31.38970,
,,,70282.90943, -37.38970,
,,,70406.21278, -29.78970,
,,,70529.51613, -29.78970,
,,,70652.81948, -32.18970,
,,,70776.12283, -22.98970,
,,,70899.42618, -17.78970,
,,,71022.72953, -17.78970,
,,,71146.03288, -18.18970,
,,,71269.33623, -23.78970,
,,,71392.63958, -25.38970,
,,,71515.94293, -24.58970,
,,,71639.24628, -25.38970,
,,,71762.54963, -33.38970,
,,,71885.85298, -32.58970,
,,,72009.15633, -31.38970,
,,,72132.45968, -30.98970,
,,,72255.76303, -38.58970,
,,,72379.06638, -28.98970,
,,,72502.36973, -28.98970,
,,,72625.67308, -28.98970,
,,,72748.97643, -28.18970,
,,,72872.27978, -18.98970,
,,,72995.58313, -18.18970,
,,,73118.88648, -18.18970,
,,,73242.18983, -22.18970,
,,,73365.49318, -25.78970,
,,,73488.79653, -24.98970,
,,,73612.09988, -25.78970,
,,,73735.40323, -32.58970,
,,,73858.70658, -32.18970,
,,,73982.00993, -30.98970,
,,,74105.31328, -30.98970,
,,,74228.61663, -41.38970,
,,,74351.91998, -32.98970,
,,,74475.22333, -29.78970,
,,,74598.52668, -29.78970,
,,,74721.83003, -31.38970,
,,,74845.13338, -19.78970,
,,,74968.43673, -17.78970,
,,,75091.74008, -18.18970,
,,,75215.04343, -20.98970,
,,,75338.34678, -25.78970,
,,,75461.65013, -25.78970,
,,,75584.95348, -24.58970,
,,,75708.25683, -29.78970,
,,,75831.56018, -34.58970,
,,,75954.86353, -29.78970,
,,,76078.16688, -29.78970,
,,,76201.47023, -35.38970,
,,,76324.77358, -33.38970,
,,,76448.07693, -29.38970,
,,,76571.38028, -28.58970,
,,,76694.68363, -33.38970,
,,,76817.98698, -20.98970,
,,,76941.29033, -18.58970,
,,,77064.59368, -18.58970,
,,,77187.89703, -20.18970,
,,,77311.20038, -25.38970,
,,,77434.50373, -24.98970,
,,,77557.80708, -24.98970,
,,,77681.11043, -27.78970,
,,,77804.41378, -38.58970,
,,,77927.71713, -30.58970,
,,,78051.02048, -33.38970,
,,,78174.32383, -37.78970,
,,,78297.62718, -33.38970,
,,,78420.93053, -28.58970,
,,,78544.23388, -29.38970,
,,,78667.53723, -34.98970,
,,,78790.84058, -23.78970,
,,,78914.14393, -18.58970,
,,,79037.44728, -18.98970,
,,,79160.75063, -19.78970,
,,,79284.05398, -24.98970,
,,,79407.35733, -25.78970,
,,,79530.66068, -24.98970,
,,,79653.96403, -25.78970,
,,,79777.26738, -37.38970,
,,,79900.57073, -33.38970,
,,,80023.87408, -31.38970,
,,,80147.17743, -30.18970,
,,,80270.48078, -37.38970,
,,,80393.78413, -30.18970,
,,,80517.08748, -30.18970,
,,,80640.39083, -31.78970,
,,,80763.69418, -27.78970,
,,,80886.99753, -19.78970,
,,,81010.30088, -18.98970,
,,,81133.60423, -19.38970,
,,,81256.90758, -24.18970,
,,,81380.21093, -26.58970,
,,,81503.51428, -25.78970,
,,,81626.81763, -26.18970,
,,,81750.12098, -32.98970,
,,,81873.42433, -30.18970,
,,,81996.72768, -30.18970,
,,,82120.03103, -30.98970,
,,,82243.33438, -40.58970,
,,,82366.63773, -30.98970,
,,,82489.94108, -30.18970,
,,,82613.24443, -29.38970,
,,,82736.54778, -37.38970,
,,,82859.85113, -20.98970,
,,,82983.15448, -19.78970,
,,,83106.45783, -19.38970,
,,,83229.76118, -22.58970,
,,,83353.06453, -24.58970,
,,,83476.36788, -24.58970,
,,,83599.67123, -24.58970,
,,,83722.97458, -29.78970,
,,,83846.27793, -30.98970,
,,,83969.58128, -29.78970,
,,,84092.88463, -30.98970,
,,,84216.18798, -35.38970,
,,,84339.49133, -32.98970,
,,,84462.79468, -30.98970,
,,,84586.09803, -30.18970,
,,,84709.40138, -37.78970,
,,,84832.70473, -22.18970,
,,,84956.00808, -19.78970,
,,,85079.31143, -20.18970,
,,,85202.61478, -21.78970,
,,,85325.91813, -25.38970,
,,,85449.22148, -24.98970,
,,,85572.52483, -24.18970,
,,,85695.82818, -25.78970,
,,,85819.13153, -34.58970,
,,,85942.43488, -29.78970,
,,,86065.73823, -29.78970,
,,,86189.04158, -33.38970,
,,,86312.34493, -36.18970,
,,,86435.64828, -30.58970,
,,,86558.95163, -29.78970,
,,,86682.25498, -32.18970,
,,,86805.55833, -24.18970,
,,,86928.86168, -19.78970,
,,,87052.16503, -20.18970,
,,,87175.46838, -20.98970,
,,,87298.77173, -24.58970,
,,,87422.07508, -25.38970,
,,,87545.37843, -24.98970,
,,,87668.68178, -26.18970,
,,,87791.98513, -34.58970,
,,,87915.28848, -29.78970,
,,,88038.59183, -31.38970,
,,,88161.89518, -33.38970,
,,,88285.19853, -37.38970,
,,,88408.50188, -29.78970,
,,,88531.80523, -30.18970,
,,,88655.10858, -33.38970,
,,,88778.41193, -25.38970,
,,,88901.71528, -19.38970,
,,,89025.01863, -18.98970,
,,,89148.32198, -19.78970,
,,,89271.62533, -23.38970,
,,,89394.92868, -25.38970,
,,,89518.23203, -25.38970,
