Lab_5/ALL0024/F0024FFT.CSV

Record Length,1.024000e+03,,          0.00000, -41.74850,
Sample Interval,1.233033e+01,,         12.33033, -46.94850,
Trigger Point,-0.000000000000e+00,,         24.66067, -54.94850,
,,,         36.99100, -54.94850,
,,,         49.32134, -54.94850,
,,,         61.65167, -54.94850,
Source,FFT,,         73.98201, -54.94850,
Vertical Units,dB,,         86.31234, -54.94850,
Vertical Scale,1.000000e+01,,         98.64268, -54.94850,
Vertical Offset,0.000000e+00,,        110.97301, -53.74850,
Horizontal Units,Hz,,        123.30335, -54.94850,
Horizontal Scale,1.262626e+03,,        135.63368, -54.94850,
Pt Fmt,Y,,        147.96402, -54.94850,
Yzero,-1.494850e+01,,        160.29435, -54.94850,
Probe Atten,1.000000e+00,,        172.62468, -54.94850,
Model Number,TBS1072B-EDU,,        184.95502, -53.74850,
Serial Number,C013385,,        197.28535, -51.34850,
Firmware Version,FV:v4.06,,        209.61569, -53.74850,
,,,221.94602, -53.74850,
,,,234.27635, -54.94850,
,,,246.60668, -54.94850,
,,,258.93701, -54.94850,
,,,271.26734, -54.94850,
,,,283.59767, -53.74850,
,,,295.92800, -53.74850,
,,,308.25833, -54.94850,
,,,320.58866, -54.94850,
,,,332.91899, -53.74850,
,,,345.24932, -53.74850,
,,,357.57965, -54.94850,
,,,369.90998, -54.94850,
,,,382.24031, -54.94850,
,,,394.57064, -54.94850,
,,,406.90097, -54.94850,
,,,419.23130, -53.74850,
,,,431.56163, -54.94850,
,,,443.89196, -54.94850,
,,,456.22229, -54.94850,
,,,468.55262, -54.94850,
,,,480.88295, -54.94850,
,,,493.21328, -53.74850,
,,,505.54361, -51.74850,
,,,517.87394, -51.74850,
,,,530.20427, -54.94850,
,,,542.53460, -54.94850,
,,,554.86493, -51.34850,
,,,567.19526, -54.94850,
,,,579.52559, -54.94850,
,,,591.85592, -54.94850,
,,,604.18625, -54.94850,
,,,616.51658, -54.94850,
,,,628.84691, -54.94850,
,,,641.17724, -54.94850,
,,,653.50757, -54.94850,
,,,665.83790, -54.94850,
,,,678.16823, -54.94850,
,,,690.49856, -54.94850,
,,,702.82889, -54.94850,
,,,715.15922, -54.94850,
,,,727.48955, -54.94850,
,,,739.81988, -53.74850,
,,,752.15021, -53.74850,
,,,764.48054, -54.94850,
,,,776.81087, -54.94850,
,,,789.14120, -54.94850,
,,,801.47153, -53.74850,
,,,813.80186, -53.74850,
,,,826.13219, -54.94850,
,,,838.46252, -54.94850,
,,,850.79285, -54.94850,
,,,863.12318, -54.94850,
,,,875.45351, -54.94850,
,,,887.78384, -54.94850,
,,,900.11417, -54.94850,
,,,912.44450, -54.94850,
,,,924.77483, -54.94850,
,,,937.10516, -54.94850,
,,,949.43549, -54.94850,
,,,961.76582, -54.94850,
,,,974.09615, -54.94850,
,,,986.42648, -54.94850,
,,,998.75681, -54.94850,
,,,1011.08714, -54.94850,
,,,1023.41747, -54.94850,
,,,1035.74780, -54.94850,
,,,1048.07813, -54.94850,
,,,1060.40846, -54.94850,
,,,1072.73879, -54.94850,
,,,1085.06912, -54.94850,
,,,1097.39945, -54.94850,
,,,1109.72978, -54.94850,
,,,1122.06011, -54.94850,
,,,1134.39044, -54.94850,
,,,1146.72077, -54.94850,
,,,1159.05110, -51.74850,
,,,1171.38143, -51.74850,
,,,1183.71176, -54.94850,
,,,1196.04209, -54.94850,
,,,1208.37242, -54.94850,
,,,1220.70275, -53.74850,
,,,1233.03308, -53.74850,
,,,1245.36341, -54.94850,
,,,1257.69374, -53.74850,
,,,1270.02407, -53.74850,
,,,1282.35440, -54.94850,
,,,1294.68473, -54.94850,
,,,1307.01506, -51.34850,
,,,1319.34539, -51.34850,
,,,1331.67572, -53.74850,
,,,1344.00605, -53.74850,
,,,1356.33638, -54.94850,
,,,1368.66671, -54.94850,
,,,1380.99704, -54.94850,
,,,1393.32737, -54.94850,
,,,1405.65770, -50.94850,
,,,1417.98803, -53.74850,
,,,1430.31836, -54.94850,
,,,1442.64869, -54.94850,
,,,1454.97902, -54.94850,
,,,1467.30935, -54.94850,
,,,1479.63968, -54.94850,
,,,1491.97001, -53.74850,
,,,1504.30034, -54.94850,
,,,1516.63067, -54.94850,
,,,1528.96100, -54.94850,
,,,1541.29133, -54.94850,
,,,1553.62166, -54.94850,
,,,1565.95199, -54.94850,
,,,1578.28232, -54.94850,
,,,1590.61265, -53.74850,
,,,1602.94298, -53.74850,
,,,1615.27331, -54.94850,
,,,1627.60364, -51.34850,
,,,1639.93397, -51.74850,
,,,1652.26430, -50.94850,
,,,1664.59463, -54.94850,
,,,1676.92496, -54.94850,
,,,1689.25529, -54.94850,
,,,1701.58562, -54.94850,
,,,1713.91595, -54.94850,
,,,1726.24628, -54.94850,
,,,1738.57661, -54.94850,
,,,1750.90694, -54.94850,
,,,1763.23727, -54.94850,
,,,1775.56760, -54.94850,
,,,1787.89793, -54.94850,
,,,1800.22826, -54.94850,
,,,1812.55859, -54.94850,
,,,1824.88892, -54.94850,
,,,1837.21925, -54.94850,
,,,1849.54958, -54.94850,
,,,1861.87991, -54.94850,
,,,1874.21024, -54.94850,
,,,1886.54057, -54.94850,
,,,1898.87090, -54.94850,
,,,1911.20123, -54.94850,
,,,1923.53156, -53.74850,
,,,1935.86189, -51.34850,
,,,1948.19222, -54.94850,
,,,1960.52255, -54.94850,
,,,1972.85288, -54.94850,
,,,1985.18321, -54.94850,
,,,1997.51354, -54.94850,
,,,2009.84387, -53.74850,
,,,2022.17420, -54.94850,
,,,2034.50453, -54.94850,
,,,2046.83486, -54.94850,
,,,2059.16519, -54.94850,
,,,2071.49552, -54.94850,
,,,2083.82585, -53.74850,
,,,2096.15618, -54.94850,
,,,2108.48651, -54.94850,
,,,2120.81684, -54.94850,
,,,2133.14717, -53.74850,
,,,2145.47750, -54.94850,
,,,2157.80783, -54.94850,
,,,2170.13816, -54.94850,
,,,2182.46849, -54.94850,
,,,2194.79882, -54.94850,
,,,2207.12915, -54.94850,
,,,2219.45948, -54.94850,
,,,2231.78981, -54.94850,
,,,2244.12014, -54.94850,
,,,2256.45047, -54.94850,
,,,2268.78080, -54.94850,
,,,2281.11113, -54.94850,
,,,2293.44146, -54.94850,
,,,2305.77179, -54.94850,
,,,2318.10212, -54.94850,
,,,2330.43245, -53.74850,
,,,2342.76278, -54.94850,
,,,2355.09311, -53.74850,
,,,2367.42344, -54.94850,
,,,2379.75377, -54.94850,
,,,2392.08410, -53.74850,
,,,2404.41443, -53.74850,
,,,2416.74476, -54.94850,
,,,2429.07509, -54.94850,
,,,2441.40542, -53.74850,
,,,2453.73575, -53.74850,
,,,2466.06608, -54.94850,
,,,2478.39641, -54.94850,
,,,2490.72674, -54.94850,
,,,2503.05707, -54.94850,
,,,2515.38740, -54.94850,
,,,2527.71773, -54.94850,
,,,2540.04806, -54.94850,
,,,2552.37839, -54.94850,
,,,2564.70872, -54.94850,
,,,2577.03905, -54.94850,
,,,2589.36938, -54.94850,
,,,2601.69971, -54.94850,
,,,2614.03004, -54.94850,
,,,2626.36037, -54.94850,
,,,2638.69070, -54.94850,
,,,2651.02103, -54.94850,
,,,2663.35136, -54.94850,
,,,2675.68169, -54.94850,
,,,2688.01202, -54.94850,
,,,2700.34235, -54.94850,
,,,2712.67268, -54.94850,
,,,2725.00301, -54.94850,
,,,2737.33334, -54.94850,
,,,2749.66367, -54.94850,
,,,2761.99400, -54.94850,
,,,2774.32433, -53.74850,
,,,2786.65466, -53.74850,
,,,2798.98499, -53.74850,
,,,2811.31532, -54.94850,
,,,2823.64565, -54.94850,
,,,2835.97598, -54.94850,
,,,2848.30631, -54.94850,
,,,2860.63664, -54.94850,
,,,2872.96697, -54.94850,
,,,2885.29730, -53.74850,
,,,2897.62763, -54.94850,
,,,2909.95796, -49.74850,
,,,2922.28829, -53.74850,
,,,2934.61862, -54.94850,
,,,2946.94895, -54.94850,
,,,2959.27928, -54.94850,
,,,2971.60961, -54.94850,
,,,2983.93994, -54.94850,
,,,2996.27027, -53.74850,
,,,3008.60060, -54.94850,
,,,3020.93093, -54.94850,
,,,3033.26126, -54.94850,
,,,3045.59159, -54.94850,
,,,3057.92192, -54.94850,
,,,3070.25225, -54.94850,
,,,3082.58258, -54.94850,
,,,3094.91291, -54.94850,
,,,3107.24324, -54.94850,
,,,3119.57357, -53.74850,
,,,3131.90390, -54.94850,
,,,3144.23423, -54.94850,
,,,3156.56456, -54.94850,
,,,3168.89489, -53.74850,
,,,3181.22522, -54.94850,
,,,3193.55555, -54.94850,
,,,3205.88588, -54.94850,
,,,3218.21621, -54.94850,
,,,3230.54654, -54.94850,
,,,3242.87687, -54.94850,
,,,3255.20720, -54.94850,
,,,3267.53753, -53.74850,
,,,3279.86786, -54.94850,
,,,3292.19819, -54.94850,
,,,3304.52852, -54.94850,
,,,3316.85885, -54.94850,
,,,3329.18918, -54.94850,
,,,3341.51951, -54.94850,
,,,3353.84984, -54.94850,
,,,3366.18017, -54.94850,
,,,3378.51050, -54.94850,
,,,3390.84083, -53.74850,
,,,3403.17116, -54.94850,
,,,3415.50149, -51.74850,
,,,3427.83182, -53.74850,
,,,3440.16215, -54.94850,
,,,3452.49248, -54.94850,
,,,3464.82281, -54.94850,
,,,3477.15314, -54.94850,
,,,3489.48347, -54.94850,
,,,3501.81380, -54.94850,
,,,3514.14413, -54.94850,
,,,3526.47446, -54.94850,
,,,3538.80479, -54.94850,
,,,3551.13512, -54.94850,
,,,3563.46545, -54.94850,
,,,3575.79578, -49.74850,
,,,3588.12611, -49.74850,
,,,3600.45644, -54.94850,
,,,3612.78677, -54.94850,
,,,3625.11710, -54.94850,
,,,3637.44743, -54.94850,
,,,3649.77776, -54.94850,
,,,3662.10809, -53.74850,
,,,3674.43842, -54.94850,
,,,3686.76875, -54.94850,
,,,3699.09908, -53.74850,
,,,3711.42941, -54.94850,
,,,3723.75974, -54.94850,
,,,3736.09007, -54.94850,
,,,3748.42040, -54.94850,
,,,3760.75073, -54.94850,
,,,3773.08106, -54.94850,
,,,3785.41139, -54.94850,
,,,3797.74172, -54.94850,
,,,3810.07205, -54.94850,
,,,3822.40238, -54.94850,
,,,3834.73271, -53.74850,
,,,3847.06304, -50.94850,
,,,3859.39337, -48.54850,
,,,3871.72370, -54.94850,
,,,3884.05403, -54.94850,
,,,3896.38436, -54.94850,
,,,3908.71469, -53.74850,
,,,3921.04502, -54.94850,
,,,3933.37535, -53.74850,
,,,3945.70568, -53.74850,
,,,3958.03601, -54.94850,
,,,3970.36634, -54.94850,
,,,3982.69667, -54.94850,
,,,3995.02700, -54.94850,
,,,4007.35733, -54.94850,
,,,4019.68766, -54.94850,
,,,4032.01799, -54.94850,
,,,4044.34832, -54.94850,
,,,4056.67865, -54.94850,
,,,4069.00898, -54.94850,
,,,4081.33931, -54.94850,
,,,4093.66964, -54.94850,
,,,4105.99997, -54.94850,
,,,4118.33030, -54.94850,
,,,4130.66063, -54.94850,
,,,4142.99096, -54.94850,
,,,4155.32129, -54.94850,
,,,4167.65162, -54.94850,
,,,4179.98195, -54.94850,
,,,4192.31228, -54.94850,
,,,4204.64261, -54.94850,
,,,4216.97294, -54.94850,
,,,4229.30327, -53.74850,
,,,4241.63360, -54.94850,
,,,4253.96393, -54.94850,
,,,4266.29426, -54.94850,
,,,4278.62459, -53.74850,
,,,4290.95492, -54.94850,
,,,4303.28525, -53.74850,
,,,4315.61558, -54.94850,
,,,4327.94591, -54.94850,
,,,4340.27624, -54.94850,
,,,4352.60657, -54.94850,
,,,4364.93690, -54.94850,
,,,4377.26723, -53.74850,
,,,4389.59756, -54.94850,
,,,4401.92789, -53.74850,
,,,4414.25822, -54.94850,
,,,4426.58855, -54.94850,
,,,4438.91888, -54.94850,
,,,4451.24921, -54.94850,
,,,4463.57954, -54.94850,
,,,4475.90987, -54.94850,
,,,4488.24020, -53.74850,
,,,4500.57053, -53.74850,
,,,4512.90086, -53.74850,
,,,4525.23119, -53.74850,
,,,4537.56152, -53.74850,
,,,4549.89185, -54.94850,
,,,4562.22218, -53.74850,
,,,4574.55251, -54.94850,
,,,4586.88284, -54.94850,
,,,4599.21317, -54.94850,
,,,4611.54350, -54.94850,
,,,4623.87383, -54.94850,
,,,4636.20416, -54.94850,
,,,4648.53449, -53.74850,
,,,4660.86482, -54.94850,
,,,4673.19515, -54.94850,
,,,4685.52548, -51.74850,
,,,4697.85581, -54.94850,
,,,4710.18614, -42.94850,
,,,4722.51647, -36.54850,
,,,4734.84680, -17.34850,
,,,4747.17713,  -5.34850,
,,,4759.50746,  -6.14850,
,,,4771.83779, -21.34850,
,,,4784.16812, -38.14850,
,,,4796.49845, -50.94850,
,,,4808.82878, -48.54850,
,,,4821.15911, -53.74850,
,,,4833.48944, -50.94850,
,,,4845.81977, -54.94850,
,,,4858.15010, -51.74850,
,,,4870.48043, -48.54850,
,,,4882.81076, -54.94850,
,,,4895.14109, -54.94850,
,,,4907.47142, -54.94850,
,,,4919.80175, -53.74850,
,,,4932.13208, -51.34850,
,,,4944.46241, -53.74850,
,,,4956.79274, -53.74850,
,,,4969.12307, -53.74850,
,,,4981.45340, -54.94850,
,,,4993.78373, -54.94850,
,,,5006.11406, -53.74850,
,,,5018.44439, -54.94850,
,,,5030.77472, -54.94850,
,,,5043.10505, -54.94850,
,,,5055.43538, -54.94850,
,,,5067.76571, -54.94850,
,,,5080.09604, -54.94850,
,,,5092.42637, -54.94850,
,,,5104.75670, -49.74850,
,,,5117.08703, -51.74850,
,,,5129.41736, -50.94850,
,,,5141.74769, -48.94850,
,,,5154.07802, -54.94850,
,,,5166.40835, -54.94850,
,,,5178.73868, -54.94850,
,,,5191.06901, -54.94850,
,,,5203.39934, -54.94850,
,,,5215.72967, -53.74850,
,,,5228.06000, -42.54850,
,,,5240.39033,  -0.54850,
,,,5252.72066,   5.05150,
,,,5265.05099,  -1.34850,
,,,5277.38132, -44.94850,
,,,5289.71165, -48.54850,
,,,5302.04198, -54.94850,
,,,5314.37231, -54.94850,
,,,5326.70264, -54.94850,
,,,5339.03297, -53.74850,
,,,5351.36330, -54.94850,
,,,5363.69363, -54.94850,
,,,5376.02396, -54.94850,
,,,5388.35429, -54.94850,
,,,5400.68462, -54.94850,
,,,5413.01495, -53.74850,
,,,5425.34528, -54.94850,
,,,5437.67561, -54.94850,
,,,5450.00594, -54.94850,
,,,5462.33627, -51.34850,
,,,5474.66660, -54.94850,
,,,5486.99693, -54.94850,
,,,5499.32726, -54.94850,
,,,5511.65759, -54.94850,
,,,5523.98792, -54.94850,
,,,5536.31825, -54.94850,
,,,5548.64858, -54.94850,
,,,5560.97891, -54.94850,
,,,5573.30924, -54.94850,
,,,5585.63957, -54.94850,
,,,5597.96990, -53.74850,
,,,5610.30023, -54.94850,
,,,5622.63056, -51.34850,
,,,5634.96089, -54.94850,
,,,5647.29122, -54.94850,
,,,5659.62155, -54.94850,
,,,5671.95188, -54.94850,
,,,5684.28221, -54.94850,
,,,5696.61254, -53.74850,
,,,5708.94287, -45.74850,
,,,5721.27320, -36.94850,
,,,5733.60353, -20.14850,
,,,5745.93386,  -5.74850,
,,,5758.26419,  -5.34850,
,,,5770.59452, -18.94850,
,,,5782.92485, -35.74850,
,,,5795.25518, -53.74850,
,,,5807.58551, -49.74850,
,,,5819.91584, -54.94850,
,,,5832.24617, -54.94850,
,,,5844.57650, -54.94850,
,,,5856.90683, -54.94850,
,,,5869.23716, -54.94850,
,,,5881.56749, -54.94850,
,,,5893.89782, -54.94850,
,,,5906.22815, -54.94850,
,,,5918.55848, -54.94850,
,,,5930.88881, -54.94850,
,,,5943.21914, -54.94850,
,,,5955.54947, -54.94850,
,,,5967.87980, -54.94850,
,,,5980.21013, -54.94850,
,,,5992.54046, -54.94850,
,,,6004.87079, -53.74850,
,,,6017.20112, -54.94850,
,,,6029.53145, -54.94850,
,,,6041.86178, -54.94850,
,,,6054.19211, -50.94850,
,,,6066.52244, -47.74850,
,,,6078.85277, -54.94850,
,,,6091.18310, -54.94850,
,,,6103.51343, -54.94850,
,,,6115.84376, -54.94850,
,,,6128.17409, -54.94850,
,,,6140.50442, -53.74850,
,,,6152.83475, -54.94850,
,,,6165.16508, -54.94850,
,,,6177.49541, -54.94850,
,,,6189.82574, -54.94850,
,,,6202.15607, -54.94850,
,,,6214.48640, -54.94850,
,,,6226.81673, -54.94850,
,,,6239.14706, -54.94850,
,,,6251.47739, -53.74850,
,,,6263.80772, -53.74850,
,,,6276.13805, -54.94850,
,,,6288.46838, -54.94850,
,,,6300.79871, -53.74850,
,,,6313.12904, -54.94850,
,,,6325.45937, -53.74850,
,,,6337.78970, -54.94850,
,,,6350.12003, -54.94850,
,,,6362.45036, -54.94850,
,,,6374.78069, -54.94850,
,,,6387.11102, -54.94850,
,,,6399.44135, -54.94850,
,,,6411.77168, -54.94850,
,,,6424.10201, -54.94850,
,,,6436.43234, -54.94850,
,,,6448.76267, -54.94850,
,,,6461.09300, -54.94850,
,,,6473.42333, -54.94850,
,,,6485.75366, -54.94850,
,,,6498.08399, -54.94850,
,,,6510.41432, -54.94850,
,,,6522.74465, -54.94850,
,,,6535.07498, -49.74850,
,,,6547.40531, -50.94850,
,,,6559.73564, -54.94850,
,,,6572.06597, -54.94850,
,,,6584.39630, -54.94850,
,,,6596.72663, -54.94850,
,,,6609.05696, -54.94850,
,,,6621.38729, -54.94850,
,,,6633.71762, -54.94850,
,,,6646.04795, -54.94850,
,,,6658.37828, -54.94850,
,,,6670.70861, -54.94850,
,,,6683.03894, -54.94850,
,,,6695.36927, -54.94850,
,,,6707.69960, -54.94850,
,,,6720.02993, -54.94850,
,,,6732.36026, -54.94850,
,,,6744.69059, -53.74850,
,,,6757.02092, -54.94850,
,,,6769.35125, -54.94850,
,,,6781.68158, -54.94850,
,,,6794.01191, -54.94850,
,,,6806.34224, -54.94850,
,,,6818.67257, -54.94850,
,,,6831.00290, -53.74850,
,,,6843.33323, -54.94850,
,,,6855.66356, -54.94850,
,,,6867.99389, -54.94850,
,,,6880.32422, -54.94850,
,,,6892.65455, -54.94850,
,,,6904.98488, -53.74850,
,,,6917.31521, -54.94850,
,,,6929.64554, -54.94850,
,,,6941.97587, -54.94850,
,,,6954.30620, -54.94850,
,,,6966.63653, -54.94850,
,,,6978.96686, -54.94850,
,,,6991.29719, -49.74850,
,,,7003.62752, -51.34850,
,,,7015.95785, -54.94850,
,,,7028.28818, -54.94850,
,,,7040.61851, -54.94850,
,,,7052.94884, -54.94850,
,,,7065.27917, -54.94850,
,,,7077.60950, -54.94850,
,,,7089.93983, -54.94850,
,,,7102.27016, -54.94850,
,,,7114.60049, -53.74850,
,,,7126.93082, -54.94850,
,,,7139.26115, -54.94850,
,,,7151.59148, -54.94850,
,,,7163.92181, -54.94850,
,,,7176.25214, -54.94850,
,,,7188.58247, -53.74850,
,,,7200.91280, -49.74850,
,,,7213.24313, -51.34850,
,,,7225.57346, -54.94850,
,,,7237.90379, -54.94850,
,,,7250.23412, -54.94850,
,,,7262.56445, -54.94850,
,,,7274.89478, -54.94850,
,,,7287.22511, -54.94850,
,,,7299.55544, -54.94850,
,,,7311.88577, -54.94850,
,,,7324.21610, -54.94850,
,,,7336.54643, -54.94850,
,,,7348.87676, -54.94850,
,,,7361.20709, -54.94850,
,,,7373.53742, -54.94850,
,,,7385.86775, -54.94850,
,,,7398.19808, -51.34850,
,,,7410.52841, -53.74850,
,,,7422.85874, -54.94850,
,,,7435.18907, -54.94850,
,,,7447.51940, -54.94850,
,,,7459.84973, -54.94850,
,,,7472.18006, -54.94850,
,,,7484.51039, -53.74850,
,,,7496.84072, -53.74850,
,,,7509.17105, -54.94850,
,,,7521.50138, -54.94850,
,,,7533.83171, -54.94850,
,,,7546.16204, -54.94850,
,,,7558.49237, -54.94850,
,,,7570.82270, -54.94850,
,,,7583.15303, -54.94850,
,,,7595.48336, -54.94850,
,,,7607.81369, -54.94850,
,,,7620.14402, -54.94850,
,,,7632.47435, -54.94850,
,,,7644.80468, -53.74850,
,,,7657.13501, -54.94850,
,,,7669.46534, -54.94850,
,,,7681.79567, -54.94850,
,,,7694.12600, -54.94850,
,,,7706.45633, -54.94850,
,,,7718.78666, -54.94850,
,,,7731.11699, -54.94850,
,,,7743.44732, -54.94850,
,,,7755.77765, -54.94850,
,,,7768.10798, -54.94850,
,,,7780.43831, -54.94850,
,,,7792.76864, -54.94850,
,,,7805.09897, -54.94850,
,,,7817.42930, -54.94850,
,,,7829.75963, -53.74850,
,,,7842.08996, -53.74850,
,,,7854.42029, -51.74850,
,,,7866.75062, -54.94850,
,,,7879.08095, -54.94850,
,,,7891.41128, -53.74850,
,,,7903.74161, -54.94850,
,,,7916.07194, -54.94850,
,,,7928.40227, -53.74850,
,,,7940.73260, -53.74850,
,,,7953.06293, -54.94850,
,,,7965.39326, -54.94850,
,,,7977.72359, -54.94850,
,,,7990.05392, -54.94850,
,,,8002.38425, -54.94850,
,,,8014.71458, -53.74850,
,,,8027.04491, -54.94850,
,,,8039.37524, -54.94850,
,,,8051.70557, -54.94850,
,,,8064.03590, -54.94850,
,,,8076.36623, -54.94850,
,,,8088.69656, -54.94850,
,,,8101.02689, -53.74850,
,,,8113.35722, -54.94850,
,,,8125.68755, -54.94850,
,,,8138.01788, -53.74850,
,,,8150.34821, -51.34850,
,,,8162.67854, -54.94850,
,,,8175.00887, -54.94850,
,,,8187.33920, -51.74850,
,,,8199.66953, -50.94850,
,,,8211.99986, -51.74850,
,,,8224.33019, -53.74850,
,,,8236.66052, -54.94850,
,,,8248.99085, -54.94850,
,,,8261.32118, -54.94850,
,,,8273.65151, -54.94850,
,,,8285.98184, -54.94850,
,,,8298.31217, -54.94850,
,,,8310.64250, -54.94850,
,,,8322.97283, -54.94850,
,,,8335.30316, -54.94850,
,,,8347.63349, -54.94850,
,,,8359.96382, -53.74850,
,,,8372.29415, -54.94850,
,,,8384.62448, -53.74850,
,,,8396.95481, -50.94850,
,,,8409.28514, -54.94850,
,,,8421.61547, -54.94850,
,,,8433.94580, -54.94850,
,,,8446.27613, -54.94850,
,,,8458.60646, -54.94850,
,,,8470.93679, -53.74850,
,,,8483.26712, -50.94850,
,,,8495.59745, -51.74850,
,,,8507.92778, -54.94850,
,,,8520.25811, -54.94850,
,,,8532.58844, -54.94850,
,,,8544.91877, -54.94850,
,,,8557.24910, -54.94850,
,,,8569.57943, -54.94850,
,,,8581.90976, -54.94850,
,,,8594.24009, -54.94850,
,,,8606.57042, -54.94850,
,,,8618.90075, -54.94850,
,,,8631.23108, -53.74850,
,,,8643.56141, -53.74850,
,,,8655.89174, -54.94850,
,,,8668.22207, -53.74850,
,,,8680.55240, -54.94850,
,,,8692.88273, -54.94850,
,,,8705.21306, -54.94850,
,,,8717.54339, -54.94850,
,,,8729.87372, -54.94850,
,,,8742.20405, -54.94850,
,,,8754.53438, -54.94850,
,,,8766.86471, -54.94850,
,,,8779.19504, -54.94850,
,,,8791.52537, -51.34850,
,,,8803.85570, -54.94850,
,,,8816.18603, -54.94850,
,,,8828.51636, -54.94850,
,,,8840.84669, -54.94850,
,,,8853.17702, -54.94850,
,,,8865.50735, -54.94850,
,,,8877.83768, -54.94850,
,,,8890.16801, -54.94850,
,,,8902.49834, -53.74850,
,,,8914.82867, -53.74850,
,,,8927.15900, -54.94850,
,,,8939.48933, -54.94850,
,,,8951.81966, -54.94850,
,,,8964.14999, -54.94850,
,,,8976.48032, -54.94850,
,,,8988.81065, -54.94850,
,,,9001.14098, -54.94850,
,,,9013.47131, -54.94850,
,,,9025.80164, -53.74850,
,,,9038.13197, -51.34850,
,,,9050.46230, -54.94850,
,,,9062.79263, -54.94850,
,,,9075.12296, -54.94850,
,,,9087.45329, -54.94850,
,,,9099.78362, -54.94850,
,,,9112.11395, -53.74850,
,,,9124.44428, -51.74850,
,,,9136.77461, -54.94850,
,,,9149.10494, -54.94850,
,,,9161.43527, -54.94850,
,,,9173.76560, -54.94850,
,,,9186.09593, -54.94850,
,,,9198.42626, -54.94850,
,,,9210.75659, -53.74850,
,,,9223.08692, -54.94850,
,,,9235.41725, -54.94850,
,,,9247.74758, -51.74850,
,,,9260.07791, -54.94850,
,,,9272.40824, -54.94850,
,,,9284.73857, -53.74850,
