Lab_3/ALL0010/F0010FFT.CSV

Record Length,1.024000e+03,,          0.00000, -20.58970,
Sample Interval,2.466067e+01,,         24.66067, -17.38970,
Trigger Point,-0.000000000000e+00,,         49.32134, -23.78970,
,,,         73.98201, -46.98970,
,,,         98.64268, -46.98970,
,,,        123.30335, -41.38970,
Source,FFT,,        147.96402, -40.58970,
Vertical Units,dB,,        172.62468, -46.98970,
Vertical Scale,1.000000e+01,,        197.28535, -44.58970,
Vertical Offset,0.000000e+00,,        221.94602, -44.58970,
Horizontal Units,Hz,,        246.60669, -44.58970,
Horizontal Scale,2.525253e+03,,        271.26736, -46.98970,
Pt Fmt,Y,,        295.92803, -40.58970,
Yzero,-6.989700e+00,,        320.58870, -44.58970,
Probe Atten,1.000000e+00,,        345.24937, -44.58970,
Model Number,TBS1072B-EDU,,        369.91004, -46.98970,
Serial Number,C013385,,        394.57071, -44.58970,
Firmware Version,FV:v4.06,,        419.23138, -44.58970,
,,,443.89205, -25.38970,
,,,468.55272, -15.78970,
,,,493.21339, -14.18970,
,,,517.87406, -14.58970,
,,,542.53473, -18.58970,
,,,567.19540, -36.18970,
,,,591.85607, -46.98970,
,,,616.51674, -46.98970,
,,,641.17741, -46.98970,
,,,665.83808, -46.98970,
,,,690.49875, -44.58970,
,,,715.15942, -41.38970,
,,,739.82009, -40.58970,
,,,764.48076, -46.98970,
,,,789.14143, -37.78970,
,,,813.80210, -41.38970,
,,,838.46277, -31.78970,
,,,863.12344, -29.38970,
,,,887.78411, -22.58970,
,,,912.44478, -14.18970,
,,,937.10545,   1.41030,
,,,961.76612,  16.21030,
,,,986.42679,  19.01030,
,,,1011.08746,  19.01030,
,,,1035.74813,  17.01030,
,,,1060.40880,   4.21030,
,,,1085.06947, -12.98970,
,,,1109.73014, -21.78970,
,,,1134.39081, -28.18970,
,,,1159.05148, -34.98970,
,,,1183.71215, -37.78970,
,,,1208.37282, -37.78970,
,,,1233.03349, -46.98970,
,,,1257.69416, -38.58970,
,,,1282.35483, -41.38970,
,,,1307.01550, -40.58970,
,,,1331.67617, -46.98970,
,,,1356.33684, -40.58970,
,,,1380.99751, -41.38970,
,,,1405.65818, -44.58970,
,,,1430.31885, -40.58970,
,,,1454.97952, -19.38970,
,,,1479.64019, -14.18970,
,,,1504.30086, -14.18970,
,,,1528.96153, -14.98970,
,,,1553.62220, -23.78970,
,,,1578.28287, -46.98970,
,,,1602.94354, -46.98970,
,,,1627.60421, -46.98970,
,,,1652.26488, -41.38970,
,,,1676.92555, -41.38970,
,,,1701.58622, -41.38970,
,,,1726.24689, -46.98970,
,,,1750.90756, -46.98970,
,,,1775.56823, -46.98970,
,,,1800.22890, -46.98970,
,,,1824.88957, -46.98970,
,,,1849.55024, -44.58970,
,,,1874.21091, -46.98970,
,,,1898.87158, -46.98970,
,,,1923.53225, -37.38970,
,,,1948.19292, -27.38970,
,,,1972.85359, -18.58970,
,,,1997.51426, -17.38970,
,,,2022.17493, -17.38970,
,,,2046.83560, -22.98970,
,,,2071.49627, -46.98970,
,,,2096.15694, -46.98970,
,,,2120.81761, -44.58970,
,,,2145.47828, -46.98970,
,,,2170.13895, -46.98970,
,,,2194.79962, -46.98970,
,,,2219.46029, -44.58970,
,,,2244.12096, -46.98970,
,,,2268.78163, -46.98970,
,,,2293.44230, -46.98970,
,,,2318.10297, -44.58970,
,,,2342.76364, -44.58970,
,,,2367.42431, -46.98970,
,,,2392.08498, -46.98970,
,,,2416.74565, -44.58970,
,,,2441.40632, -28.58970,
,,,2466.06699, -16.58970,
,,,2490.72766, -14.58970,
,,,2515.38833, -14.58970,
,,,2540.04900, -17.38970,
,,,2564.70967, -34.98970,
,,,2589.37034, -44.58970,
,,,2614.03101, -46.98970,
,,,2638.69168, -46.98970,
,,,2663.35235, -40.58970,
,,,2688.01302, -40.58970,
,,,2712.67369, -37.38970,
,,,2737.33436, -46.98970,
,,,2761.99503, -40.58970,
,,,2786.65570, -46.98970,
,,,2811.31637, -46.98970,
,,,2835.97704, -37.78970,
,,,2860.63771, -41.38970,
,,,2885.29838, -31.78970,
,,,2909.95905, -25.78970,
,,,2934.61972, -11.38970,
,,,2959.28039,   5.81030,
,,,2983.94106,   9.41030,
,,,3008.60173,   9.81030,
,,,3033.26240,   7.81030,
,,,3057.92307,  -2.98970,
,,,3082.58374, -21.78970,
,,,3107.24441, -32.18970,
,,,3131.90508, -34.98970,
,,,3156.56575, -40.58970,
,,,3181.22642, -40.58970,
,,,3205.88709, -46.98970,
,,,3230.54776, -40.58970,
,,,3255.20843, -46.98970,
,,,3279.86910, -46.98970,
,,,3304.52977, -46.98970,
,,,3329.19044, -46.98970,
,,,3353.85111, -40.58970,
,,,3378.51178, -44.58970,
,,,3403.17245, -44.58970,
,,,3427.83312, -46.98970,
,,,3452.49379, -20.18970,
,,,3477.15446, -13.78970,
,,,3501.81513, -13.38970,
,,,3526.47580, -14.18970,
,,,3551.13647, -20.98970,
,,,3575.79714, -46.98970,
,,,3600.45781, -46.98970,
,,,3625.11848, -46.98970,
,,,3649.77915, -46.98970,
,,,3674.43982, -46.98970,
,,,3699.10049, -44.58970,
,,,3723.76116, -44.58970,
,,,3748.42183, -46.98970,
,,,3773.08250, -44.58970,
,,,3797.74317, -46.98970,
,,,3822.40384, -46.98970,
,,,3847.06451, -41.38970,
,,,3871.72518, -41.38970,
,,,3896.38585, -46.98970,
,,,3921.04652, -46.98970,
,,,3945.70719, -26.58970,
,,,3970.36786, -17.78970,
,,,3995.02853, -16.58970,
,,,4019.68920, -16.58970,
,,,4044.34987, -21.38970,
,,,4069.01054, -40.58970,
,,,4093.67121, -46.98970,
,,,4118.33188, -44.58970,
,,,4142.99255, -40.58970,
,,,4167.65322, -41.38970,
,,,4192.31389, -44.58970,
,,,4216.97456, -40.58970,
,,,4241.63523, -44.58970,
,,,4266.29590, -46.98970,
,,,4290.95657, -46.98970,
,,,4315.61724, -46.98970,
,,,4340.27791, -41.38970,
,,,4364.93858, -41.38970,
,,,4389.59925, -46.98970,
,,,4414.25992, -40.58970,
,,,4438.92059, -30.98970,
,,,4463.58126, -16.98970,
,,,4488.24193, -14.58970,
,,,4512.90260, -14.58970,
,,,4537.56327, -17.38970,
,,,4562.22394, -32.98970,
,,,4586.88461, -40.58970,
,,,4611.54528, -46.98970,
,,,4636.20595, -44.58970,
,,,4660.86662, -46.98970,
,,,4685.52729, -46.98970,
,,,4710.18796, -44.58970,
,,,4734.84863, -46.98970,
,,,4759.50930, -46.98970,
,,,4784.16997, -46.98970,
,,,4808.83064, -46.98970,
,,,4833.49131, -46.98970,
,,,4858.15198, -46.98970,
,,,4882.81265, -37.38970,
,,,4907.47332, -34.98970,
,,,4932.13399, -20.58970,
,,,4956.79466,   0.61030,
,,,4981.45533,   5.01030,
,,,5006.11600,   5.01030,
,,,5030.77667,   3.81030,
,,,5055.43734,  -4.98970,
,,,5080.09801, -27.38970,
,,,5104.75868, -37.38970,
,,,5129.41935, -46.98970,
,,,5154.08002, -44.58970,
,,,5178.74069, -46.98970,
,,,5203.40136, -44.58970,
,,,5228.06203, -46.98970,
,,,5252.72270, -46.98970,
,,,5277.38337, -44.58970,
,,,5302.04404, -46.98970,
,,,5326.70471, -46.98970,
,,,5351.36538, -46.98970,
,,,5376.02605, -46.98970,
,,,5400.68672, -46.98970,
,,,5425.34739, -46.98970,
,,,5450.00806, -20.58970,
,,,5474.66873, -13.78970,
,,,5499.32940, -12.98970,
,,,5523.99007, -13.38970,
,,,5548.65074, -19.38970,
,,,5573.31141, -40.58970,
,,,5597.97208, -46.98970,
,,,5622.63275, -46.98970,
,,,5647.29342, -40.58970,
,,,5671.95409, -38.58970,
,,,5696.61476, -38.58970,
,,,5721.27543, -40.58970,
,,,5745.93610, -44.58970,
,,,5770.59677, -44.58970,
,,,5795.25744, -46.98970,
,,,5819.91811, -46.98970,
,,,5844.57878, -46.98970,
,,,5869.23945, -44.58970,
,,,5893.90012, -40.58970,
,,,5918.56079, -46.98970,
,,,5943.22146, -28.98970,
,,,5967.88213, -18.58970,
,,,5992.54280, -16.58970,
,,,6017.20347, -16.58970,
,,,6041.86414, -20.18970,
,,,6066.52481, -37.38970,
,,,6091.18548, -40.58970,
,,,6115.84615, -44.58970,
,,,6140.50682, -44.58970,
,,,6165.16749, -41.38970,
,,,6189.82816, -46.98970,
,,,6214.48883, -46.98970,
,,,6239.14950, -46.98970,
,,,6263.81017, -46.98970,
,,,6288.47084, -46.98970,
,,,6313.13151, -46.98970,
,,,6337.79218, -46.98970,
,,,6362.45285, -40.58970,
,,,6387.11352, -41.38970,
,,,6411.77419, -37.78970,
,,,6436.43486, -33.38970,
,,,6461.09553, -18.18970,
,,,6485.75620, -14.98970,
,,,6510.41687, -14.98970,
,,,6535.07754, -16.58970,
,,,6559.73821, -28.58970,
,,,6584.39888, -41.38970,
,,,6609.05955, -46.98970,
,,,6633.72022, -46.98970,
,,,6658.38089, -46.98970,
,,,6683.04156, -46.98970,
,,,6707.70223, -41.38970,
,,,6732.36290, -41.38970,
,,,6757.02357, -41.38970,
,,,6781.68424, -46.98970,
,,,6806.34491, -46.98970,
,,,6831.00558, -41.38970,
,,,6855.66625, -41.38970,
,,,6880.32692, -41.38970,
,,,6904.98759, -44.58970,
,,,6929.64826, -29.78970,
,,,6954.30893,  -3.38970,
,,,6978.96960,   1.81030,
,,,7003.63027,   2.21030,
,,,7028.29094,   1.41030,
,,,7052.95161,  -6.58970,
,,,7077.61228, -32.98970,
,,,7102.27295, -41.38970,
,,,7126.93362, -44.58970,
,,,7151.59429, -46.98970,
,,,7176.25496, -46.98970,
,,,7200.91563, -46.98970,
,,,7225.57630, -44.58970,
,,,7250.23697, -44.58970,
,,,7274.89764, -38.58970,
,,,7299.55831, -44.58970,
,,,7324.21898, -44.58970,
,,,7348.87965, -46.98970,
,,,7373.54032, -46.98970,
,,,7398.20099, -41.38970,
,,,7422.86166, -44.58970,
,,,7447.52233, -21.78970,
,,,7472.18300, -13.78970,
,,,7496.84367, -12.98970,
,,,7521.50434, -12.98970,
,,,7546.16501, -17.78970,
,,,7570.82568, -40.58970,
,,,7595.48635, -46.98970,
,,,7620.14702, -46.98970,
,,,7644.80769, -44.58970,
,,,7669.46836, -44.58970,
,,,7694.12903, -41.38970,
,,,7718.78970, -44.58970,
,,,7743.45037, -46.98970,
,,,7768.11104, -46.98970,
,,,7792.77171, -46.98970,
,,,7817.43238, -46.98970,
,,,7842.09305, -46.98970,
,,,7866.75372, -46.98970,
,,,7891.41439, -46.98970,
,,,7916.07506, -46.98970,
,,,7940.73573, -31.38970,
,,,7965.39640, -18.98970,
,,,7990.05707, -16.98970,
,,,8014.71774, -16.98970,
,,,8039.37841, -20.18970,
,,,8064.03908, -37.38970,
,,,8088.69975, -44.58970,
,,,8113.36042, -41.38970,
,,,8138.02109, -40.58970,
,,,8162.68176, -40.58970,
,,,8187.34243, -36.18970,
,,,8212.00310, -40.58970,
,,,8236.66377, -40.58970,
,,,8261.32444, -37.38970,
,,,8285.98511, -44.58970,
,,,8310.64578, -44.58970,
,,,8335.30645, -46.98970,
,,,8359.96712, -44.58970,
,,,8384.62779, -44.58970,
,,,8409.28846, -46.98970,
,,,8433.94913, -37.38970,
,,,8458.60980, -18.98970,
,,,8483.27047, -14.98970,
,,,8507.93114, -14.98970,
,,,8532.59181, -16.18970,
,,,8557.25248, -26.18970,
,,,8581.91315, -46.98970,
,,,8606.57382, -46.98970,
,,,8631.23449, -46.98970,
,,,8655.89516, -46.98970,
,,,8680.55583, -44.58970,
,,,8705.21650, -44.58970,
,,,8729.87717, -44.58970,
,,,8754.53784, -46.98970,
,,,8779.19851, -44.58970,
,,,8803.85918, -46.98970,
,,,8828.51985, -46.98970,
,,,8853.18052, -46.98970,
,,,8877.84119, -44.58970,
,,,8902.50186, -44.58970,
,,,8927.16253, -41.38970,
,,,8951.82320,  -6.98970,
,,,8976.48387,  -0.18970,
,,,9001.14454,   0.21030,
,,,9025.80521,  -0.58970,
,,,9050.46588,  -6.98970,
,,,9075.12655, -46.98970,
,,,9099.78722, -46.98970,
,,,9124.44789, -46.98970,
,,,9149.10856, -46.98970,
,,,9173.76923, -46.98970,
,,,9198.42990, -46.98970,
,,,9223.09057, -41.38970,
,,,9247.75124, -46.98970,
,,,9272.41191, -44.58970,
,,,9297.07258, -40.58970,
,,,9321.73325, -40.58970,
,,,9346.39392, -37.38970,
,,,9371.05459, -37.38970,
,,,9395.71526, -36.18970,
,,,9420.37593, -44.58970,
,,,9445.03660, -22.58970,
,,,9469.69727, -13.78970,
,,,9494.35794, -12.18970,
,,,9519.01861, -12.58970,
,,,9543.67928, -16.58970,
,,,9568.33995, -35.38970,
,,,9593.00062, -44.58970,
,,,9617.66129, -46.98970,
,,,9642.32196, -46.98970,
,,,9666.98263, -46.98970,
,,,9691.64330, -44.58970,
,,,9716.30397, -46.98970,
,,,9740.96464, -46.98970,
,,,9765.62531, -44.58970,
,,,9790.28598, -44.58970,
,,,9814.94665, -46.98970,
,,,9839.60732, -44.58970,
,,,9864.26799, -46.98970,
,,,9888.92866, -44.58970,
,,,9913.58933, -44.58970,
,,,9938.25000, -34.58970,
,,,9962.91067, -19.78970,
,,,9987.57134, -16.98970,
,,,10012.23201, -16.98970,
,,,10036.89268, -18.98970,
,,,10061.55335, -32.18970,
,,,10086.21402, -40.58970,
,,,10110.87469, -46.98970,
,,,10135.53536, -44.58970,
,,,10160.19603, -46.98970,
,,,10184.85670, -46.98970,
,,,10209.51737, -46.98970,
,,,10234.17804, -46.98970,
,,,10258.83871, -44.58970,
,,,10283.49938, -44.58970,
,,,10308.16005, -44.58970,
,,,10332.82072, -46.98970,
,,,10357.48139, -46.98970,
,,,10382.14206, -46.98970,
,,,10406.80273, -37.78970,
,,,10431.46340, -46.98970,
,,,10456.12407, -20.58970,
,,,10480.78474, -15.38970,
,,,10505.44541, -14.98970,
,,,10530.10608, -15.78970,
,,,10554.76675, -24.58970,
,,,10579.42742, -41.38970,
,,,10604.08809, -41.38970,
,,,10628.74876, -40.58970,
,,,10653.40943, -44.58970,
,,,10678.07010, -46.98970,
,,,10702.73077, -46.98970,
,,,10727.39144, -46.98970,
,,,10752.05211, -44.58970,
,,,10776.71278, -40.58970,
,,,10801.37345, -44.58970,
,,,10826.03412, -41.38970,
,,,10850.69479, -44.58970,
,,,10875.35546, -46.98970,
,,,10900.01613, -41.38970,
,,,10924.67680, -37.38970,
,,,10949.33747, -10.18970,
,,,10973.99814,  -2.18970,
,,,10998.65881,  -1.78970,
,,,11023.31948,  -1.78970,
,,,11047.98015,  -7.38970,
,,,11072.64082, -36.18970,
,,,11097.30149, -44.58970,
,,,11121.96216, -46.98970,
,,,11146.62283, -41.38970,
,,,11171.28350, -46.98970,
,,,11195.94417, -38.58970,
,,,11220.60484, -44.58970,
,,,11245.26551, -40.58970,
,,,11269.92618, -44.58970,
,,,11294.58685, -44.58970,
,,,11319.24752, -44.58970,
,,,11343.90819, -44.58970,
,,,11368.56886, -44.58970,
,,,11393.22953, -46.98970,
,,,11417.89020, -44.58970,
,,,11442.55087, -24.98970,
,,,11467.21154, -13.38970,
,,,11491.87221, -11.78970,
,,,11516.53288, -12.18970,
,,,11541.19355, -15.78970,
,,,11565.85422, -33.38970,
,,,11590.51489, -44.58970,
,,,11615.17556, -46.98970,
,,,11639.83623, -46.98970,
,,,11664.49690, -46.98970,
,,,11689.15757, -41.38970,
,,,11713.81824, -46.98970,
,,,11738.47891, -46.98970,
,,,11763.13958, -46.98970,
,,,11787.80025, -46.98970,
,,,11812.46092, -46.98970,
,,,11837.12159, -46.98970,
,,,11861.78226, -46.98970,
,,,11886.44293, -44.58970,
,,,11911.10360, -41.38970,
,,,11935.76427, -36.18970,
,,,11960.42494, -20.18970,
,,,11985.08561, -16.98970,
,,,12009.74628, -16.98970,
,,,12034.40695, -18.18970,
,,,12059.06762, -28.58970,
,,,12083.72829, -46.98970,
,,,12108.38896, -46.98970,
,,,12133.04963, -44.58970,
,,,12157.71030, -46.98970,
,,,12182.37097, -46.98970,
,,,12207.03164, -44.58970,
,,,12231.69231, -46.98970,
,,,12256.35298, -46.98970,
,,,12281.01365, -46.98970,
,,,12305.67432, -46.98970,
,,,12330.33499, -46.98970,
,,,12354.99566, -46.98970,
,,,12379.65633, -46.98970,
,,,12404.31700, -46.98970,
,,,12428.97767, -46.98970,
,,,12453.63834, -21.78970,
,,,12478.29901, -15.78970,
,,,12502.95968, -15.38970,
,,,12527.62035, -16.18970,
,,,12552.28102, -23.78970,
,,,12576.94169, -46.98970,
,,,12601.60236, -46.98970,
,,,12626.26303, -44.58970,
,,,12650.92370, -44.58970,
,,,12675.58437, -40.58970,
,,,12700.24504, -40.58970,
,,,12724.90571, -44.58970,
,,,12749.56638, -46.98970,
,,,12774.22705, -44.58970,
,,,12798.88772, -40.58970,
,,,12823.54839, -40.58970,
,,,12848.20906, -44.58970,
,,,12872.86973, -44.58970,
,,,12897.53040, -44.58970,
,,,12922.19107, -34.58970,
,,,12946.85174, -13.38970,
,,,12971.51241,  -4.18970,
,,,12996.17308,  -2.98970,
,,,13020.83375,  -3.38970,
,,,13045.49442,  -7.78970,
,,,13070.15509, -32.18970,
,,,13094.81576, -36.18970,
,,,13119.47643, -46.98970,
,,,13144.13710, -36.18970,
,,,13168.79777, -41.38970,
,,,13193.45844, -41.38970,
,,,13218.11911, -44.58970,
,,,13242.77978, -46.98970,
,,,13267.44045, -46.98970,
,,,13292.10112, -46.98970,
,,,13316.76179, -44.58970,
,,,13341.42246, -46.98970,
,,,13366.08313, -46.98970,
,,,13390.74380, -44.58970,
,,,13415.40447, -40.58970,
,,,13440.06514, -28.18970,
,,,13464.72581, -14.18970,
,,,13489.38648, -11.78970,
,,,13514.04715, -11.78970,
,,,13538.70782, -14.58970,
,,,13563.36849, -29.38970,
,,,13588.02916, -40.58970,
,,,13612.68983, -46.98970,
,,,13637.35050, -46.98970,
,,,13662.01117, -46.98970,
,,,13686.67184, -40.58970,
,,,13711.33251, -46.98970,
,,,13735.99318, -46.98970,
,,,13760.65385, -46.98970,
,,,13785.31452, -46.98970,
,,,13809.97519, -46.98970,
,,,13834.63586, -46.98970,
,,,13859.29653, -46.98970,
,,,13883.95720, -46.98970,
,,,13908.61787, -46.98970,
,,,13933.27854, -46.98970,
,,,13957.93921, -21.78970,
,,,13982.59988, -16.98970,
,,,14007.26055, -16.98970,
,,,14031.92122, -17.78970,
,,,14056.58189, -28.18970,
,,,14081.24256, -46.98970,
,,,14105.90323, -46.98970,
,,,14130.56390, -46.98970,
,,,14155.22457, -41.38970,
,,,14179.88524, -40.58970,
,,,14204.54591, -41.38970,
,,,14229.20658, -41.38970,
,,,14253.86725, -40.58970,
,,,14278.52792, -41.38970,
,,,14303.18859, -41.38970,
,,,14327.84926, -46.98970,
,,,14352.50993, -44.58970,
,,,14377.17060, -44.58970,
,,,14401.83127, -46.98970,
,,,14426.49194, -46.98970,
,,,14451.15261, -23.38970,
,,,14475.81328, -16.18970,
,,,14500.47395, -15.78970,
,,,14525.13462, -16.18970,
,,,14549.79529, -22.98970,
,,,14574.45596, -46.98970,
,,,14599.11663, -46.98970,
,,,14623.77730, -46.98970,
,,,14648.43797, -46.98970,
,,,14673.09864, -46.98970,
,,,14697.75931, -46.98970,
,,,14722.41998, -44.58970,
,,,14747.08065, -46.98970,
,,,14771.74132, -46.98970,
,,,14796.40199, -44.58970,
,,,14821.06266, -46.98970,
,,,14845.72333, -44.58970,
,,,14870.38400, -41.38970,
,,,14895.04467, -40.58970,
,,,14919.70534, -33.38970,
,,,14944.36601, -16.58970,
,,,14969.02668,  -5.78970,
,,,14993.68735,  -4.18970,
,,,15018.34802,  -4.18970,
,,,15043.00869,  -8.18970,
,,,15067.66936, -25.78970,
,,,15092.33003, -37.38970,
,,,15116.99070, -40.58970,
,,,15141.65137, -44.58970,
,,,15166.31204, -40.58970,
,,,15190.97271, -44.58970,
,,,15215.63338, -44.58970,
,,,15240.29405, -46.98970,
,,,15264.95472, -46.98970,
,,,15289.61539, -44.58970,
,,,15314.27606, -44.58970,
,,,15338.93673, -44.58970,
,,,15363.59740, -46.98970,
,,,15388.25807, -44.58970,
,,,15412.91874, -38.58970,
,,,15437.57941, -30.58970,
,,,15462.24008, -14.18970,
,,,15486.90075, -11.38970,
,,,15511.56142, -10.98970,
,,,15536.22209, -12.98970,
,,,15560.88276, -24.98970,
,,,15585.54343, -38.58970,
,,,15610.20410, -44.58970,
,,,15634.86477, -37.38970,
,,,15659.52544, -46.98970,
,,,15684.18611, -40.58970,
,,,15708.84678, -41.38970,
,,,15733.50745, -40.58970,
,,,15758.16812, -46.98970,
,,,15782.82879, -46.98970,
,,,15807.48946, -46.98970,
,,,15832.15013, -46.98970,
,,,15856.81080, -46.98970,
,,,15881.47147, -46.98970,
,,,15906.13214, -46.98970,
,,,15930.79281, -46.98970,
,,,15955.45348, -22.58970,
,,,15980.11415, -17.38970,
,,,16004.77482, -16.98970,
,,,16029.43549, -17.78970,
,,,16054.09616, -25.78970,
,,,16078.75683, -44.58970,
,,,16103.41750, -46.98970,
,,,16128.07817, -40.58970,
,,,16152.73884, -46.98970,
,,,16177.39951, -41.38970,
,,,16202.06018, -46.98970,
,,,16226.72085, -46.98970,
,,,16251.38152, -46.98970,
,,,16276.04219, -46.98970,
,,,16300.70286, -44.58970,
,,,16325.36353, -46.98970,
,,,16350.02420, -46.98970,
,,,16374.68487, -46.98970,
,,,16399.34554, -41.38970,
,,,16424.00621, -40.58970,
,,,16448.66688, -24.58970,
,,,16473.32755, -16.58970,
,,,16497.98822, -15.78970,
,,,16522.64889, -16.18970,
,,,16547.30956, -21.38970,
,,,16571.97023, -46.98970,
,,,16596.63090, -46.98970,
,,,16621.29157, -46.98970,
,,,16645.95224, -46.98970,
,,,16670.61291, -41.38970,
,,,16695.27358, -44.58970,
,,,16719.93425, -46.98970,
,,,16744.59492, -46.98970,
,,,16769.25559, -46.98970,
,,,16793.91626, -46.98970,
,,,16818.57693, -44.58970,
,,,16843.23760, -46.98970,
,,,16867.89827, -46.98970,
,,,16892.55894, -44.58970,
,,,16917.21961, -40.58970,
,,,16941.88028, -19.38970,
,,,16966.54095,  -7.38970,
,,,16991.20162,  -5.38970,
,,,17015.86229,  -5.38970,
,,,17040.52296,  -8.18970,
,,,17065.18363, -23.38970,
,,,17089.84430, -38.58970,
,,,17114.50497, -38.58970,
,,,17139.16564, -44.58970,
,,,17163.82631, -38.58970,
,,,17188.48698, -44.58970,
,,,17213.14765, -40.58970,
,,,17237.80832, -44.58970,
,,,17262.46899, -44.58970,
,,,17287.12966, -46.98970,
,,,17311.79033, -46.98970,
,,,17336.45100, -46.98970,
,,,17361.11167, -41.38970,
,,,17385.77234, -40.58970,
,,,17410.43301, -41.38970,
,,,17435.09368, -35.38970,
,,,17459.75435, -14.58970,
,,,17484.41502, -10.98970,
,,,17509.07569, -10.98970,
,,,17533.73636, -12.18970,
,,,17558.39703, -23.38970,
,,,17583.05770, -41.38970,
,,,17607.71837, -44.58970,
,,,17632.37904, -46.98970,
,,,17657.03971, -46.98970,
,,,17681.70038, -46.98970,
,,,17706.36105, -46.98970,
,,,17731.02172, -46.98970,
,,,17755.68239, -40.58970,
,,,17780.34306, -41.38970,
,,,17805.00373, -41.38970,
,,,17829.66440, -46.98970,
,,,17854.32507, -46.98970,
,,,17878.98574, -46.98970,
,,,17903.64641, -44.58970,
,,,17928.30708, -44.58970,
,,,17952.96775, -22.98970,
,,,17977.62842, -16.98970,
,,,18002.28909, -16.58970,
,,,18026.94976, -17.38970,
,,,18051.61043, -23.78970,
,,,18076.27110, -44.58970,
,,,18100.93177, -46.98970,
,,,18125.59244, -46.98970,
,,,18150.25311, -46.98970,
,,,18174.91378, -44.58970,
,,,18199.57445, -44.58970,
