Lab_2/ALL0000/F0000CH1.CSV

Record Length,2.500000e+03,,   0.000000000000,  -0.07200,
Sample Interval,2.000000e-04,,   0.000200000000,  -0.28000,
Trigger Point,-0.000000000000e+00,,   0.000400000000,  -0.35200,
,,,   0.000600000000,  -0.40000,
,,,   0.000800000000,  -0.44000,
,,,   0.001000000000,  -0.46400,
Source,CH1,,   0.001200000000,  -0.48800,
Vertical Units,V,,   0.001400000000,  -0.50400,
Vertical Scale,2.000000e-01,,   0.001600000000,  -0.50400,
Vertical Offset,0.000000e+00,,   0.001800000000,  -0.50400,
Horizontal Units,s,,   0.002000000000,  -0.49600,
Horizontal Scale,5.000000e-02,,   0.002200000000,  -0.47200,
Pt Fmt,Y,,   0.002400000000,  -0.44800,
Yzero,0.000000e+00,,   0.002600000000,  -0.40800,
Probe Atten,1.000000e+00,,   0.002800000000,  -0.36800,
Model Number,TBS1072B-EDU,,   0.003000000000,  -0.32000,
Serial Number,C013385,,   0.003200000000,  -0.27200,
Firmware Version,FV:v4.06,,   0.003400000000,  -0.20800,
,,,0.003600000000,  -0.14400,
,,,0.003800000000,  -0.08000,
,,,0.004000000000,  -0.00800,
,,,0.004200000000,   0.05600,
,,,0.004400000000,   0.12000,
,,,0.004600000000,   0.18400,
,,,0.004800000000,   0.24800,
,,,0.005000000000,   0.30400,
,,,0.005200000000,   0.36000,
,,,0.005400000000,   0.40800,
,,,0.005600000000,   0.44800,
,,,0.005800000000,   0.47200,
,,,0.006000000000,   0.49600,
,,,0.006200000000,   0.51200,
,,,0.006400000000,   0.51200,
,,,0.006600000000,   0.50400,
,,,0.006800000000,   0.48800,
,,,0.007000000000,   0.46400,
,,,0.007200000000,   0.43200,
,,,0.007400000000,   0.39200,
,,,0.007600000000,   0.33600,
,,,0.007800000000,   0.28800,
,,,0.008000000000,   0.22400,
,,,0.008200000000,   0.15200,
,,,0.008400000000,   0.08800,
,,,0.008600000000,   0.01600,
,,,0.008800000000,  -0.05600,
,,,0.009000000000,  -0.12800,
,,,0.009200000000,  -0.20000,
,,,0.009400000000,  -0.25600,
,,,0.009600000000,  -0.32000,
,,,0.009800000000,  -0.37600,
,,,0.010000000000,  -0.41600,
,,,0.010200000000,  -0.45600,
,,,0.010400000000,  -0.48000,
,,,0.010600000000,  -0.50400,
,,,0.010800000000,  -0.50400,
,,,0.011000000000,  -0.50400,
,,,0.011200000000,  -0.48800,
,,,0.011400000000,  -0.46400,
,,,0.011600000000,  -0.42400,
,,,0.011800000000,  -0.38400,
,,,0.012000000000,  -0.32800,
,,,0.012200000000,  -0.27200,
,,,0.012400000000,  -0.20800,
,,,0.012600000000,  -0.12800,
,,,0.012800000000,  -0.05600,
,,,0.013000000000,   0.01600,
,,,0.013200000000,   0.09600,
,,,0.013400000000,   0.16800,
,,,0.013600000000,   0.24000,
,,,0.013800000000,   0.31200,
,,,0.014000000000,   0.36000,
,,,0.014200000000,   0.41600,
,,,0.014400000000,   0.45600,
,,,0.014600000000,   0.48000,
,,,0.014800000000,   0.50400,
,,,0.015000000000,   0.51200,
,,,0.015200000000,   0.50400,
,,,0.015400000000,   0.48800,
,,,0.015600000000,   0.45600,
,,,0.015800000000,   0.41600,
,,,0.016000000000,   0.36800,
,,,0.016200000000,   0.31200,
,,,0.016400000000,   0.24800,
,,,0.016600000000,   0.17600,
,,,0.016800000000,   0.08800,
,,,0.017000000000,   0.01600,
,,,0.017200000000,  -0.06400,
,,,0.017400000000,  -0.15200,
,,,0.017600000000,  -0.22400,
,,,0.017800000000,  -0.29600,
,,,0.018000000000,  -0.35200,
,,,0.018200000000,  -0.40800,
,,,0.018400000000,  -0.44800,
,,,0.018600000000,  -0.48000,
,,,0.018800000000,  -0.50400,
,,,0.019000000000,  -0.50400,
,,,0.019200000000,  -0.49600,
,,,0.019400000000,  -0.47200,
,,,0.019600000000,  -0.44800,
,,,0.019800000000,  -0.40000,
,,,0.020000000000,  -0.33600,
,,,0.020200000000,  -0.27200,
,,,0.020400000000,  -0.20000,
,,,0.020600000000,  -0.12000,
,,,0.020800000000,  -0.03200,
,,,0.021000000000,   0.04800,
,,,0.021200000000,   0.13600,
,,,0.021400000000,   0.21600,
,,,0.021600000000,   0.28800,
,,,0.021800000000,   0.36000,
,,,0.022000000000,   0.40800,
,,,0.022200000000,   0.45600,
,,,0.022400000000,   0.48800,
,,,0.022600000000,   0.50400,
,,,0.022800000000,   0.51200,
,,,0.023000000000,   0.49600,
,,,0.023200000000,   0.46400,
,,,0.023400000000,   0.43200,
,,,0.023600000000,   0.37600,
,,,0.023800000000,   0.31200,
,,,0.024000000000,   0.24000,
,,,0.024200000000,   0.15200,
,,,0.024400000000,   0.06400,
,,,0.024600000000,  -0.02400,
,,,0.024800000000,  -0.11200,
,,,0.025000000000,  -0.20000,
,,,0.025200000000,  -0.28000,
,,,0.025400000000,  -0.35200,
,,,0.025600000000,  -0.40800,
,,,0.025800000000,  -0.45600,
,,,0.026000000000,  -0.48800,
,,,0.026200000000,  -0.50400,
,,,0.026400000000,  -0.50400,
,,,0.026600000000,  -0.48800,
,,,0.026800000000,  -0.45600,
,,,0.027000000000,  -0.40800,
,,,0.027200000000,  -0.35200,
,,,0.027400000000,  -0.27200,
,,,0.027600000000,  -0.19200,
,,,0.027800000000,  -0.11200,
,,,0.028000000000,  -0.00800,
,,,0.028200000000,   0.08000,
,,,0.028400000000,   0.17600,
,,,0.028600000000,   0.25600,
,,,0.028800000000,   0.33600,
,,,0.029000000000,   0.40000,
,,,0.029200000000,   0.45600,
,,,0.029400000000,   0.48800,
,,,0.029600000000,   0.50400,
,,,0.029800000000,   0.51200,
,,,0.030000000000,   0.48800,
,,,0.030200000000,   0.45600,
,,,0.030400000000,   0.40000,
,,,0.030600000000,   0.33600,
,,,0.030800000000,   0.25600,
,,,0.031000000000,   0.17600,
,,,0.031200000000,   0.07200,
,,,0.031400000000,  -0.02400,
,,,0.031600000000,  -0.12000,
,,,0.031800000000,  -0.20800,
,,,0.032000000000,  -0.29600,
,,,0.032200000000,  -0.36800,
,,,0.032400000000,  -0.43200,
,,,0.032600000000,  -0.47200,
,,,0.032800000000,  -0.50400,
,,,0.033000000000,  -0.50400,
,,,0.033200000000,  -0.48800,
,,,0.033400000000,  -0.45600,
,,,0.033600000000,  -0.40800,
,,,0.033800000000,  -0.33600,
,,,0.034000000000,  -0.25600,
,,,0.034200000000,  -0.16800,
,,,0.034400000000,  -0.06400,
,,,0.034600000000,   0.04000,
,,,0.034800000000,   0.14400,
,,,0.035000000000,   0.24000,
,,,0.035200000000,   0.32000,
,,,0.035400000000,   0.39200,
,,,0.035600000000,   0.44800,
,,,0.035800000000,   0.48800,
,,,0.036000000000,   0.50400,
,,,0.036200000000,   0.50400,
,,,0.036400000000,   0.48000,
,,,0.036600000000,   0.43200,
,,,0.036800000000,   0.36800,
,,,0.037000000000,   0.28800,
,,,0.037200000000,   0.20000,
,,,0.037400000000,   0.09600,
,,,0.037600000000,  -0.00800,
,,,0.037800000000,  -0.12000,
,,,0.038000000000,  -0.21600,
,,,0.038200000000,  -0.31200,
,,,0.038400000000,  -0.39200,
,,,0.038600000000,  -0.44800,
,,,0.038800000000,  -0.48800,
,,,0.039000000000,  -0.50400,
,,,0.039200000000,  -0.49600,
,,,0.039400000000,  -0.47200,
,,,0.039600000000,  -0.42400,
,,,0.039800000000,  -0.35200,
,,,0.040000000000,  -0.25600,
,,,0.040200000000,  -0.16000,
,,,0.040400000000,  -0.04800,
,,,0.040600000000,   0.06400,
,,,0.040800000000,   0.16800,
,,,0.041000000000,   0.27200,
,,,0.041200000000,   0.36000,
,,,0.041400000000,   0.42400,
,,,0.041600000000,   0.48000,
,,,0.041800000000,   0.50400,
,,,0.042000000000,   0.50400,
,,,0.042200000000,   0.48000,
,,,0.042400000000,   0.43200,
,,,0.042600000000,   0.36800,
,,,0.042800000000,   0.28000,
,,,0.043000000000,   0.17600,
,,,0.043200000000,   0.06400,
,,,0.043400000000,  -0.05600,
,,,0.043600000000,  -0.16800,
,,,0.043800000000,  -0.27200,
,,,0.044000000000,  -0.36000,
,,,0.044200000000,  -0.43200,
,,,0.044400000000,  -0.48000,
,,,0.044600000000,  -0.50400,
,,,0.044800000000,  -0.49600,
,,,0.045000000000,  -0.46400,
,,,0.045200000000,  -0.41600,
,,,0.045400000000,  -0.33600,
,,,0.045600000000,  -0.23200,
,,,0.045800000000,  -0.12000,
,,,0.046000000000,   0.00000,
,,,0.046200000000,   0.12000,
,,,0.046400000000,   0.23200,
,,,0.046600000000,   0.32800,
,,,0.046800000000,   0.41600,
,,,0.047000000000,   0.47200,
,,,0.047200000000,   0.50400,
,,,0.047400000000,   0.50400,
,,,0.047600000000,   0.48000,
,,,0.047800000000,   0.42400,
,,,0.048000000000,   0.34400,
,,,0.048200000000,   0.24800,
,,,0.048400000000,   0.13600,
,,,0.048600000000,   0.01600,
,,,0.048800000000,  -0.11200,
,,,0.049000000000,  -0.23200,
,,,0.049200000000,  -0.32800,
,,,0.049400000000,  -0.41600,
,,,0.049600000000,  -0.47200,
,,,0.049800000000,  -0.50400,
,,,0.050000000000,  -0.49600,
,,,0.050200000000,  -0.46400,
,,,0.050400000000,  -0.40000,
,,,0.050600000000,  -0.31200,
,,,0.050800000000,  -0.20000,
,,,0.051000000000,  -0.08000,
,,,0.051200000000,   0.04800,
,,,0.051400000000,   0.17600,
,,,0.051600000000,   0.28800,
,,,0.051800000000,   0.38400,
,,,0.052000000000,   0.44800,
,,,0.052200000000,   0.49600,
,,,0.052400000000,   0.50400,
,,,0.052600000000,   0.48000,
,,,0.052800000000,   0.42400,
,,,0.053000000000,   0.33600,
,,,0.053200000000,   0.23200,
,,,0.053400000000,   0.10400,
,,,0.053600000000,  -0.02400,
,,,0.053800000000,  -0.16000,
,,,0.054000000000,  -0.27200,
,,,0.054200000000,  -0.37600,
,,,0.054400000000,  -0.44800,
,,,0.054600000000,  -0.49600,
,,,0.054800000000,  -0.50400,
,,,0.055000000000,  -0.47200,
,,,0.055200000000,  -0.40800,
,,,0.055400000000,  -0.32000,
,,,0.055600000000,  -0.20800,
,,,0.055800000000,  -0.08000,
,,,0.056000000000,   0.05600,
,,,0.056200000000,   0.19200,
,,,0.056400000000,   0.31200,
,,,0.056600000000,   0.40800,
,,,0.056800000000,   0.47200,
,,,0.057000000000,   0.50400,
,,,0.057200000000,   0.49600,
,,,0.057400000000,   0.44800,
,,,0.057600000000,   0.37600,
,,,0.057800000000,   0.26400,
,,,0.058000000000,   0.13600,
,,,0.058200000000,   0.00000,
,,,0.058400000000,  -0.14400,
,,,0.058600000000,  -0.27200,
,,,0.058800000000,  -0.38400,
,,,0.059000000000,  -0.45600,
,,,0.059200000000,  -0.49600,
,,,0.059400000000,  -0.49600,
,,,0.059600000000,  -0.45600,
,,,0.059800000000,  -0.38400,
,,,0.060000000000,  -0.28000,
,,,0.060200000000,  -0.14400,
,,,0.060400000000,   0.00800,
,,,0.060600000000,   0.15200,
,,,0.060800000000,   0.28000,
,,,0.061000000000,   0.38400,
,,,0.061200000000,   0.46400,
,,,0.061400000000,   0.50400,
,,,0.061600000000,   0.49600,
,,,0.061800000000,   0.44800,
,,,0.062000000000,   0.36000,
,,,0.062200000000,   0.24800,
,,,0.062400000000,   0.11200,
,,,0.062600000000,  -0.04000,
,,,0.062800000000,  -0.19200,
,,,0.063000000000,  -0.31200,
,,,0.063200000000,  -0.41600,
,,,0.063400000000,  -0.48000,
,,,0.063600000000,  -0.49600,
,,,0.063800000000,  -0.47200,
,,,0.064000000000,  -0.40800,
,,,0.064200000000,  -0.30400,
,,,0.064400000000,  -0.16800,
,,,0.064600000000,  -0.01600,
,,,0.064800000000,   0.13600,
,,,0.065000000000,   0.28000,
,,,0.065200000000,   0.39200,
,,,0.065400000000,   0.46400,
,,,0.065600000000,   0.50400,
,,,0.065800000000,   0.48800,
,,,0.066000000000,   0.43200,
,,,0.066200000000,   0.32800,
,,,0.066400000000,   0.19200,
,,,0.066600000000,   0.04000,
,,,0.066800000000,  -0.12000,
,,,0.067000000000,  -0.26400,
,,,0.067200000000,  -0.38400,
,,,0.067400000000,  -0.46400,
,,,0.067600000000,  -0.50400,
,,,0.067800000000,  -0.48800,
,,,0.068000000000,  -0.41600,
,,,0.068200000000,  -0.31200,
,,,0.068400000000,  -0.16800,
,,,0.068600000000,  -0.00800,
,,,0.068800000000,   0.14400,
,,,0.069000000000,   0.29600,
,,,0.069200000000,   0.40800,
,,,0.069400000000,   0.48000,
,,,0.069600000000,   0.50400,
,,,0.069800000000,   0.47200,
,,,0.070000000000,   0.39200,
,,,0.070200000000,   0.26400,
,,,0.070400000000,   0.11200,
,,,0.070600000000,  -0.05600,
,,,0.070800000000,  -0.21600,
,,,0.071000000000,  -0.35200,
,,,0.071200000000,  -0.44800,
,,,0.071400000000,  -0.49600,
,,,0.071600000000,  -0.48800,
,,,0.071800000000,  -0.42400,
,,,0.072000000000,  -0.31200,
,,,0.072200000000,  -0.16800,
,,,0.072400000000,   0.00800,
,,,0.072600000000,   0.17600,
,,,0.072800000000,   0.32000,
,,,0.073000000000,   0.43200,
,,,0.073200000000,   0.48800,
,,,0.073400000000,   0.49600,
,,,0.073600000000,   0.44000,
,,,0.073800000000,   0.33600,
,,,0.074000000000,   0.18400,
,,,0.074200000000,   0.01600,
,,,0.074400000000,  -0.16000,
,,,0.074600000000,  -0.31200,
,,,0.074800000000,  -0.43200,
,,,0.075000000000,  -0.48800,
,,,0.075200000000,  -0.48800,
,,,0.075400000000,  -0.43200,
,,,0.075600000000,  -0.32000,
,,,0.075800000000,  -0.16800,
,,,0.076000000000,   0.00800,
,,,0.076200000000,   0.18400,
,,,0.076400000000,   0.33600,
,,,0.076600000000,   0.44800,
,,,0.076800000000,   0.49600,
,,,0.077000000000,   0.48800,
,,,0.077200000000,   0.40800,
,,,0.077400000000,   0.28000,
,,,0.077600000000,   0.11200,
,,,0.077800000000,  -0.06400,
,,,0.078000000000,  -0.24000,
,,,0.078200000000,  -0.37600,
,,,0.078400000000,  -0.47200,
,,,0.078600000000,  -0.49600,
,,,0.078800000000,  -0.44800,
,,,0.079000000000,  -0.35200,
,,,0.079200000000,  -0.20000,
,,,0.079400000000,  -0.01600,
,,,0.079600000000,   0.17600,
,,,0.079800000000,   0.32800,
,,,0.080000000000,   0.44800,
,,,0.080200000000,   0.49600,
,,,0.080400000000,   0.48000,
,,,0.080600000000,   0.39200,
,,,0.080800000000,   0.24800,
,,,0.081000000000,   0.07200,
,,,0.081200000000,  -0.12000,
,,,0.081400000000,  -0.29600,
,,,0.081600000000,  -0.42400,
,,,0.081800000000,  -0.48800,
,,,0.082000000000,  -0.48800,
,,,0.082200000000,  -0.40800,
,,,0.082400000000,  -0.26400,
,,,0.082600000000,  -0.08000,
,,,0.082800000000,   0.11200,
,,,0.083000000000,   0.28800,
,,,0.083200000000,   0.42400,
,,,0.083400000000,   0.49600,
,,,0.083600000000,   0.48000,
,,,0.083800000000,   0.40000,
,,,0.084000000000,   0.25600,
,,,0.084200000000,   0.07200,
,,,0.084400000000,  -0.12800,
,,,0.084600000000,  -0.30400,
,,,0.084800000000,  -0.43200,
,,,0.085000000000,  -0.48800,
,,,0.085200000000,  -0.47200,
,,,0.085400000000,  -0.36800,
,,,0.085600000000,  -0.21600,
,,,0.085800000000,  -0.01600,
,,,0.086000000000,   0.18400,
,,,0.086200000000,   0.35200,
,,,0.086400000000,   0.46400,
,,,0.086600000000,   0.49600,
,,,0.086800000000,   0.44800,
,,,0.087000000000,   0.32000,
,,,0.087200000000,   0.13600,
,,,0.087400000000,  -0.07200,
,,,0.087600000000,  -0.26400,
,,,0.087800000000,  -0.41600,
,,,0.088000000000,  -0.48800,
,,,0.088200000000,  -0.47200,
,,,0.088400000000,  -0.37600,
,,,0.088600000000,  -0.21600,
,,,0.088800000000,  -0.01600,
,,,0.089000000000,   0.19200,
,,,0.089200000000,   0.36800,
,,,0.089400000000,   0.46400,
,,,0.089600000000,   0.49600,
,,,0.089800000000,   0.42400,
,,,0.090000000000,   0.28000,
,,,0.090200000000,   0.07200,
,,,0.090400000000,  -0.13600,
,,,0.090600000000,  -0.32000,
,,,0.090800000000,  -0.44800,
,,,0.091000000000,  -0.49600,
,,,0.091200000000,  -0.44000,
,,,0.091400000000,  -0.29600,
,,,0.091600000000,  -0.09600,
,,,0.091800000000,   0.11200,
,,,0.092000000000,   0.31200,
,,,0.092200000000,   0.44800,
,,,0.092400000000,   0.48800,
,,,0.092600000000,   0.44800,
,,,0.092800000000,   0.30400,
,,,0.093000000000,   0.10400,
,,,0.093200000000,  -0.12000,
,,,0.093400000000,  -0.32000,
,,,0.093600000000,  -0.44800,
,,,0.093800000000,  -0.48800,
,,,0.094000000000,  -0.43200,
,,,0.094200000000,  -0.28000,
,,,0.094400000000,  -0.07200,
,,,0.094600000000,   0.15200,
,,,0.094800000000,   0.34400,
,,,0.095000000000,   0.46400,
,,,0.095200000000,   0.48800,
,,,0.095400000000,   0.40800,
,,,0.095600000000,   0.23200,
,,,0.095800000000,   0.01600,
,,,0.096000000000,  -0.21600,
,,,0.096200000000,  -0.39200,
,,,0.096400000000,  -0.48000,
,,,0.096600000000,  -0.46400,
,,,0.096800000000,  -0.35200,
,,,0.097000000000,  -0.15200,
,,,0.097200000000,   0.08800,
,,,0.097400000000,   0.30400,
,,,0.097600000000,   0.44800,
,,,0.097800000000,   0.48800,
,,,0.098000000000,   0.42400,
,,,0.098200000000,   0.26400,
,,,0.098400000000,   0.04000,
,,,0.098600000000,  -0.20000,
,,,0.098800000000,  -0.38400,
,,,0.099000000000,  -0.48000,
,,,0.099200000000,  -0.45600,
,,,0.099400000000,  -0.33600,
,,,0.099600000000,  -0.12000,
,,,0.099800000000,   0.12000,
,,,0.100000000000,   0.32800,
,,,0.100200000000,   0.46400,
,,,0.100400000000,   0.48000,
,,,0.100600000000,   0.38400,
,,,0.100800000000,   0.19200,
,,,0.101000000000,  -0.05600,
,,,0.101200000000,  -0.28000,
,,,0.101400000000,  -0.44000,
,,,0.101600000000,  -0.48800,
,,,0.101800000000,  -0.40800,
,,,0.102000000000,  -0.22400,
,,,0.102200000000,   0.02400,
,,,0.102400000000,   0.25600,
,,,0.102600000000,   0.42400,
,,,0.102800000000,   0.48800,
,,,0.103000000000,   0.42400,
,,,0.103200000000,   0.24800,
,,,0.103400000000,   0.00000,
,,,0.103600000000,  -0.24000,
,,,0.103800000000,  -0.42400,
,,,0.104000000000,  -0.48800,
,,,0.104200000000,  -0.41600,
,,,0.104400000000,  -0.23200,
,,,0.104600000000,   0.01600,
,,,0.104800000000,   0.26400,
,,,0.105000000000,   0.43200,
,,,0.105200000000,   0.48800,
,,,0.105400000000,   0.40000,
,,,0.105600000000,   0.20000,
,,,0.105800000000,  -0.05600,
,,,0.106000000000,  -0.29600,
,,,0.106200000000,  -0.44800,
,,,0.106400000000,  -0.48000,
,,,0.106600000000,  -0.36800,
,,,0.106800000000,  -0.15200,
,,,0.107000000000,   0.11200,
,,,0.107200000000,   0.34400,
,,,0.107400000000,   0.47200,
,,,0.107600000000,   0.45600,
,,,0.107800000000,   0.31200,
,,,0.108000000000,   0.06400,
,,,0.108200000000,  -0.20000,
,,,0.108400000000,  -0.40000,
,,,0.108600000000,  -0.48000,
,,,0.108800000000,  -0.41600,
,,,0.109000000000,  -0.21600,
,,,0.109200000000,   0.04800,
,,,0.109400000000,   0.29600,
,,,0.109600000000,   0.45600,
,,,0.109800000000,   0.47200,
,,,0.110000000000,   0.33600,
,,,0.110200000000,   0.08800,
,,,0.110400000000,  -0.17600,
,,,0.110600000000,  -0.39200,
,,,0.110800000000,  -0.48000,
,,,0.111000000000,  -0.40800,
,,,0.111200000000,  -0.20000,
,,,0.111400000000,   0.07200,
,,,0.111600000000,   0.32000,
,,,0.111800000000,   0.47200,
,,,0.112000000000,   0.45600,
,,,0.112200000000,   0.28800,
,,,0.112400000000,   0.02400,
,,,0.112600000000,  -0.24800,
,,,0.112800000000,  -0.43200,
,,,0.113000000000,  -0.47200,
,,,0.113200000000,  -0.34400,
,,,0.113400000000,  -0.09600,
,,,0.113600000000,   0.18400,
,,,0.113800000000,   0.40800,
,,,0.114000000000,   0.48000,
,,,0.114200000000,   0.38400,
,,,0.114400000000,   0.16000,
,,,0.114600000000,  -0.13600,
,,,0.114800000000,  -0.37600,
,,,0.115000000000,  -0.47200,
,,,0.115200000000,  -0.40800,
,,,0.115400000000,  -0.18400,
,,,0.115600000000,   0.10400,
,,,0.115800000000,   0.35200,
,,,0.116000000000,   0.48000,
,,,0.116200000000,   0.41600,
,,,0.116400000000,   0.20000,
,,,0.116600000000,  -0.09600,
,,,0.116800000000,  -0.35200,
,,,0.117000000000,  -0.47200,
,,,0.117200000000,  -0.40800,
,,,0.117400000000,  -0.19200,
,,,0.117600000000,   0.10400,
,,,0.117800000000,   0.36000,
,,,0.118000000000,   0.48000,
,,,0.118200000000,   0.40800,
,,,0.118400000000,   0.17600,
,,,0.118600000000,  -0.13600,
,,,0.118800000000,  -0.37600,
,,,0.119000000000,  -0.47200,
,,,0.119200000000,  -0.37600,
,,,0.119400000000,  -0.12800,
,,,0.119600000000,   0.18400,
,,,0.119800000000,   0.41600,
,,,0.120000000000,   0.48000,
,,,0.120200000000,   0.33600,
,,,0.120400000000,   0.05600,
,,,0.120600000000,  -0.24000,
,,,0.120800000000,  -0.44000,
,,,0.121000000000,  -0.45600,
,,,0.121200000000,  -0.26400,
,,,0.121400000000,   0.04000,
,,,0.121600000000,   0.32800,
,,,0.121800000000,   0.46400,
,,,0.122000000000,   0.41600,
,,,0.122200000000,   0.17600,
,,,0.122400000000,  -0.14400,
,,,0.122600000000,  -0.39200,
,,,0.122800000000,  -0.47200,
,,,0.123000000000,  -0.33600,
,,,0.123200000000,  -0.04000,
,,,0.123400000000,   0.26400,
,,,0.123600000000,   0.44800,
,,,0.123800000000,   0.43200,
,,,0.124000000000,   0.21600,
,,,0.124200000000,  -0.10400,
,,,0.124400000000,  -0.37600,
,,,0.124600000000,  -0.47200,
,,,0.124800000000,  -0.33600,
,,,0.125000000000,  -0.04800,
,,,0.125200000000,   0.27200,
,,,0.125400000000,   0.44800,
,,,0.125600000000,   0.42400,
,,,0.125800000000,   0.19200,
,,,0.126000000000,  -0.13600,
,,,0.126200000000,  -0.40000,
,,,0.126400000000,  -0.45600,
,,,0.126600000000,  -0.29600,
,,,0.126800000000,   0.02400,
,,,0.127000000000,   0.32800,
,,,0.127200000000,   0.46400,
,,,0.127400000000,   0.37600,
,,,0.127600000000,   0.09600,
,,,0.127800000000,  -0.23200,
,,,0.128000000000,  -0.44800,
,,,0.128200000000,  -0.42400,
,,,0.128400000000,  -0.17600,
,,,0.128600000000,   0.16000,
,,,0.128800000000,   0.41600,
,,,0.129000000000,   0.44800,
,,,0.129200000000,   0.24800,
,,,0.129400000000,  -0.08800,
,,,0.129600000000,  -0.36800,
,,,0.129800000000,  -0.46400,
,,,0.130000000000,  -0.29600,
,,,0.130200000000,   0.03200,
,,,0.130400000000,   0.34400,
,,,0.130600000000,   0.46400,
