Lab_5/ALL0030/F0030FFT.CSV

Record Length,1.024000e+03,,          0.00000,   7.83090,
Sample Interval,1.233033e+01,,         12.33033,  10.23090,
Trigger Point,-0.000000000000e+00,,         24.66067,   3.83090,
,,,         36.99100, -60.96910,
,,,         49.32134, -60.96910,
,,,         61.65167, -60.96910,
Source,FFT,,         73.98201, -60.96910,
Vertical Units,dB,,         86.31234, -60.96910,
Vertical Scale,1.000000e+01,,         98.64268, -60.96910,
Vertical Offset,0.000000e+00,,        110.97301, -60.96910,
Horizontal Units,Hz,,        123.30335, -60.96910,
Horizontal Scale,1.262626e+03,,        135.63368, -60.96910,
Pt Fmt,Y,,        147.96402, -60.96910,
Yzero,-2.096910e+01,,        160.29435, -60.96910,
Probe Atten,1.000000e+00,,        172.62468, -60.96910,
Model Number,TBS1072B-EDU,,        184.95502, -60.96910,
Serial Number,C013385,,        197.28535, -58.56910,
Firmware Version,FV:v4.06,,        209.61569, -58.56910,
,,,221.94602, -58.56910,
,,,234.27635, -54.56910,
,,,246.60668, -55.36910,
,,,258.93701, -60.96910,
,,,271.26734, -60.96910,
,,,283.59767, -60.96910,
,,,295.92800, -60.96910,
,,,308.25833, -60.96910,
,,,320.58866, -60.96910,
,,,332.91899, -60.96910,
,,,345.24932, -60.96910,
,,,357.57965, -55.36910,
,,,369.90998, -60.96910,
,,,382.24031, -58.56910,
,,,394.57064, -55.36910,
,,,406.90097, -60.96910,
,,,419.23130, -51.76910,
,,,431.56163, -51.76910,
,,,443.89196, -44.96910,
,,,456.22229, -36.16910,
,,,468.55262, -20.56910,
,,,480.88295,  -5.76910,
,,,493.21328,  -2.96910,
,,,505.54361,  -2.96910,
,,,517.87394,  -4.96910,
,,,530.20427, -17.76910,
,,,542.53460, -34.56910,
,,,554.86493, -43.76910,
,,,567.19526, -51.36910,
,,,579.52559, -51.36910,
,,,591.85592, -60.96910,
,,,604.18625, -58.56910,
,,,616.51658, -55.36910,
,,,628.84691, -55.36910,
,,,641.17724, -58.56910,
,,,653.50757, -60.96910,
,,,665.83790, -60.96910,
,,,678.16823, -58.56910,
,,,690.49856, -60.96910,
,,,702.82889, -60.96910,
,,,715.15922, -60.96910,
,,,727.48955, -58.56910,
,,,739.81988, -60.96910,
,,,752.15021, -60.96910,
,,,764.48054, -58.56910,
,,,776.81087, -60.96910,
,,,789.14120, -58.56910,
,,,801.47153, -58.56910,
,,,813.80186, -60.96910,
,,,826.13219, -58.56910,
,,,838.46252, -54.56910,
,,,850.79285, -58.56910,
,,,863.12318, -58.56910,
,,,875.45351, -60.96910,
,,,887.78384, -60.96910,
,,,900.11417, -60.96910,
,,,912.44450, -60.96910,
,,,924.77483, -60.96910,
,,,937.10516, -60.96910,
,,,949.43549, -60.96910,
,,,961.76582, -60.96910,
,,,974.09615, -60.96910,
,,,986.42648, -54.56910,
,,,998.75681, -54.56910,
,,,1011.08714, -55.36910,
,,,1023.41747, -60.96910,
,,,1035.74780, -60.96910,
,,,1048.07813, -60.96910,
,,,1060.40846, -60.96910,
,,,1072.73879, -60.96910,
,,,1085.06912, -60.96910,
,,,1097.39945, -55.36910,
,,,1109.72978, -60.96910,
,,,1122.06011, -60.96910,
,,,1134.39044, -60.96910,
,,,1146.72077, -58.56910,
,,,1159.05110, -60.96910,
,,,1171.38143, -55.36910,
,,,1183.71176, -60.96910,
,,,1196.04209, -60.96910,
,,,1208.37242, -60.96910,
,,,1220.70275, -60.96910,
,,,1233.03308, -55.36910,
,,,1245.36341, -55.36910,
,,,1257.69374, -55.36910,
,,,1270.02407, -60.96910,
,,,1282.35440, -60.96910,
,,,1294.68473, -58.56910,
,,,1307.01506, -58.56910,
,,,1319.34539, -54.56910,
,,,1331.67572, -60.96910,
,,,1344.00605, -55.36910,
,,,1356.33638, -58.56910,
,,,1368.66671, -58.56910,
,,,1380.99704, -54.56910,
,,,1393.32737, -60.96910,
,,,1405.65770, -60.96910,
,,,1417.98803, -60.96910,
,,,1430.31836, -58.56910,
,,,1442.64869, -60.96910,
,,,1454.97902, -58.56910,
,,,1467.30935, -60.96910,
,,,1479.63968, -60.96910,
,,,1491.97001, -60.96910,
,,,1504.30034, -60.96910,
,,,1516.63067, -60.96910,
,,,1528.96100, -60.96910,
,,,1541.29133, -60.96910,
,,,1553.62166, -60.96910,
,,,1565.95199, -60.96910,
,,,1578.28232, -54.56910,
,,,1590.61265, -54.56910,
,,,1602.94298, -54.56910,
,,,1615.27331, -58.56910,
,,,1627.60364, -60.96910,
,,,1639.93397, -60.96910,
,,,1652.26430, -60.96910,
,,,1664.59463, -55.36910,
,,,1676.92496, -54.56910,
,,,1689.25529, -54.56910,
,,,1701.58562, -60.96910,
,,,1713.91595, -54.56910,
,,,1726.24628, -54.56910,
,,,1738.57661, -52.56910,
,,,1750.90694, -58.56910,
,,,1763.23727, -60.96910,
,,,1775.56760, -58.56910,
,,,1787.89793, -60.96910,
,,,1800.22826, -60.96910,
,,,1812.55859, -60.96910,
,,,1824.88892, -54.56910,
,,,1837.21925, -54.56910,
,,,1849.54958, -54.56910,
,,,1861.87991, -58.56910,
,,,1874.21024, -55.36910,
,,,1886.54057, -60.96910,
,,,1898.87090, -60.96910,
,,,1911.20123, -58.56910,
,,,1923.53156, -60.96910,
,,,1935.86189, -60.96910,
,,,1948.19222, -60.96910,
,,,1960.52255, -60.96910,
,,,1972.85288, -60.96910,
,,,1985.18321, -60.96910,
,,,1997.51354, -60.96910,
,,,2009.84387, -58.56910,
,,,2022.17420, -58.56910,
,,,2034.50453, -54.56910,
,,,2046.83486, -58.56910,
,,,2059.16519, -58.56910,
,,,2071.49552, -55.36910,
,,,2083.82585, -58.56910,
,,,2096.15618, -60.96910,
,,,2108.48651, -58.56910,
,,,2120.81684, -54.56910,
,,,2133.14717, -54.56910,
,,,2145.47750, -60.96910,
,,,2157.80783, -60.96910,
,,,2170.13816, -55.36910,
,,,2182.46849, -60.96910,
,,,2194.79882, -60.96910,
,,,2207.12915, -60.96910,
,,,2219.45948, -60.96910,
,,,2231.78981, -60.96910,
,,,2244.12014, -54.56910,
,,,2256.45047, -54.56910,
,,,2268.78080, -60.96910,
,,,2281.11113, -60.96910,
,,,2293.44146, -58.56910,
,,,2305.77179, -60.96910,
,,,2318.10212, -58.56910,
,,,2330.43245, -58.56910,
,,,2342.76278, -58.56910,
,,,2355.09311, -60.96910,
,,,2367.42344, -60.96910,
,,,2379.75377, -60.96910,
,,,2392.08410, -60.96910,
,,,2404.41443, -60.96910,
,,,2416.74476, -60.96910,
,,,2429.07509, -60.96910,
,,,2441.40542, -60.96910,
,,,2453.73575, -60.96910,
,,,2466.06608, -60.96910,
,,,2478.39641, -60.96910,
,,,2490.72674, -60.96910,
,,,2503.05707, -55.36910,
,,,2515.38740, -60.96910,
,,,2527.71773, -58.56910,
,,,2540.04806, -60.96910,
,,,2552.37839, -60.96910,
,,,2564.70872, -60.96910,
,,,2577.03905, -60.96910,
,,,2589.36938, -60.96910,
,,,2601.69971, -58.56910,
,,,2614.03004, -60.96910,
,,,2626.36037, -60.96910,
,,,2638.69070, -60.96910,
,,,2651.02103, -58.56910,
,,,2663.35136, -58.56910,
,,,2675.68169, -60.96910,
,,,2688.01202, -60.96910,
,,,2700.34235, -60.96910,
,,,2712.67268, -60.96910,
,,,2725.00301, -60.96910,
,,,2737.33334, -55.36910,
,,,2749.66367, -55.36910,
,,,2761.99400, -60.96910,
,,,2774.32433, -60.96910,
,,,2786.65466, -58.56910,
,,,2798.98499, -60.96910,
,,,2811.31532, -60.96910,
,,,2823.64565, -60.96910,
,,,2835.97598, -60.96910,
,,,2848.30631, -58.56910,
,,,2860.63664, -60.96910,
,,,2872.96697, -60.96910,
,,,2885.29730, -60.96910,
,,,2897.62763, -60.96910,
,,,2909.95796, -60.96910,
,,,2922.28829, -60.96910,
,,,2934.61862, -60.96910,
,,,2946.94895, -60.96910,
,,,2959.27928, -58.56910,
,,,2971.60961, -60.96910,
,,,2983.93994, -60.96910,
,,,2996.27027, -60.96910,
,,,3008.60060, -60.96910,
,,,3020.93093, -55.36910,
,,,3033.26126, -58.56910,
,,,3045.59159, -60.96910,
,,,3057.92192, -60.96910,
,,,3070.25225, -60.96910,
,,,3082.58258, -58.56910,
,,,3094.91291, -58.56910,
,,,3107.24324, -60.96910,
,,,3119.57357, -55.36910,
,,,3131.90390, -60.96910,
,,,3144.23423, -58.56910,
,,,3156.56456, -60.96910,
,,,3168.89489, -60.96910,
,,,3181.22522, -58.56910,
,,,3193.55555, -60.96910,
,,,3205.88588, -58.56910,
,,,3218.21621, -60.96910,
,,,3230.54654, -58.56910,
,,,3242.87687, -58.56910,
,,,3255.20720, -60.96910,
,,,3267.53753, -60.96910,
,,,3279.86786, -60.96910,
,,,3292.19819, -58.56910,
,,,3304.52852, -60.96910,
,,,3316.85885, -54.56910,
,,,3329.18918, -55.36910,
,,,3341.51951, -58.56910,
,,,3353.84984, -60.96910,
,,,3366.18017, -60.96910,
,,,3378.51050, -60.96910,
,,,3390.84083, -60.96910,
,,,3403.17116, -58.56910,
,,,3415.50149, -60.96910,
,,,3427.83182, -60.96910,
,,,3440.16215, -60.96910,
,,,3452.49248, -60.96910,
,,,3464.82281, -55.36910,
,,,3477.15314, -60.96910,
,,,3489.48347, -58.56910,
,,,3501.81380, -58.56910,
,,,3514.14413, -60.96910,
,,,3526.47446, -60.96910,
,,,3538.80479, -60.96910,
,,,3551.13512, -60.96910,
,,,3563.46545, -60.96910,
,,,3575.79578, -60.96910,
,,,3588.12611, -60.96910,
,,,3600.45644, -60.96910,
,,,3612.78677, -60.96910,
,,,3625.11710, -60.96910,
,,,3637.44743, -60.96910,
,,,3649.77776, -60.96910,
,,,3662.10809, -60.96910,
,,,3674.43842, -58.56910,
,,,3686.76875, -60.96910,
,,,3699.09908, -60.96910,
,,,3711.42941, -60.96910,
,,,3723.75974, -60.96910,
,,,3736.09007, -60.96910,
,,,3748.42040, -58.56910,
,,,3760.75073, -58.56910,
,,,3773.08106, -60.96910,
,,,3785.41139, -60.96910,
,,,3797.74172, -58.56910,
,,,3810.07205, -60.96910,
,,,3822.40238, -60.96910,
,,,3834.73271, -60.96910,
,,,3847.06304, -58.56910,
,,,3859.39337, -60.96910,
,,,3871.72370, -58.56910,
,,,3884.05403, -54.56910,
,,,3896.38436, -54.56910,
,,,3908.71469, -54.56910,
,,,3921.04502, -60.96910,
,,,3933.37535, -60.96910,
,,,3945.70568, -58.56910,
,,,3958.03601, -60.96910,
,,,3970.36634, -60.96910,
,,,3982.69667, -60.96910,
,,,3995.02700, -60.96910,
,,,4007.35733, -58.56910,
,,,4019.68766, -60.96910,
,,,4032.01799, -60.96910,
,,,4044.34832, -60.96910,
,,,4056.67865, -60.96910,
,,,4069.00898, -58.56910,
,,,4081.33931, -58.56910,
,,,4093.66964, -60.96910,
,,,4105.99997, -60.96910,
,,,4118.33030, -58.56910,
,,,4130.66063, -60.96910,
,,,4142.99096, -60.96910,
,,,4155.32129, -58.56910,
,,,4167.65162, -58.56910,
,,,4179.98195, -60.96910,
,,,4192.31228, -60.96910,
,,,4204.64261, -60.96910,
,,,4216.97294, -60.96910,
,,,4229.30327, -60.96910,
,,,4241.63360, -58.56910,
,,,4253.96393, -58.56910,
,,,4266.29426, -60.96910,
,,,4278.62459, -60.96910,
,,,4290.95492, -60.96910,
,,,4303.28525, -54.56910,
,,,4315.61558, -54.56910,
,,,4327.94591, -60.96910,
,,,4340.27624, -60.96910,
,,,4352.60657, -60.96910,
,,,4364.93690, -60.96910,
,,,4377.26723, -60.96910,
,,,4389.59756, -58.56910,
,,,4401.92789, -60.96910,
,,,4414.25822, -60.96910,
,,,4426.58855, -60.96910,
,,,4438.91888, -58.56910,
,,,4451.24921, -60.96910,
,,,4463.57954, -60.96910,
,,,4475.90987, -60.96910,
,,,4488.24020, -60.96910,
,,,4500.57053, -58.56910,
,,,4512.90086, -60.96910,
,,,4525.23119, -54.56910,
,,,4537.56152, -60.96910,
,,,4549.89185, -58.56910,
,,,4562.22218, -60.96910,
,,,4574.55251, -60.96910,
,,,4586.88284, -60.96910,
,,,4599.21317, -58.56910,
,,,4611.54350, -60.96910,
,,,4623.87383, -58.56910,
,,,4636.20416, -60.96910,
,,,4648.53449, -60.96910,
,,,4660.86482, -60.96910,
,,,4673.19515, -60.96910,
,,,4685.52548, -60.96910,
,,,4697.85581, -60.96910,
,,,4710.18614, -60.96910,
,,,4722.51647, -58.56910,
,,,4734.84680, -52.56910,
,,,4747.17713, -51.36910,
,,,4759.50746, -54.56910,
,,,4771.83779, -58.56910,
,,,4784.16812, -58.56910,
,,,4796.49845, -60.96910,
,,,4808.82878, -60.96910,
,,,4821.15911, -60.96910,
,,,4833.48944, -60.96910,
,,,4845.81977, -60.96910,
,,,4858.15010, -60.96910,
,,,4870.48043, -58.56910,
,,,4882.81076, -60.96910,
,,,4895.14109, -60.96910,
,,,4907.47142, -60.96910,
,,,4919.80175, -60.96910,
,,,4932.13208, -58.56910,
,,,4944.46241, -54.56910,
,,,4956.79274, -58.56910,
,,,4969.12307, -58.56910,
,,,4981.45340, -60.96910,
,,,4993.78373, -60.96910,
,,,5006.11406, -60.96910,
,,,5018.44439, -60.96910,
,,,5030.77472, -60.96910,
,,,5043.10505, -60.96910,
,,,5055.43538, -60.96910,
,,,5067.76571, -60.96910,
,,,5080.09604, -60.96910,
,,,5092.42637, -60.96910,
,,,5104.75670, -60.96910,
,,,5117.08703, -58.56910,
,,,5129.41736, -60.96910,
,,,5141.74769, -60.96910,
,,,5154.07802, -60.96910,
,,,5166.40835, -60.96910,
,,,5178.73868, -60.96910,
,,,5191.06901, -60.96910,
,,,5203.39934, -60.96910,
,,,5215.72967, -60.96910,
,,,5228.06000, -60.96910,
,,,5240.39033, -58.56910,
,,,5252.72066, -58.56910,
,,,5265.05099, -52.56910,
,,,5277.38132, -54.56910,
,,,5289.71165, -58.56910,
,,,5302.04198, -58.56910,
,,,5314.37231, -54.56910,
,,,5326.70264, -58.56910,
,,,5339.03297, -58.56910,
,,,5351.36330, -60.96910,
,,,5363.69363, -60.96910,
,,,5376.02396, -60.96910,
,,,5388.35429, -60.96910,
,,,5400.68462, -60.96910,
,,,5413.01495, -60.96910,
,,,5425.34528, -58.56910,
,,,5437.67561, -58.56910,
,,,5450.00594, -60.96910,
,,,5462.33627, -60.96910,
,,,5474.66660, -60.96910,
,,,5486.99693, -54.56910,
,,,5499.32726, -55.36910,
,,,5511.65759, -54.56910,
,,,5523.98792, -60.96910,
,,,5536.31825, -60.96910,
,,,5548.64858, -60.96910,
,,,5560.97891, -60.96910,
,,,5573.30924, -60.96910,
,,,5585.63957, -60.96910,
,,,5597.96990, -60.96910,
,,,5610.30023, -60.96910,
,,,5622.63056, -60.96910,
,,,5634.96089, -60.96910,
,,,5647.29122, -60.96910,
,,,5659.62155, -60.96910,
,,,5671.95188, -60.96910,
,,,5684.28221, -60.96910,
,,,5696.61254, -60.96910,
,,,5708.94287, -60.96910,
,,,5721.27320, -60.96910,
,,,5733.60353, -60.96910,
,,,5745.93386, -60.96910,
,,,5758.26419, -60.96910,
,,,5770.59452, -60.96910,
,,,5782.92485, -60.96910,
,,,5795.25518, -60.96910,
,,,5807.58551, -60.96910,
,,,5819.91584, -58.56910,
,,,5832.24617, -60.96910,
,,,5844.57650, -60.96910,
,,,5856.90683, -58.56910,
,,,5869.23716, -54.56910,
,,,5881.56749, -54.56910,
,,,5893.89782, -58.56910,
,,,5906.22815, -55.36910,
,,,5918.55848, -60.96910,
,,,5930.88881, -58.56910,
,,,5943.21914, -60.96910,
,,,5955.54947, -60.96910,
,,,5967.87980, -60.96910,
,,,5980.21013, -60.96910,
,,,5992.54046, -54.56910,
,,,6004.87079, -58.56910,
,,,6017.20112, -54.56910,
,,,6029.53145, -60.96910,
,,,6041.86178, -60.96910,
,,,6054.19211, -60.96910,
,,,6066.52244, -58.56910,
,,,6078.85277, -58.56910,
,,,6091.18310, -58.56910,
,,,6103.51343, -58.56910,
,,,6115.84376, -60.96910,
,,,6128.17409, -60.96910,
,,,6140.50442, -58.56910,
,,,6152.83475, -58.56910,
,,,6165.16508, -58.56910,
,,,6177.49541, -60.96910,
,,,6189.82574, -60.96910,
,,,6202.15607, -58.56910,
,,,6214.48640, -54.56910,
,,,6226.81673, -54.56910,
,,,6239.14706, -60.96910,
,,,6251.47739, -60.96910,
,,,6263.80772, -60.96910,
,,,6276.13805, -60.96910,
,,,6288.46838, -60.96910,
,,,6300.79871, -58.56910,
,,,6313.12904, -58.56910,
,,,6325.45937, -58.56910,
,,,6337.78970, -60.96910,
,,,6350.12003, -58.56910,
,,,6362.45036, -60.96910,
,,,6374.78069, -60.96910,
,,,6387.11102, -60.96910,
,,,6399.44135, -60.96910,
,,,6411.77168, -60.96910,
,,,6424.10201, -60.96910,
,,,6436.43234, -60.96910,
,,,6448.76267, -58.56910,
,,,6461.09300, -60.96910,
,,,6473.42333, -55.36910,
,,,6485.75366, -58.56910,
,,,6498.08399, -58.56910,
,,,6510.41432, -58.56910,
,,,6522.74465, -60.96910,
,,,6535.07498, -60.96910,
,,,6547.40531, -55.36910,
,,,6559.73564, -60.96910,
,,,6572.06597, -60.96910,
,,,6584.39630, -60.96910,
,,,6596.72663, -60.96910,
,,,6609.05696, -60.96910,
,,,6621.38729, -60.96910,
,,,6633.71762, -60.96910,
,,,6646.04795, -60.96910,
,,,6658.37828, -60.96910,
,,,6670.70861, -60.96910,
,,,6683.03894, -60.96910,
,,,6695.36927, -60.96910,
,,,6707.69960, -60.96910,
,,,6720.02993, -60.96910,
,,,6732.36026, -58.56910,
,,,6744.69059, -60.96910,
,,,6757.02092, -60.96910,
,,,6769.35125, -58.56910,
,,,6781.68158, -60.96910,
,,,6794.01191, -60.96910,
,,,6806.34224, -60.96910,
,,,6818.67257, -60.96910,
,,,6831.00290, -55.36910,
,,,6843.33323, -54.56910,
,,,6855.66356, -60.96910,
,,,6867.99389, -60.96910,
,,,6880.32422, -60.96910,
,,,6892.65455, -60.96910,
,,,6904.98488, -58.56910,
,,,6917.31521, -60.96910,
,,,6929.64554, -60.96910,
,,,6941.97587, -60.96910,
,,,6954.30620, -60.96910,
,,,6966.63653, -60.96910,
,,,6978.96686, -60.96910,
,,,6991.29719, -54.56910,
,,,7003.62752, -54.56910,
,,,7015.95785, -54.56910,
,,,7028.28818, -58.56910,
,,,7040.61851, -58.56910,
,,,7052.94884, -60.96910,
,,,7065.27917, -60.96910,
,,,7077.60950, -60.96910,
,,,7089.93983, -60.96910,
,,,7102.27016, -60.96910,
,,,7114.60049, -60.96910,
,,,7126.93082, -60.96910,
,,,7139.26115, -58.56910,
,,,7151.59148, -58.56910,
,,,7163.92181, -60.96910,
,,,7176.25214, -58.56910,
,,,7188.58247, -60.96910,
,,,7200.91280, -60.96910,
,,,7213.24313, -54.56910,
,,,7225.57346, -60.96910,
,,,7237.90379, -60.96910,
,,,7250.23412, -60.96910,
,,,7262.56445, -60.96910,
,,,7274.89478, -60.96910,
,,,7287.22511, -60.96910,
,,,7299.55544, -60.96910,
,,,7311.88577, -58.56910,
,,,7324.21610, -60.96910,
,,,7336.54643, -58.56910,
,,,7348.87676, -60.96910,
,,,7361.20709, -60.96910,
,,,7373.53742, -60.96910,
,,,7385.86775, -60.96910,
,,,7398.19808, -60.96910,
,,,7410.52841, -60.96910,
,,,7422.85874, -60.96910,
,,,7435.18907, -60.96910,
,,,7447.51940, -60.96910,
,,,7459.84973, -58.56910,
,,,7472.18006, -58.56910,
,,,7484.51039, -60.96910,
,,,7496.84072, -58.56910,
,,,7509.17105, -58.56910,
,,,7521.50138, -58.56910,
,,,7533.83171, -60.96910,
,,,7546.16204, -60.96910,
,,,7558.49237, -60.96910,
,,,7570.82270, -58.56910,
,,,7583.15303, -60.96910,
,,,7595.48336, -60.96910,
,,,7607.81369, -60.96910,
,,,7620.14402, -60.96910,
,,,7632.47435, -60.96910,
,,,7644.80468, -60.96910,
,,,7657.13501, -58.56910,
,,,7669.46534, -60.96910,
,,,7681.79567, -60.96910,
,,,7694.12600, -55.36910,
,,,7706.45633, -60.96910,
,,,7718.78666, -60.96910,
,,,7731.11699, -60.96910,
,,,7743.44732, -54.56910,
,,,7755.77765, -60.96910,
,,,7768.10798, -58.56910,
,,,7780.43831, -60.96910,
,,,7792.76864, -58.56910,
,,,7805.09897, -58.56910,
,,,7817.42930, -60.96910,
,,,7829.75963, -58.56910,
,,,7842.08996, -60.96910,
,,,7854.42029, -60.96910,
,,,7866.75062, -60.96910,
,,,7879.08095, -60.96910,
,,,7891.41128, -60.96910,
,,,7903.74161, -60.96910,
,,,7916.07194, -58.56910,
,,,7928.40227, -60.96910,
,,,7940.73260, -58.56910,
,,,7953.06293, -60.96910,
,,,7965.39326, -60.96910,
,,,7977.72359, -58.56910,
,,,7990.05392, -58.56910,
,,,8002.38425, -58.56910,
,,,8014.71458, -60.96910,
,,,8027.04491, -60.96910,
,,,8039.37524, -60.96910,
,,,8051.70557, -58.56910,
,,,8064.03590, -60.96910,
,,,8076.36623, -60.96910,
,,,8088.69656, -60.96910,
,,,8101.02689, -60.96910,
,,,8113.35722, -54.56910,
,,,8125.68755, -54.56910,
,,,8138.01788, -60.96910,
,,,8150.34821, -60.96910,
,,,8162.67854, -60.96910,
,,,8175.00887, -60.96910,
,,,8187.33920, -60.96910,
,,,8199.66953, -60.96910,
,,,8211.99986, -60.96910,
,,,8224.33019, -60.96910,
,,,8236.66052, -60.96910,
,,,8248.99085, -60.96910,
,,,8261.32118, -60.96910,
,,,8273.65151, -60.96910,
,,,8285.98184, -60.96910,
,,,8298.31217, -54.56910,
,,,8310.64250, -60.96910,
,,,8322.97283, -58.56910,
,,,8335.30316, -60.96910,
,,,8347.63349, -60.96910,
,,,8359.96382, -54.56910,
,,,8372.29415, -60.96910,
,,,8384.62448, -60.96910,
,,,8396.95481, -60.96910,
,,,8409.28514, -60.96910,
,,,8421.61547, -60.96910,
,,,8433.94580, -55.36910,
,,,8446.27613, -55.36910,
,,,8458.60646, -55.36910,
,,,8470.93679, -58.56910,
,,,8483.26712, -58.56910,
,,,8495.59745, -58.56910,
,,,8507.92778, -52.56910,
,,,8520.25811, -55.36910,
,,,8532.58844, -60.96910,
,,,8544.91877, -58.56910,
,,,8557.24910, -60.96910,
,,,8569.57943, -60.96910,
,,,8581.90976, -60.96910,
,,,8594.24009, -60.96910,
,,,8606.57042, -58.56910,
,,,8618.90075, -60.96910,
,,,8631.23108, -60.96910,
,,,8643.56141, -60.96910,
,,,8655.89174, -60.96910,
,,,8668.22207, -60.96910,
,,,8680.55240, -58.56910,
,,,8692.88273, -55.36910,
,,,8705.21306, -58.56910,
,,,8717.54339, -60.96910,
,,,8729.87372, -60.96910,
,,,8742.20405, -60.96910,
,,,8754.53438, -58.56910,
,,,8766.86471, -58.56910,
,,,8779.19504, -60.96910,
,,,8791.52537, -60.96910,
,,,8803.85570, -58.56910,
,,,8816.18603, -60.96910,
,,,8828.51636, -60.96910,
,,,8840.84669, -58.56910,
,,,8853.17702, -60.96910,
,,,8865.50735, -60.96910,
,,,8877.83768, -60.96910,
,,,8890.16801, -55.36910,
,,,8902.49834, -60.96910,
,,,8914.82867, -58.56910,
,,,8927.15900, -60.96910,
,,,8939.48933, -60.96910,
,,,8951.81966, -58.56910,
,,,8964.14999, -60.96910,
,,,8976.48032, -60.96910,
,,,8988.81065, -60.96910,
,,,9001.14098, -60.96910,
,,,9013.47131, -60.96910,
,,,9025.80164, -60.96910,
,,,9038.13197, -60.96910,
,,,9050.46230, -60.96910,
,,,9062.79263, -60.96910,
,,,9075.12296, -60.96910,
,,,9087.45329, -60.96910,
,,,9099.78362, -60.96910,
,,,9112.11395, -60.96910,
,,,9124.44428, -60.96910,
,,,9136.77461, -60.96910,
,,,9149.10494, -60.96910,
,,,9161.43527, -60.96910,
,,,9173.76560, -60.96910,
,,,9186.09593, -60.96910,
,,,9198.42626, -60.96910,
,,,9210.75659, -60.96910,
,,,9223.08692, -58.56910,
,,,9235.41725, -60.96910,
,,,9247.74758, -60.96910,
,,,9260.07791, -60.96910,
,,,9272.40824, -60.96910,
,,,9284.73857, -60.96910,
