Lab_3/ALL0007/F0007FFT.CSV

Record Length,1.024000e+03,,          0.00000, -60.98970,
Sample Interval,1.233033e+00,,          1.23303, -50.58970,
Trigger Point,-0.000000000000e+00,,          2.46607, -39.78970,
,,,          3.69910,  -9.38970,
,,,          4.93213,  -1.38970,
,,,          6.16517,  -0.98970,
Source,FFT,,          7.39820,  -0.98970,
Vertical Units,dB,,          8.63123,  -6.58970,
Vertical Scale,1.000000e+01,,          9.86427, -36.18970,
Vertical Offset,0.000000e+00,,         11.09730, -46.58970,
Horizontal Units,Hz,,         12.33033, -64.58970,
Horizontal Scale,1.262626e+02,,         13.56337, -51.78970,
Pt Fmt,Y,,         14.79640, -45.78970,
Yzero,-2.698970e+01,,         16.02943, -21.78970,
Probe Atten,1.000000e+00,,         17.26247, -11.78970,
Model Number,TBS1072B-EDU,,         18.49550, -10.18970,
Serial Number,C013385,,         19.72854, -10.58970,
Firmware Version,FV:v4.06,,         20.96157, -14.58970,
,,,22.19460, -33.78970,
,,,23.42763, -44.98970,
,,,24.66066, -56.18970,
,,,25.89369, -56.18970,
,,,27.12672, -51.78970,
,,,28.35975, -30.58970,
,,,29.59278, -17.38970,
,,,30.82581, -14.98970,
,,,32.05884, -14.98970,
,,,33.29187, -17.38970,
,,,34.52490, -31.38970,
,,,35.75793, -46.58970,
,,,36.99096, -56.18970,
,,,38.22399, -57.38970,
,,,39.45702, -66.98970,
,,,40.69005, -38.58970,
,,,41.92308, -21.38970,
,,,43.15611, -17.78970,
,,,44.38914, -17.78970,
,,,45.62217, -19.38970,
,,,46.85520, -29.78970,
,,,48.08823, -46.58970,
,,,49.32126, -54.98970,
,,,50.55429, -57.38970,
,,,51.78732, -60.58970,
,,,53.02035, -48.98970,
,,,54.25338, -25.38970,
,,,55.48641, -20.18970,
,,,56.71944, -19.78970,
,,,57.95247, -20.58970,
,,,59.18550, -28.58970,
,,,60.41853, -50.18970,
,,,61.65156, -57.38970,
,,,62.88459, -60.58970,
,,,64.11762, -57.38970,
,,,65.35065, -54.98970,
,,,66.58368, -29.78970,
,,,67.81671, -22.58970,
,,,69.04974, -21.78970,
,,,70.28277, -22.18970,
,,,71.51580, -27.78970,
,,,72.74883, -56.18970,
,,,73.98186, -57.38970,
,,,75.21489, -58.58970,
,,,76.44792, -54.98970,
,,,77.68095, -60.58970,
,,,78.91398, -33.38970,
,,,80.14701, -24.18970,
,,,81.38004, -22.98970,
,,,82.61307, -22.98970,
,,,83.84610, -27.38970,
,,,85.07913, -50.18970,
,,,86.31216, -50.58970,
,,,87.54519, -56.18970,
,,,88.77822, -61.38970,
,,,90.01125, -64.58970,
,,,91.24428, -38.58970,
,,,92.47731, -26.58970,
,,,93.71034, -24.18970,
,,,94.94337, -24.18970,
,,,96.17640, -26.98970,
,,,97.40943, -42.98970,
,,,98.64246, -50.18970,
,,,99.87549, -60.58970,
,,,101.10852, -57.38970,
,,,102.34155, -64.58970,
,,,103.57458, -44.58970,
,,,104.80761, -28.98970,
,,,106.04064, -25.78970,
,,,107.27367, -25.38970,
,,,108.50670, -26.98970,
,,,109.73973, -38.58970,
,,,110.97276, -50.18970,
,,,112.20579, -58.58970,
,,,113.43882, -61.38970,
,,,114.67185, -58.58970,
,,,115.90488, -50.18970,
,,,117.13791, -31.38970,
,,,118.37094, -26.58970,
,,,119.60397, -26.18970,
,,,120.83700, -26.98970,
,,,122.07003, -35.38970,
,,,123.30306, -52.58970,
,,,124.53609, -66.98970,
,,,125.76912, -66.98970,
,,,127.00215, -56.18970,
,,,128.23518, -53.38970,
,,,129.46821, -34.18970,
,,,130.70124, -27.78970,
,,,131.93427, -27.38970,
,,,133.16730, -27.38970,
,,,134.40033, -33.78970,
,,,135.63336, -53.38970,
,,,136.86639, -60.58970,
,,,138.09942, -66.98970,
,,,139.33245, -57.78970,
,,,140.56548, -58.58970,
,,,141.79851, -37.78970,
,,,143.03154, -28.98970,
,,,144.26457, -27.78970,
,,,145.49760, -28.18970,
,,,146.73063, -32.58970,
,,,147.96366, -56.18970,
,,,149.19669, -53.38970,
,,,150.42972, -57.38970,
,,,151.66275, -54.98970,
,,,152.89578, -64.58970,
,,,154.12881, -41.78970,
,,,155.36184, -30.98970,
,,,156.59487, -28.98970,
,,,157.82790, -28.58970,
,,,159.06093, -31.38970,
,,,160.29396, -46.58970,
,,,161.52699, -55.38970,
,,,162.76002, -56.18970,
,,,163.99305, -54.98970,
,,,165.22608, -66.98970,
,,,166.45911, -46.18970,
,,,167.69214, -32.58970,
,,,168.92517, -29.38970,
,,,170.15820, -29.38970,
,,,171.39123, -30.98970,
,,,172.62426, -43.38970,
,,,173.85729, -53.38970,
,,,175.09032, -64.58970,
,,,176.32335, -64.58970,
,,,177.55638, -61.38970,
,,,178.78941, -49.38970,
,,,180.02244, -34.58970,
,,,181.25547, -30.18970,
,,,182.48850, -29.78970,
,,,183.72153, -30.98970,
,,,184.95456, -40.18970,
,,,186.18759, -53.38970,
,,,187.42062, -58.58970,
,,,188.65365, -56.18970,
,,,189.88668, -61.38970,
,,,191.11971, -56.18970,
,,,192.35274, -37.38970,
,,,193.58577, -31.38970,
,,,194.81880, -30.58970,
,,,196.05183, -30.98970,
,,,197.28486, -37.78970,
,,,198.51789, -52.58970,
,,,199.75092, -57.78970,
,,,200.98395, -61.38970,
,,,202.21698, -54.98970,
,,,203.45001, -53.38970,
,,,204.68304, -39.78970,
,,,205.91607, -32.18970,
,,,207.14910, -30.98970,
,,,208.38213, -30.98970,
,,,209.61516, -35.78970,
,,,210.84819, -53.38970,
,,,212.08122, -54.58970,
,,,213.31425, -66.98970,
,,,214.54728, -58.58970,
,,,215.78031, -55.38970,
,,,217.01334, -43.38970,
,,,218.24637, -33.78970,
,,,219.47940, -31.78970,
,,,220.71243, -31.78970,
,,,221.94546, -34.58970,
,,,223.17849, -51.38970,
,,,224.41152, -60.58970,
,,,225.64455, -61.38970,
,,,226.87758, -58.58970,
,,,228.11061, -61.38970,
,,,229.34364, -45.78970,
,,,230.57667, -35.38970,
,,,231.80970, -32.58970,
,,,233.04273, -32.18970,
,,,234.27576, -33.78970,
,,,235.50879, -46.58970,
,,,236.74182, -53.38970,
,,,237.97485, -57.38970,
,,,239.20788, -60.58970,
,,,240.44091, -60.58970,
,,,241.67394, -50.18970,
,,,242.90697, -36.98970,
,,,244.14000, -32.98970,
,,,245.37303, -32.58970,
,,,246.60606, -33.78970,
,,,247.83909, -43.38970,
,,,249.07212, -54.98970,
,,,250.30515, -57.38970,
,,,251.53818, -64.58970,
,,,252.77121, -60.58970,
,,,254.00424, -51.38970,
,,,255.23727, -39.38970,
,,,256.47030, -33.38970,
,,,257.70333, -32.58970,
,,,258.93636, -33.38970,
,,,260.16939, -40.58970,
,,,261.40242, -54.58970,
,,,262.63545, -57.78970,
,,,263.86848, -60.58970,
,,,265.10151, -61.38970,
,,,266.33454, -57.38970,
,,,267.56757, -42.18970,
,,,268.80060, -34.58970,
,,,270.03363, -33.78970,
,,,271.26666, -33.38970,
,,,272.49969, -38.18970,
,,,273.73272, -54.98970,
,,,274.96575, -64.58970,
,,,276.19878, -57.78970,
,,,277.43181, -54.98970,
,,,278.66484, -56.18970,
,,,279.89787, -44.18970,
,,,281.13090, -35.78970,
,,,282.36393, -33.78970,
,,,283.59696, -33.78970,
,,,284.82999, -36.98970,
,,,286.06302, -57.78970,
,,,287.29605, -55.38970,
,,,288.52908, -56.18970,
,,,289.76211, -57.38970,
,,,290.99514, -64.58970,
,,,292.22817, -48.18970,
,,,293.46120, -37.38970,
,,,294.69423, -34.58970,
,,,295.92726, -34.18970,
,,,297.16029, -36.58970,
,,,298.39332, -50.18970,
,,,299.62635, -53.38970,
,,,300.85938, -58.58970,
,,,302.09241, -61.38970,
,,,303.32544, -56.18970,
,,,304.55847, -50.58970,
,,,305.79150, -38.58970,
,,,307.02453, -34.98970,
,,,308.25756, -34.18970,
,,,309.49059, -34.98970,
,,,310.72362, -44.58970,
,,,311.95665, -57.38970,
,,,313.18968, -64.58970,
,,,314.42271, -61.38970,
,,,315.65574, -56.18970,
,,,316.88877, -52.98970,
,,,318.12180, -40.58970,
,,,319.35483, -35.38970,
,,,320.58786, -34.98970,
,,,321.82089, -35.38970,
,,,323.05392, -43.38970,
,,,324.28695, -56.18970,
,,,325.51998, -66.98970,
,,,326.75301, -61.38970,
,,,327.98604, -56.18970,
,,,329.21907, -51.78970,
,,,330.45210, -42.18970,
,,,331.68513, -36.18970,
,,,332.91816, -34.98970,
,,,334.15119, -35.38970,
,,,335.38422, -40.18970,
,,,336.61725, -53.38970,
,,,337.85028, -56.18970,
,,,339.08331, -66.98970,
,,,340.31634, -60.58970,
,,,341.54937, -57.78970,
,,,342.78240, -44.58970,
,,,344.01543, -37.38970,
,,,345.24846, -35.38970,
,,,346.48149, -35.38970,
,,,347.71452, -38.98970,
,,,348.94755, -53.38970,
,,,350.18058, -53.38970,
,,,351.41361, -57.78970,
,,,352.64664, -61.38970,
,,,353.87967, -54.98970,
,,,355.11270, -45.78970,
,,,356.34573, -38.18970,
,,,357.57876, -35.78970,
,,,358.81179, -35.78970,
,,,360.04482, -38.18970,
,,,361.27785, -49.78970,
,,,362.51088, -52.18970,
,,,363.74391, -58.58970,
,,,364.97694, -66.98970,
,,,366.20997, -58.58970,
,,,367.44300, -49.38970,
,,,368.67603, -39.38970,
,,,369.90906, -36.18970,
,,,371.14209, -35.78970,
,,,372.37512, -36.98970,
,,,373.60815, -46.58970,
,,,374.84118, -52.98970,
,,,376.07421, -60.58970,
,,,377.30724, -64.58970,
,,,378.54027, -64.58970,
,,,379.77330, -53.38970,
,,,381.00633, -41.78970,
,,,382.23936, -36.98970,
,,,383.47239, -36.58970,
,,,384.70542, -36.98970,
,,,385.93845, -45.38970,
,,,387.17148, -52.98970,
,,,388.40451, -56.18970,
,,,389.63754, -64.58970,
,,,390.87057, -60.58970,
,,,392.10360, -54.98970,
,,,393.33663, -43.78970,
,,,394.56966, -37.38970,
,,,395.80269, -36.58970,
,,,397.03572, -36.58970,
,,,398.26875, -42.18970,
,,,399.50178, -54.98970,
,,,400.73481, -53.38970,
,,,401.96784, -57.78970,
,,,403.20087, -60.58970,
,,,404.43390, -60.58970,
,,,405.66693, -46.98970,
,,,406.89996, -38.58970,
,,,408.13299, -36.98970,
,,,409.36602, -36.58970,
,,,410.59905, -40.58970,
,,,411.83208, -53.38970,
,,,413.06511, -56.18970,
,,,414.29814, -61.38970,
,,,415.53117, -61.38970,
,,,416.76420, -56.18970,
,,,417.99723, -48.18970,
,,,419.23026, -39.78970,
,,,420.46329, -36.98970,
,,,421.69632, -36.58970,
,,,422.92935, -38.98970,
,,,424.16238, -51.78970,
,,,425.39541, -58.58970,
,,,426.62844, -64.58970,
,,,427.86147, -57.78970,
,,,429.09450, -52.58970,
,,,430.32753, -47.38970,
,,,431.56056, -39.78970,
,,,432.79359, -37.38970,
,,,434.02662, -36.98970,
,,,435.25965, -38.58970,
,,,436.49268, -48.98970,
,,,437.72571, -55.38970,
,,,438.95874, -57.78970,
,,,440.19177, -60.58970,
,,,441.42480, -60.58970,
,,,442.65783, -53.38970,
,,,443.89086, -42.98970,
,,,445.12389, -38.18970,
,,,446.35692, -37.38970,
,,,447.58995, -38.18970,
,,,448.82298, -46.58970,
,,,450.05601, -56.18970,
,,,451.28904, -55.38970,
,,,452.52207, -56.18970,
,,,453.75510, -58.58970,
,,,454.98813, -57.78970,
,,,456.22116, -44.98970,
,,,457.45419, -39.38970,
,,,458.68722, -38.18970,
,,,459.92025, -38.18970,
,,,461.15328, -43.78970,
,,,462.38631, -57.78970,
,,,463.61934, -55.38970,
,,,464.85237, -56.18970,
,,,466.08540, -55.38970,
,,,467.31843, -53.38970,
,,,468.55146, -44.58970,
,,,469.78449, -39.78970,
,,,471.01752, -38.58970,
,,,472.25055, -38.18970,
,,,473.48358, -42.58970,
,,,474.71661, -57.38970,
,,,475.94964, -53.38970,
,,,477.18267, -54.98970,
,,,478.41570, -60.58970,
,,,479.64873, -66.98970,
,,,480.88176, -50.58970,
,,,482.11479, -41.38970,
,,,483.34782, -39.38970,
,,,484.58085, -38.58970,
,,,485.81388, -40.58970,
,,,487.04691, -57.38970,
,,,488.27994, -58.58970,
,,,489.51297, -57.78970,
,,,490.74600, -56.18970,
,,,491.97903, -60.58970,
,,,493.21206, -51.78970,
,,,494.44509, -42.18970,
,,,495.67812, -38.98970,
,,,496.91115, -38.18970,
,,,498.14418, -39.78970,
,,,499.37721, -51.78970,
,,,500.61024, -54.98970,
,,,501.84327, -57.38970,
,,,503.07630, -66.98970,
,,,504.30933, -57.78970,
,,,505.54236, -53.38970,
,,,506.77539, -43.78970,
,,,508.00842, -39.78970,
,,,509.24145, -39.38970,
,,,510.47448, -40.18970,
,,,511.70751, -48.98970,
,,,512.94054, -53.38970,
,,,514.17357, -60.58970,
,,,515.40660, -66.98970,
,,,516.63963, -57.38970,
,,,517.87266, -51.78970,
,,,519.10569, -44.18970,
,,,520.33872, -39.38970,
,,,521.57175, -38.58970,
,,,522.80478, -38.58970,
,,,524.03781, -44.18970,
,,,525.27084, -56.18970,
,,,526.50387, -60.58970,
,,,527.73690, -57.78970,
,,,528.96993, -57.38970,
,,,530.20296, -56.18970,
,,,531.43599, -46.18970,
,,,532.66902, -40.18970,
,,,533.90205, -38.98970,
,,,535.13508, -38.58970,
,,,536.36811, -42.58970,
,,,537.60114, -54.98970,
,,,538.83417, -54.98970,
,,,540.06720, -60.58970,
,,,541.30023, -64.58970,
,,,542.53326, -60.58970,
,,,543.76629, -48.18970,
,,,544.99932, -41.38970,
,,,546.23235, -39.38970,
,,,547.46538, -39.38970,
,,,548.69841, -42.18970,
,,,549.93144, -52.18970,
,,,551.16447, -53.38970,
,,,552.39750, -58.58970,
,,,553.63053, -60.58970,
,,,554.86356, -60.58970,
,,,556.09659, -50.58970,
,,,557.32962, -42.18970,
,,,558.56265, -40.18970,
,,,559.79568, -38.98970,
,,,561.02871, -40.58970,
,,,562.26174, -51.78970,
,,,563.49477, -55.38970,
,,,564.72780, -64.58970,
,,,565.96083, -66.98970,
,,,567.19386, -60.58970,
,,,568.42689, -51.78970,
,,,569.65992, -44.18970,
,,,570.89295, -40.18970,
,,,572.12598, -39.38970,
,,,573.35901, -40.18970,
,,,574.59204, -48.98970,
,,,575.82507, -55.38970,
,,,577.05810, -57.38970,
,,,578.29113, -60.58970,
,,,579.52416, -60.58970,
,,,580.75719, -57.78970,
,,,581.99022, -46.58970,
,,,583.22325, -41.38970,
,,,584.45628, -40.18970,
,,,585.68931, -40.18970,
,,,586.92234, -46.18970,
,,,588.15537, -57.38970,
,,,589.38840, -61.38970,
,,,590.62143, -58.58970,
,,,591.85446, -57.38970,
,,,593.08749, -54.98970,
,,,594.32052, -46.18970,
,,,595.55355, -40.58970,
,,,596.78658, -39.38970,
,,,598.01961, -39.38970,
,,,599.25264, -42.58970,
,,,600.48567, -53.38970,
,,,601.71870, -56.18970,
,,,602.95173, -57.38970,
,,,604.18476, -54.98970,
,,,605.41779, -57.38970,
,,,606.65082, -48.58970,
,,,607.88385, -41.78970,
,,,609.11688, -40.18970,
,,,610.34991, -39.78970,
,,,611.58294, -42.58970,
,,,612.81597, -52.98970,
,,,614.04900, -55.38970,
,,,615.28203, -60.58970,
,,,616.51506, -61.38970,
,,,617.74809, -57.38970,
,,,618.98112, -50.98970,
,,,620.21415, -42.98970,
,,,621.44718, -40.18970,
,,,622.68021, -39.78970,
,,,623.91324, -41.38970,
,,,625.14627, -52.98970,
,,,626.37930, -57.38970,
,,,627.61233, -60.58970,
,,,628.84536, -60.58970,
,,,630.07839, -57.38970,
,,,631.31142, -49.78970,
,,,632.54445, -43.38970,
,,,633.77748, -40.18970,
,,,635.01051, -39.38970,
,,,636.24354, -40.58970,
,,,637.47657, -48.18970,
,,,638.70960, -57.78970,
,,,639.94263, -64.58970,
,,,641.17566, -66.98970,
,,,642.40869, -58.58970,
,,,643.64172, -50.58970,
,,,644.87475, -44.18970,
,,,646.10778, -41.78970,
,,,647.34081, -40.98970,
,,,648.57384, -40.98970,
,,,649.80687, -47.38970,
,,,651.03990, -54.58970,
,,,652.27293, -57.38970,
,,,653.50596, -58.58970,
,,,654.73899, -64.58970,
,,,655.97202, -58.58970,
,,,657.20505, -47.38970,
,,,658.43808, -41.78970,
,,,659.67111, -40.58970,
,,,660.90414, -40.58970,
,,,662.13717, -45.38970,
,,,663.37020, -54.98970,
,,,664.60323, -61.38970,
,,,665.83626, -66.98970,
,,,667.06929, -57.38970,
,,,668.30232, -54.98970,
,,,669.53535, -47.78970,
,,,670.76838, -42.58970,
,,,672.00141, -40.98970,
,,,673.23444, -40.18970,
,,,674.46747, -43.78970,
,,,675.70050, -51.38970,
,,,676.93353, -60.58970,
,,,678.16656, -66.98970,
,,,679.39959, -60.58970,
,,,680.63262, -54.58970,
,,,681.86565, -48.58970,
,,,683.09868, -43.38970,
,,,684.33171, -40.98970,
,,,685.56474, -40.98970,
,,,686.79777, -42.18970,
,,,688.03080, -53.38970,
,,,689.26383, -55.38970,
,,,690.49686, -60.58970,
,,,691.72989, -60.58970,
,,,692.96292, -57.38970,
,,,694.19595, -50.18970,
,,,695.42898, -43.38970,
,,,696.66201, -40.98970,
,,,697.89504, -40.18970,
,,,699.12807, -41.38970,
,,,700.36110, -49.38970,
,,,701.59413, -57.38970,
,,,702.82716, -60.58970,
,,,704.06019, -54.98970,
,,,705.29322, -56.18970,
,,,706.52625, -54.58970,
,,,707.75928, -44.98970,
,,,708.99231, -42.18970,
,,,710.22534, -40.98970,
,,,711.45837, -41.38970,
,,,712.69140, -47.38970,
,,,713.92443, -60.58970,
,,,715.15746, -60.58970,
,,,716.39049, -57.78970,
,,,717.62352, -58.58970,
,,,718.85655, -56.18970,
,,,720.08958, -46.58970,
,,,721.32261, -41.78970,
,,,722.55564, -40.98970,
,,,723.78867, -40.58970,
,,,725.02170, -45.78970,
,,,726.25473, -54.98970,
,,,727.48776, -57.38970,
,,,728.72079, -56.18970,
,,,729.95382, -57.38970,
,,,731.18685, -66.98970,
,,,732.41988, -48.18970,
,,,733.65291, -42.98970,
,,,734.88594, -41.78970,
,,,736.11897, -41.78970,
,,,737.35200, -44.98970,
,,,738.58503, -56.18970,
,,,739.81806, -54.98970,
,,,741.05109, -60.58970,
,,,742.28412, -57.78970,
,,,743.51715, -57.78970,
,,,744.75018, -49.38970,
,,,745.98321, -44.18970,
,,,747.21624, -41.78970,
,,,748.44927, -40.98970,
,,,749.68230, -42.58970,
,,,750.91533, -51.38970,
,,,752.14836, -60.58970,
,,,753.38139, -66.98970,
,,,754.61442, -57.38970,
,,,755.84745, -56.18970,
,,,757.08048, -52.18970,
,,,758.31351, -44.98970,
,,,759.54654, -42.58970,
,,,760.77957, -41.38970,
,,,762.01260, -42.98970,
,,,763.24563, -52.58970,
,,,764.47866, -61.38970,
,,,765.71169, -57.38970,
,,,766.94472, -57.38970,
,,,768.17775, -56.18970,
,,,769.41078, -52.18970,
,,,770.64381, -46.18970,
,,,771.87684, -42.58970,
,,,773.10987, -42.18970,
,,,774.34290, -42.98970,
,,,775.57593, -50.18970,
,,,776.80896, -57.38970,
,,,778.04199, -56.18970,
,,,779.27502, -57.38970,
,,,780.50805, -56.18970,
,,,781.74108, -53.38970,
,,,782.97411, -46.58970,
,,,784.20714, -42.58970,
,,,785.44017, -42.58970,
,,,786.67320, -41.78970,
,,,787.90623, -48.18970,
,,,789.13926, -54.98970,
,,,790.37229, -60.58970,
,,,791.60532, -61.38970,
,,,792.83835, -56.18970,
,,,794.07138, -54.58970,
,,,795.30441, -47.38970,
,,,796.53744, -44.18970,
,,,797.77047, -42.98970,
,,,799.00350, -42.58970,
,,,800.23653, -46.18970,
,,,801.46956, -54.98970,
,,,802.70259, -57.38970,
,,,803.93562, -64.58970,
,,,805.16865, -66.98970,
,,,806.40168, -54.98970,
,,,807.63471, -46.58970,
,,,808.86774, -43.38970,
,,,810.10077, -42.98970,
,,,811.33380, -42.18970,
,,,812.56683, -44.58970,
,,,813.79986, -54.98970,
,,,815.03289, -54.98970,
,,,816.26592, -64.58970,
,,,817.49895, -60.58970,
,,,818.73198, -55.38970,
,,,819.96501, -48.58970,
,,,821.19804, -44.18970,
,,,822.43107, -42.58970,
,,,823.66410, -42.18970,
,,,824.89713, -43.38970,
,,,826.13016, -53.38970,
,,,827.36319, -57.38970,
,,,828.59622, -58.58970,
,,,829.82925, -57.38970,
,,,831.06228, -60.58970,
,,,832.29531, -51.38970,
,,,833.52834, -45.38970,
,,,834.76137, -42.98970,
,,,835.99440, -42.18970,
,,,837.22743, -42.98970,
,,,838.46046, -49.78970,
,,,839.69349, -53.38970,
,,,840.92652, -61.38970,
,,,842.15955, -61.38970,
,,,843.39258, -54.98970,
,,,844.62561, -54.58970,
,,,845.85864, -46.98970,
,,,847.09167, -44.18970,
,,,848.32470, -43.38970,
,,,849.55773, -42.58970,
,,,850.79076, -47.38970,
,,,852.02379, -54.58970,
,,,853.25682, -61.38970,
,,,854.48985, -66.98970,
,,,855.72288, -58.58970,
,,,856.95591, -53.38970,
,,,858.18894, -46.98970,
,,,859.42197, -43.78970,
,,,860.65500, -42.58970,
,,,861.88803, -42.98970,
,,,863.12106, -46.58970,
,,,864.35409, -53.38970,
,,,865.58712, -57.38970,
,,,866.82015, -60.58970,
,,,868.05318, -56.18970,
,,,869.28621, -55.38970,
,,,870.51924, -47.38970,
,,,871.75227, -43.78970,
,,,872.98530, -42.98970,
,,,874.21833, -42.98970,
,,,875.45136, -44.58970,
,,,876.68439, -53.38970,
,,,877.91742, -58.58970,
,,,879.15045, -64.58970,
,,,880.38348, -61.38970,
,,,881.61651, -54.98970,
,,,882.84954, -48.18970,
,,,884.08257, -43.38970,
,,,885.31560, -41.78970,
,,,886.54863, -42.18970,
,,,887.78166, -44.18970,
,,,889.01469, -54.98970,
,,,890.24772, -57.38970,
,,,891.48075, -56.18970,
,,,892.71378, -55.38970,
,,,893.94681, -53.38970,
,,,895.17984, -52.18970,
,,,896.41287, -45.78970,
,,,897.64590, -42.98970,
,,,898.87893, -41.78970,
,,,900.11196, -42.58970,
,,,901.34499, -50.18970,
,,,902.57802, -54.58970,
,,,903.81105, -53.38970,
,,,905.04408, -54.58970,
,,,906.27711, -54.58970,
,,,907.51014, -52.98970,
,,,908.74317, -46.18970,
,,,909.97620, -44.18970,
,,,911.20923, -43.38970,
,,,912.44226, -43.78970,
,,,913.67529, -47.78970,
,,,914.90832, -53.38970,
,,,916.14135, -57.38970,
,,,917.37438, -61.38970,
,,,918.60741, -58.58970,
,,,919.84044, -54.58970,
,,,921.07347, -46.18970,
,,,922.30650, -44.18970,
,,,923.53953, -43.38970,
,,,924.77256, -42.58970,
,,,926.00559, -47.38970,
,,,927.23862, -57.78970,
,,,928.47165, -58.58970,
,,,929.70468, -57.38970,
,,,930.93771, -53.38970,
,,,932.17074, -60.58970,
,,,933.40377, -48.98970,
,,,934.63680, -46.18970,
,,,935.86983, -43.78970,
,,,937.10286, -42.98970,
,,,938.33589, -44.98970,
,,,939.56892, -54.98970,
,,,940.80195, -54.58970,
,,,942.03498, -57.78970,
,,,943.26801, -61.38970,
,,,944.50104, -54.58970,
,,,945.73407, -50.18970,
,,,946.96710, -44.58970,
,,,948.20013, -44.18970,
,,,949.43316, -44.18970,
,,,950.66619, -45.78970,
,,,951.89922, -54.98970,
,,,953.13225, -54.58970,
,,,954.36528, -54.98970,
,,,955.59831, -58.58970,
,,,956.83134, -56.18970,
,,,958.06437, -53.38970,
,,,959.29740, -46.18970,
,,,960.53043, -42.98970,
,,,961.76346, -42.58970,
,,,962.99649, -43.38970,
,,,964.22952, -50.98970,
