Lab_1/ALL0006/F0006CH1.CSV

Record Length,2.500000e+03,,  -0.000066000000,  -0.20200,
Sample Interval,1.000000e-07,,  -0.000065900000,  -0.20200,
Trigger Point,6.600000000000e+02,,  -0.000065800000,  -0.20200,
,,,  -0.000065700000,  -0.20000,
,,,  -0.000065600000,  -0.20000,
,,,  -0.000065500000,  -0.20400,
Source,CH1,,  -0.000065400000,  -0.20200,
Vertical Units,V,,  -0.000065300000,  -0.20000,
Vertical Scale,5.000000e-02,,  -0.000065200000,  -0.20000,
Vertical Offset,1.020000e-01,,  -0.000065100000,  -0.20200,
Horizontal Units,s,,  -0.000065000000,  -0.20400,
Horizontal Scale,2.500000e-05,,  -0.000064900000,  -0.20200,
Pt Fmt,Y,,  -0.000064800000,  -0.20200,
Yzero,0.000000e+00,,  -0.000064700000,  -0.20000,
Probe Atten,1.000000e+00,,  -0.000064600000,  -0.20200,
Model Number,TBS1072B-EDU,,  -0.000064500000,  -0.20000,
Serial Number,C031465,,  -0.000064400000,  -0.20200,
Firmware Version,FV:v4.06,,  -0.000064300000,  -0.20000,
,,,-00.000064200000,  -0.20200,
,,,-00.000064100000,  -0.20000,
,,,-00.000064000000,  -0.20400,
,,,-00.000063900000,  -0.20000,
,,,-00.000063800000,  -0.20200,
,,,-00.000063700000,  -0.20400,
,,,-00.000063600000,  -0.20200,
,,,-00.000063500000,  -0.20200,
,,,-00.000063400000,  -0.20000,
,,,-00.000063300000,  -0.20200,
,,,-00.000063200000,  -0.20000,
,,,-00.000063100000,  -0.20000,
,,,-00.000063000000,  -0.20200,
,,,-00.000062900000,  -0.20200,
,,,-00.000062800000,  -0.20200,
,,,-00.000062700000,  -0.20400,
,,,-00.000062600000,  -0.20200,
,,,-00.000062500000,  -0.20400,
,,,-00.000062400000,  -0.20400,
,,,-00.000062300000,  -0.20000,
,,,-00.000062200000,  -0.20200,
,,,-00.000062100000,  -0.20400,
,,,-00.000062000000,  -0.20200,
,,,-00.000061900000,  -0.20000,
,,,-00.000061800000,  -0.20200,
,,,-00.000061700000,  -0.20000,
,,,-00.000061600000,  -0.20200,
,,,-00.000061500000,  -0.20200,
,,,-00.000061400000,  -0.20200,
,,,-00.000061300000,  -0.20400,
,,,-00.000061200000,  -0.20200,
,,,-00.000061100000,  -0.20400,
,,,-00.000061000000,  -0.20400,
,,,-00.000060900000,  -0.20000,
,,,-00.000060800000,  -0.20200,
,,,-00.000060700000,  -0.20200,
,,,-00.000060600000,  -0.20400,
,,,-00.000060500000,  -0.20200,
,,,-00.000060400000,  -0.20200,
,,,-00.000060300000,  -0.20200,
,,,-00.000060200000,  -0.20000,
,,,-00.000060100000,  -0.20200,
,,,-00.000060000000,  -0.20400,
,,,-00.000059900000,  -0.20000,
,,,-00.000059800000,  -0.20200,
,,,-00.000059700000,  -0.20000,
,,,-00.000059600000,  -0.20200,
,,,-00.000059500000,  -0.20000,
,,,-00.000059400000,  -0.20200,
,,,-00.000059300000,  -0.20200,
,,,-00.000059200000,  -0.20200,
,,,-00.000059100000,  -0.20200,
,,,-00.000059000000,  -0.20200,
,,,-00.000058900000,  -0.20200,
,,,-00.000058800000,  -0.20200,
,,,-00.000058700000,  -0.20200,
,,,-00.000058600000,  -0.20200,
,,,-00.000058500000,  -0.20200,
,,,-00.000058400000,  -0.20000,
,,,-00.000058300000,  -0.20400,
,,,-00.000058200000,  -0.20200,
,,,-00.000058100000,  -0.20200,
,,,-00.000058000000,  -0.20200,
,,,-00.000057900000,  -0.20200,
,,,-00.000057800000,  -0.20000,
,,,-00.000057700000,  -0.20200,
,,,-00.000057600000,  -0.20400,
,,,-00.000057500000,  -0.20200,
,,,-00.000057400000,  -0.20200,
,,,-00.000057300000,  -0.20200,
,,,-00.000057200000,  -0.20200,
,,,-00.000057100000,  -0.20400,
,,,-00.000057000000,  -0.20000,
,,,-00.000056900000,  -0.20000,
,,,-00.000056800000,  -0.20200,
,,,-00.000056700000,  -0.20200,
,,,-00.000056600000,  -0.20200,
,,,-00.000056500000,  -0.20200,
,,,-00.000056400000,  -0.20200,
,,,-00.000056300000,  -0.20200,
,,,-00.000056200000,  -0.20000,
,,,-00.000056100000,  -0.20200,
,,,-00.000056000000,  -0.20200,
,,,-00.000055900000,  -0.20200,
,,,-00.000055800000,  -0.20200,
,,,-00.000055700000,  -0.20400,
,,,-00.000055600000,  -0.20200,
,,,-00.000055500000,  -0.20400,
,,,-00.000055400000,  -0.20000,
,,,-00.000055300000,  -0.20200,
,,,-00.000055200000,  -0.20000,
,,,-00.000055100000,  -0.20200,
,,,-00.000055000000,  -0.20200,
,,,-00.000054900000,  -0.20400,
,,,-00.000054800000,  -0.19800,
,,,-00.000054700000,  -0.20200,
,,,-00.000054600000,  -0.20200,
,,,-00.000054500000,  -0.20200,
,,,-00.000054400000,  -0.20200,
,,,-00.000054300000,  -0.19800,
,,,-00.000054200000,  -0.20000,
,,,-00.000054100000,  -0.20200,
,,,-00.000054000000,  -0.20000,
,,,-00.000053900000,  -0.20200,
,,,-00.000053800000,  -0.20400,
,,,-00.000053700000,  -0.20200,
,,,-00.000053600000,  -0.20000,
,,,-00.000053500000,  -0.20200,
,,,-00.000053400000,  -0.20400,
,,,-00.000053300000,  -0.20400,
,,,-00.000053200000,  -0.20400,
,,,-00.000053100000,  -0.20200,
,,,-00.000053000000,  -0.20200,
,,,-00.000052900000,  -0.20200,
,,,-00.000052800000,  -0.20400,
,,,-00.000052700000,  -0.20000,
,,,-00.000052600000,  -0.19800,
,,,-00.000052500000,  -0.20000,
,,,-00.000052400000,  -0.20000,
,,,-00.000052300000,  -0.20200,
,,,-00.000052200000,  -0.20000,
,,,-00.000052100000,  -0.20200,
,,,-00.000052000000,  -0.20200,
,,,-00.000051900000,  -0.19800,
,,,-00.000051800000,  -0.20200,
,,,-00.000051700000,  -0.20200,
,,,-00.000051600000,  -0.20400,
,,,-00.000051500000,  -0.20400,
,,,-00.000051400000,  -0.20400,
,,,-00.000051300000,  -0.20200,
,,,-00.000051200000,  -0.20200,
,,,-00.000051100000,  -0.20200,
,,,-00.000051000000,  -0.20200,
,,,-00.000050900000,  -0.20200,
,,,-00.000050800000,  -0.20400,
,,,-00.000050700000,  -0.20200,
,,,-00.000050600000,  -0.20000,
,,,-00.000050500000,  -0.20200,
,,,-00.000050400000,  -0.20200,
,,,-00.000050300000,  -0.20200,
,,,-00.000050200000,  -0.20200,
,,,-00.000050100000,  -0.20000,
,,,-00.000050000000,  -0.20400,
,,,-00.000049900000,  -0.20200,
,,,-00.000049800000,  -0.20000,
,,,-00.000049700000,  -0.20200,
,,,-00.000049600000,  -0.20000,
,,,-00.000049500000,  -0.20200,
,,,-00.000049400000,  -0.20000,
,,,-00.000049300000,  -0.20200,
,,,-00.000049200000,  -0.20000,
,,,-00.000049100000,  -0.20200,
,,,-00.000049000000,  -0.20000,
,,,-00.000048900000,  -0.20200,
,,,-00.000048800000,  -0.20200,
,,,-00.000048700000,  -0.20200,
,,,-00.000048600000,  -0.20000,
,,,-00.000048500000,  -0.20200,
,,,-00.000048400000,  -0.20200,
,,,-00.000048300000,  -0.20400,
,,,-00.000048200000,  -0.20200,
,,,-00.000048100000,  -0.20000,
,,,-00.000048000000,  -0.20200,
,,,-00.000047900000,  -0.20200,
,,,-00.000047800000,  -0.20400,
,,,-00.000047700000,  -0.20000,
,,,-00.000047600000,  -0.20200,
,,,-00.000047500000,  -0.20200,
,,,-00.000047400000,  -0.20000,
,,,-00.000047300000,  -0.20000,
,,,-00.000047200000,  -0.20000,
,,,-00.000047100000,  -0.20200,
,,,-00.000047000000,  -0.20200,
,,,-00.000046900000,  -0.19800,
,,,-00.000046800000,  -0.20200,
,,,-00.000046700000,  -0.20200,
,,,-00.000046600000,  -0.20000,
,,,-00.000046500000,  -0.20000,
,,,-00.000046400000,  -0.20200,
,,,-00.000046300000,  -0.20200,
,,,-00.000046200000,  -0.20000,
,,,-00.000046100000,  -0.20400,
,,,-00.000046000000,  -0.20200,
,,,-00.000045900000,  -0.20200,
,,,-00.000045800000,  -0.20200,
,,,-00.000045700000,  -0.20000,
,,,-00.000045600000,  -0.20200,
,,,-00.000045500000,  -0.20000,
,,,-00.000045400000,  -0.19800,
,,,-00.000045300000,  -0.20200,
,,,-00.000045200000,  -0.20000,
,,,-00.000045100000,  -0.20000,
,,,-00.000045000000,  -0.20200,
,,,-00.000044900000,  -0.20200,
,,,-00.000044800000,  -0.20200,
,,,-00.000044700000,  -0.20400,
,,,-00.000044600000,  -0.20000,
,,,-00.000044500000,  -0.20000,
,,,-00.000044400000,  -0.20200,
,,,-00.000044300000,  -0.20200,
,,,-00.000044200000,  -0.20200,
,,,-00.000044100000,  -0.20000,
,,,-00.000044000000,  -0.20000,
,,,-00.000043900000,  -0.20400,
,,,-00.000043800000,  -0.20200,
,,,-00.000043700000,  -0.20200,
,,,-00.000043600000,  -0.20200,
,,,-00.000043500000,  -0.20200,
,,,-00.000043400000,  -0.20200,
,,,-00.000043300000,  -0.20200,
,,,-00.000043200000,  -0.20400,
,,,-00.000043100000,  -0.20200,
,,,-00.000043000000,  -0.20200,
,,,-00.000042900000,  -0.20200,
,,,-00.000042800000,  -0.20000,
,,,-00.000042700000,  -0.20200,
,,,-00.000042600000,  -0.20200,
,,,-00.000042500000,  -0.20200,
,,,-00.000042400000,  -0.20400,
,,,-00.000042300000,  -0.20400,
,,,-00.000042200000,  -0.20200,
,,,-00.000042100000,  -0.20400,
,,,-00.000042000000,  -0.20200,
,,,-00.000041900000,  -0.20200,
,,,-00.000041800000,  -0.20400,
,,,-00.000041700000,  -0.20000,
,,,-00.000041600000,  -0.20000,
,,,-00.000041500000,  -0.20000,
,,,-00.000041400000,  -0.20200,
,,,-00.000041300000,  -0.20200,
,,,-00.000041200000,  -0.20400,
,,,-00.000041100000,  -0.20200,
,,,-00.000041000000,  -0.20400,
,,,-00.000040900000,  -0.20400,
,,,-00.000040800000,  -0.20200,
,,,-00.000040700000,  -0.20200,
,,,-00.000040600000,  -0.20200,
,,,-00.000040500000,  -0.20200,
,,,-00.000040400000,  -0.20200,
,,,-00.000040300000,  -0.20200,
,,,-00.000040200000,  -0.20200,
,,,-00.000040100000,  -0.20200,
,,,-00.000040000000,  -0.20400,
,,,-00.000039900000,  -0.20000,
,,,-00.000039800000,  -0.20200,
,,,-00.000039700000,  -0.20200,
,,,-00.000039600000,  -0.20000,
,,,-00.000039500000,  -0.20200,
,,,-00.000039400000,  -0.20200,
,,,-00.000039300000,  -0.20000,
,,,-00.000039200000,  -0.20200,
,,,-00.000039100000,  -0.20200,
,,,-00.000039000000,  -0.20400,
,,,-00.000038900000,  -0.20000,
,,,-00.000038800000,  -0.20200,
,,,-00.000038700000,  -0.20200,
,,,-00.000038600000,  -0.20000,
,,,-00.000038500000,  -0.20200,
,,,-00.000038400000,  -0.20000,
,,,-00.000038300000,  -0.20200,
,,,-00.000038200000,  -0.20200,
,,,-00.000038100000,  -0.20400,
,,,-00.000038000000,  -0.20200,
,,,-00.000037900000,  -0.20200,
,,,-00.000037800000,  -0.20200,
,,,-00.000037700000,  -0.20000,
,,,-00.000037600000,  -0.20000,
,,,-00.000037500000,  -0.20000,
,,,-00.000037400000,  -0.20200,
,,,-00.000037300000,  -0.20400,
,,,-00.000037200000,  -0.20000,
,,,-00.000037100000,  -0.20200,
,,,-00.000037000000,  -0.20000,
,,,-00.000036900000,  -0.20200,
,,,-00.000036800000,  -0.20200,
,,,-00.000036700000,  -0.20200,
,,,-00.000036600000,  -0.20200,
,,,-00.000036500000,  -0.20200,
,,,-00.000036400000,  -0.20200,
,,,-00.000036300000,  -0.20400,
,,,-00.000036200000,  -0.20200,
,,,-00.000036100000,  -0.20200,
,,,-00.000036000000,  -0.20000,
,,,-00.000035900000,  -0.20000,
,,,-00.000035800000,  -0.20000,
,,,-00.000035700000,  -0.20400,
,,,-00.000035600000,  -0.20200,
,,,-00.000035500000,  -0.20000,
,,,-00.000035400000,  -0.20200,
,,,-00.000035300000,  -0.20000,
,,,-00.000035200000,  -0.20200,
,,,-00.000035100000,  -0.20200,
,,,-00.000035000000,  -0.20200,
,,,-00.000034900000,  -0.20000,
,,,-00.000034800000,  -0.20000,
,,,-00.000034700000,  -0.20000,
,,,-00.000034600000,  -0.20400,
,,,-00.000034500000,  -0.20000,
,,,-00.000034400000,  -0.20000,
,,,-00.000034300000,  -0.19800,
,,,-00.000034200000,  -0.20200,
,,,-00.000034100000,  -0.20200,
,,,-00.000034000000,  -0.20200,
,,,-00.000033900000,  -0.20200,
,,,-00.000033800000,  -0.20200,
,,,-00.000033700000,  -0.20200,
,,,-00.000033600000,  -0.20200,
,,,-00.000033500000,  -0.20000,
,,,-00.000033400000,  -0.20200,
,,,-00.000033300000,  -0.20000,
,,,-00.000033200000,  -0.20200,
,,,-00.000033100000,  -0.20000,
,,,-00.000033000000,  -0.20200,
,,,-00.000032900000,  -0.20000,
,,,-00.000032800000,  -0.20000,
,,,-00.000032700000,  -0.20200,
,,,-00.000032600000,  -0.20000,
,,,-00.000032500000,  -0.19800,
,,,-00.000032400000,  -0.20200,
,,,-00.000032300000,  -0.20200,
,,,-00.000032200000,  -0.20200,
,,,-00.000032100000,  -0.20200,
,,,-00.000032000000,  -0.20000,
,,,-00.000031900000,  -0.20200,
,,,-00.000031800000,  -0.20000,
,,,-00.000031700000,  -0.20000,
,,,-00.000031600000,  -0.20000,
,,,-00.000031500000,  -0.20000,
,,,-00.000031400000,  -0.20400,
,,,-00.000031300000,  -0.20200,
,,,-00.000031200000,  -0.20200,
,,,-00.000031100000,  -0.20400,
,,,-00.000031000000,  -0.20000,
,,,-00.000030900000,  -0.20200,
,,,-00.000030800000,  -0.20200,
,,,-00.000030700000,  -0.20200,
,,,-00.000030600000,  -0.20000,
,,,-00.000030500000,  -0.20200,
,,,-00.000030400000,  -0.20200,
,,,-00.000030300000,  -0.20200,
,,,-00.000030200000,  -0.20400,
,,,-00.000030100000,  -0.20200,
,,,-00.000030000000,  -0.20400,
,,,-00.000029900000,  -0.20000,
,,,-00.000029800000,  -0.20000,
,,,-00.000029700000,  -0.20400,
,,,-00.000029600000,  -0.20200,
,,,-00.000029500000,  -0.20000,
,,,-00.000029400000,  -0.20200,
,,,-00.000029300000,  -0.20200,
,,,-00.000029200000,  -0.20200,
,,,-00.000029100000,  -0.20200,
,,,-00.000029000000,  -0.20000,
,,,-00.000028900000,  -0.20000,
,,,-00.000028800000,  -0.20200,
,,,-00.000028700000,  -0.20000,
,,,-00.000028600000,  -0.20200,
,,,-00.000028500000,  -0.20400,
,,,-00.000028400000,  -0.20000,
,,,-00.000028300000,  -0.20200,
,,,-00.000028200000,  -0.20200,
,,,-00.000028100000,  -0.20000,
,,,-00.000028000000,  -0.20200,
,,,-00.000027900000,  -0.20200,
,,,-00.000027800000,  -0.20200,
,,,-00.000027700000,  -0.20200,
,,,-00.000027600000,  -0.20200,
,,,-00.000027500000,  -0.20400,
,,,-00.000027400000,  -0.20200,
,,,-00.000027300000,  -0.19800,
,,,-00.000027200000,  -0.20200,
,,,-00.000027100000,  -0.20200,
,,,-00.000027000000,  -0.20400,
,,,-00.000026900000,  -0.20200,
,,,-00.000026800000,  -0.20200,
,,,-00.000026700000,  -0.19800,
,,,-00.000026600000,  -0.20200,
,,,-00.000026500000,  -0.20000,
,,,-00.000026400000,  -0.20400,
,,,-00.000026300000,  -0.20200,
,,,-00.000026200000,  -0.20000,
,,,-00.000026100000,  -0.20200,
,,,-00.000026000000,  -0.20000,
,,,-00.000025900000,  -0.20200,
,,,-00.000025800000,  -0.20000,
,,,-00.000025700000,  -0.20200,
,,,-00.000025600000,  -0.20000,
,,,-00.000025500000,  -0.20000,
,,,-00.000025400000,  -0.20200,
,,,-00.000025300000,  -0.20400,
,,,-00.000025200000,  -0.20000,
,,,-00.000025100000,  -0.20200,
,,,-00.000025000000,  -0.20000,
,,,-00.000024900000,  -0.20200,
,,,-00.000024800000,  -0.20200,
,,,-00.000024700000,  -0.20200,
,,,-00.000024600000,  -0.20200,
,,,-00.000024500000,  -0.20200,
,,,-00.000024400000,  -0.20000,
,,,-00.000024300000,  -0.19800,
,,,-00.000024200000,  -0.20000,
,,,-00.000024100000,  -0.20200,
,,,-00.000024000000,  -0.20200,
,,,-00.000023900000,  -0.20200,
,,,-00.000023800000,  -0.20000,
,,,-00.000023700000,  -0.20200,
,,,-00.000023600000,  -0.20200,
,,,-00.000023500000,  -0.20200,
,,,-00.000023400000,  -0.20200,
,,,-00.000023300000,  -0.20400,
,,,-00.000023200000,  -0.20400,
,,,-00.000023100000,  -0.20000,
,,,-00.000023000000,  -0.20000,
,,,-00.000022900000,  -0.20200,
,,,-00.000022800000,  -0.20200,
,,,-00.000022700000,  -0.20200,
,,,-00.000022600000,  -0.20200,
,,,-00.000022500000,  -0.20200,
,,,-00.000022400000,  -0.20200,
,,,-00.000022300000,  -0.20200,
,,,-00.000022200000,  -0.20000,
,,,-00.000022100000,  -0.20000,
,,,-00.000022000000,  -0.20000,
,,,-00.000021900000,  -0.20400,
,,,-00.000021800000,  -0.20000,
,,,-00.000021700000,  -0.20200,
,,,-00.000021600000,  -0.20200,
,,,-00.000021500000,  -0.20400,
,,,-00.000021400000,  -0.20400,
,,,-00.000021300000,  -0.20200,
,,,-00.000021200000,  -0.20200,
,,,-00.000021100000,  -0.20400,
,,,-00.000021000000,  -0.20200,
,,,-00.000020900000,  -0.20200,
,,,-00.000020800000,  -0.20000,
,,,-00.000020700000,  -0.20000,
,,,-00.000020600000,  -0.20000,
,,,-00.000020500000,  -0.20200,
,,,-00.000020400000,  -0.20200,
,,,-00.000020300000,  -0.20200,
,,,-00.000020200000,  -0.20200,
,,,-00.000020100000,  -0.20000,
,,,-00.000020000000,  -0.20200,
,,,-00.000019900000,  -0.20200,
,,,-00.000019800000,  -0.20200,
,,,-00.000019700000,  -0.20200,
,,,-00.000019600000,  -0.20200,
,,,-00.000019500000,  -0.20000,
,,,-00.000019400000,  -0.20200,
,,,-00.000019300000,  -0.20400,
,,,-00.000019200000,  -0.20200,
,,,-00.000019100000,  -0.20000,
,,,-00.000019000000,  -0.20400,
,,,-00.000018900000,  -0.20400,
,,,-00.000018800000,  -0.20200,
,,,-00.000018700000,  -0.20200,
,,,-00.000018600000,  -0.20400,
,,,-00.000018500000,  -0.20200,
,,,-00.000018400000,  -0.20200,
,,,-00.000018300000,  -0.20200,
,,,-00.000018200000,  -0.19800,
,,,-00.000018100000,  -0.20400,
,,,-00.000018000000,  -0.20200,
,,,-00.000017900000,  -0.20000,
,,,-00.000017800000,  -0.20200,
,,,-00.000017700000,  -0.20200,
,,,-00.000017600000,  -0.20200,
,,,-00.000017500000,  -0.20200,
,,,-00.000017400000,  -0.20200,
,,,-00.000017300000,  -0.20200,
,,,-00.000017200000,  -0.19800,
,,,-00.000017100000,  -0.20400,
,,,-00.000017000000,  -0.20000,
,,,-00.000016900000,  -0.20200,
,,,-00.000016800000,  -0.20400,
,,,-00.000016700000,  -0.20200,
,,,-00.000016600000,  -0.20000,
,,,-00.000016500000,  -0.20400,
,,,-00.000016400000,  -0.20200,
,,,-00.000016300000,  -0.20000,
,,,-00.000016200000,  -0.20600,
,,,-00.000016100000,  -0.20200,
,,,-00.000016000000,  -0.20400,
,,,-00.000015900000,  -0.20200,
,,,-00.000015800000,  -0.20000,
,,,-00.000015700000,  -0.20400,
,,,-00.000015600000,  -0.20200,
,,,-00.000015500000,  -0.20000,
,,,-00.000015400000,  -0.20000,
,,,-00.000015300000,  -0.20200,
,,,-00.000015200000,  -0.20000,
,,,-00.000015100000,  -0.20000,
,,,-00.000015000000,  -0.20200,
,,,-00.000014900000,  -0.20000,
,,,-00.000014800000,  -0.20200,
,,,-00.000014700000,  -0.20000,
,,,-00.000014600000,  -0.20000,
,,,-00.000014500000,  -0.20200,
,,,-00.000014400000,  -0.19800,
,,,-00.000014300000,  -0.20200,
,,,-00.000014200000,  -0.19800,
,,,-00.000014100000,  -0.19800,
,,,-00.000014000000,  -0.20000,
,,,-00.000013900000,  -0.20000,
,,,-00.000013800000,  -0.19800,
,,,-00.000013700000,  -0.19600,
,,,-00.000013600000,  -0.19400,
,,,-00.000013500000,  -0.19800,
,,,-00.000013400000,  -0.19600,
,,,-00.000013300000,  -0.19400,
,,,-00.000013200000,  -0.19600,
,,,-00.000013100000,  -0.19600,
,,,-00.000013000000,  -0.19400,
,,,-00.000012900000,  -0.19200,
,,,-00.000012800000,  -0.19400,
,,,-00.000012700000,  -0.19200,
,,,-00.000012600000,  -0.19200,
,,,-00.000012500000,  -0.19000,
,,,-00.000012400000,  -0.18800,
,,,-00.000012300000,  -0.18800,
,,,-00.000012200000,  -0.19000,
,,,-00.000012100000,  -0.18800,
,,,-00.000012000000,  -0.18800,
,,,-00.000011900000,  -0.18600,
,,,-00.000011800000,  -0.18600,
,,,-00.000011700000,  -0.18600,
,,,-00.000011600000,  -0.18600,
,,,-00.000011500000,  -0.18600,
,,,-00.000011400000,  -0.18400,
,,,-00.000011300000,  -0.18200,
,,,-00.000011200000,  -0.18000,
,,,-00.000011100000,  -0.18000,
,,,-00.000011000000,  -0.18200,
,,,-00.000010900000,  -0.18000,
,,,-00.000010800000,  -0.18000,
,,,-00.000010700000,  -0.17800,
,,,-00.000010600000,  -0.17800,
,,,-00.000010500000,  -0.17400,
,,,-00.000010400000,  -0.17600,
,,,-00.000010300000,  -0.17600,
,,,-00.000010200000,  -0.17400,
,,,-00.000010100000,  -0.17200,
,,,-00.000010000000,  -0.17400,
,,,-00.000009900000,  -0.17000,
,,,-00.000009800000,  -0.17000,
,,,-00.000009700000,  -0.16800,
,,,-00.000009600000,  -0.16800,
,,,-00.000009500000,  -0.16600,
,,,-00.000009400000,  -0.16800,
,,,-00.000009300000,  -0.16600,
,,,-00.000009200000,  -0.16400,
,,,-00.000009100000,  -0.16600,
,,,-00.000009000000,  -0.16400,
,,,-00.000008900000,  -0.16200,
,,,-00.000008800000,  -0.16200,
,,,-00.000008700000,  -0.16200,
,,,-00.000008600000,  -0.16000,
,,,-00.000008500000,  -0.15800,
,,,-00.000008400000,  -0.15800,
,,,-00.000008300000,  -0.15600,
,,,-00.000008200000,  -0.15600,
,,,-00.000008100000,  -0.15400,
,,,-00.000008000000,  -0.15400,
,,,-00.000007900000,  -0.15400,
,,,-00.000007800000,  -0.15200,
,,,-00.000007700000,  -0.15400,
,,,-00.000007600000,  -0.15200,
,,,-00.000007500000,  -0.15000,
,,,-00.000007400000,  -0.14800,
,,,-00.000007300000,  -0.14600,
,,,-00.000007200000,  -0.14600,
,,,-00.000007100000,  -0.14600,
,,,-00.000007000000,  -0.14600,
,,,-00.000006900000,  -0.14200,
,,,-00.000006800000,  -0.14600,
,,,-00.000006700000,  -0.14200,
,,,-00.000006600000,  -0.14600,
,,,-00.000006500000,  -0.14200,
,,,-00.000006400000,  -0.13800,
,,,-00.000006300000,  -0.13800,
,,,-00.000006200000,  -0.13600,
,,,-00.000006100000,  -0.13800,
,,,-00.000006000000,  -0.13600,
,,,-00.000005900000,  -0.13400,
,,,-00.000005800000,  -0.13200,
,,,-00.000005700000,  -0.13200,
,,,-00.000005600000,  -0.13400,
,,,-00.000005500000,  -0.13200,
,,,-00.000005400000,  -0.13000,
,,,-00.000005300000,  -0.12800,
,,,-00.000005200000,  -0.12800,
,,,-00.000005100000,  -0.12800,
,,,-00.000005000000,  -0.12800,
,,,-00.000004900000,  -0.12600,
,,,-00.000004800000,  -0.12400,
,,,-00.000004700000,  -0.12200,
