Lab_5/ALL0017/F0017CH1.CSV

Record Length,2.500000e+03,,  -0.003480000000,  -2.48000,
Sample Interval,2.000000e-06,,  -0.003478000000,  -2.60000,
Trigger Point,1.740000000000e+03,,  -0.003476000000,  -2.52000,
,,,  -0.003474000000,  -2.24000,
,,,  -0.003472000000,  -1.88000,
,,,  -0.003470000000,  -1.40000,
Source,CH1,,  -0.003468000000,  -0.76000,
Vertical Units,V,,  -0.003466000000,  -0.08000,
Vertical Scale,1.000000e+00,,  -0.003464000000,   0.52000,
Vertical Offset,0.000000e+00,,  -0.003462000000,   1.20000,
Horizontal Units,s,,  -0.003460000000,   1.80000,
Horizontal Scale,5.000000e-04,,  -0.003458000000,   2.20000,
Pt Fmt,Y,,  -0.003456000000,   2.52000,
Yzero,0.000000e+00,,  -0.003454000000,   2.72000,
Probe Atten,1.000000e+00,,  -0.003452000000,   2.72000,
Model Number,TBS1072B-EDU,,  -0.003450000000,   2.48000,
Serial Number,C013385,,  -0.003448000000,   2.16000,
Firmware Version,FV:v4.06,,  -0.003446000000,   1.72000,
,,,-00.003444000000,   1.16000,
,,,-00.003442000000,   0.48000,
,,,-00.003440000000,  -0.20000,
,,,-00.003438000000,  -0.88000,
,,,-00.003436000000,  -1.56000,
,,,-00.003434000000,  -2.08000,
,,,-00.003432000000,  -2.48000,
,,,-00.003430000000,  -2.68000,
,,,-00.003428000000,  -2.80000,
,,,-00.003426000000,  -2.72000,
,,,-00.003424000000,  -2.36000,
,,,-00.003422000000,  -2.04000,
,,,-00.003420000000,  -1.52000,
,,,-00.003418000000,  -0.84000,
,,,-00.003416000000,  -0.08000,
,,,-00.003414000000,   0.60000,
,,,-00.003412000000,   1.28000,
,,,-00.003410000000,   1.88000,
,,,-00.003408000000,   2.36000,
,,,-00.003406000000,   2.72000,
,,,-00.003404000000,   2.92000,
,,,-00.003402000000,   2.84000,
,,,-00.003400000000,   2.72000,
,,,-00.003398000000,   2.36000,
,,,-00.003396000000,   1.84000,
,,,-00.003394000000,   1.24000,
,,,-00.003392000000,   0.52000,
,,,-00.003390000000,  -0.20000,
,,,-00.003388000000,  -0.96000,
,,,-00.003386000000,  -1.64000,
,,,-00.003384000000,  -2.20000,
,,,-00.003382000000,  -2.64000,
,,,-00.003380000000,  -2.92000,
,,,-00.003378000000,  -2.96000,
,,,-00.003376000000,  -2.92000,
,,,-00.003374000000,  -2.60000,
,,,-00.003372000000,  -2.16000,
,,,-00.003370000000,  -1.56000,
,,,-00.003368000000,  -0.84000,
,,,-00.003366000000,  -0.12000,
,,,-00.003364000000,   0.64000,
,,,-00.003362000000,   1.36000,
,,,-00.003360000000,   2.04000,
,,,-00.003358000000,   2.52000,
,,,-00.003356000000,   2.84000,
,,,-00.003354000000,   3.08000,
,,,-00.003352000000,   3.08000,
,,,-00.003350000000,   2.92000,
,,,-00.003348000000,   2.48000,
,,,-00.003346000000,   1.96000,
,,,-00.003344000000,   1.28000,
,,,-00.003342000000,   0.52000,
,,,-00.003340000000,  -0.24000,
,,,-00.003338000000,  -1.00000,
,,,-00.003336000000,  -1.76000,
,,,-00.003334000000,  -2.32000,
,,,-00.003332000000,  -2.80000,
,,,-00.003330000000,  -3.08000,
,,,-00.003328000000,  -3.16000,
,,,-00.003326000000,  -3.04000,
,,,-00.003324000000,  -2.76000,
,,,-00.003322000000,  -2.28000,
,,,-00.003320000000,  -1.64000,
,,,-00.003318000000,  -0.92000,
,,,-00.003316000000,  -0.08000,
,,,-00.003314000000,   0.68000,
,,,-00.003312000000,   1.48000,
,,,-00.003310000000,   2.16000,
,,,-00.003308000000,   2.68000,
,,,-00.003306000000,   3.04000,
,,,-00.003304000000,   3.24000,
,,,-00.003302000000,   3.20000,
,,,-00.003300000000,   3.04000,
,,,-00.003298000000,   2.64000,
,,,-00.003296000000,   2.08000,
,,,-00.003294000000,   1.36000,
,,,-00.003292000000,   0.56000,
,,,-00.003290000000,  -0.24000,
,,,-00.003288000000,  -1.08000,
,,,-00.003286000000,  -1.80000,
,,,-00.003284000000,  -2.44000,
,,,-00.003282000000,  -2.96000,
,,,-00.003280000000,  -3.24000,
,,,-00.003278000000,  -3.28000,
,,,-00.003276000000,  -3.16000,
,,,-00.003274000000,  -2.88000,
,,,-00.003272000000,  -2.40000,
,,,-00.003270000000,  -1.72000,
,,,-00.003268000000,  -1.00000,
,,,-00.003266000000,  -0.12000,
,,,-00.003264000000,   0.68000,
,,,-00.003262000000,   1.56000,
,,,-00.003260000000,   2.24000,
,,,-00.003258000000,   2.80000,
,,,-00.003256000000,   3.20000,
,,,-00.003254000000,   3.36000,
,,,-00.003252000000,   3.36000,
,,,-00.003250000000,   3.16000,
,,,-00.003248000000,   2.76000,
,,,-00.003246000000,   2.16000,
,,,-00.003244000000,   1.40000,
,,,-00.003242000000,   0.60000,
,,,-00.003240000000,  -0.24000,
,,,-00.003238000000,  -1.12000,
,,,-00.003236000000,  -1.88000,
,,,-00.003234000000,  -2.52000,
,,,-00.003232000000,  -3.08000,
,,,-00.003230000000,  -3.40000,
,,,-00.003228000000,  -3.48000,
,,,-00.003226000000,  -3.32000,
,,,-00.003224000000,  -3.00000,
,,,-00.003222000000,  -2.48000,
,,,-00.003220000000,  -1.80000,
,,,-00.003218000000,  -1.00000,
,,,-00.003216000000,  -0.16000,
,,,-00.003214000000,   0.76000,
,,,-00.003212000000,   1.56000,
,,,-00.003210000000,   2.32000,
,,,-00.003208000000,   2.92000,
,,,-00.003206000000,   3.32000,
,,,-00.003204000000,   3.52000,
,,,-00.003202000000,   3.52000,
,,,-00.003200000000,   3.24000,
,,,-00.003198000000,   2.88000,
,,,-00.003196000000,   2.20000,
,,,-00.003194000000,   1.48000,
,,,-00.003192000000,   0.68000,
,,,-00.003190000000,  -0.32000,
,,,-00.003188000000,  -1.20000,
,,,-00.003186000000,  -1.96000,
,,,-00.003184000000,  -2.64000,
,,,-00.003182000000,  -3.16000,
,,,-00.003180000000,  -3.44000,
,,,-00.003178000000,  -3.60000,
,,,-00.003176000000,  -3.48000,
,,,-00.003174000000,  -3.08000,
,,,-00.003172000000,  -2.60000,
,,,-00.003170000000,  -1.92000,
,,,-00.003168000000,  -1.04000,
,,,-00.003166000000,  -0.20000,
,,,-00.003164000000,   0.76000,
,,,-00.003162000000,   1.64000,
,,,-00.003160000000,   2.36000,
,,,-00.003158000000,   3.00000,
,,,-00.003156000000,   3.44000,
,,,-00.003154000000,   3.64000,
,,,-00.003152000000,   3.60000,
,,,-00.003150000000,   3.40000,
,,,-00.003148000000,   2.92000,
,,,-00.003146000000,   2.32000,
,,,-00.003144000000,   1.52000,
,,,-00.003142000000,   0.64000,
,,,-00.003140000000,  -0.28000,
,,,-00.003138000000,  -1.24000,
,,,-00.003136000000,  -1.96000,
,,,-00.003134000000,  -2.72000,
,,,-00.003132000000,  -3.20000,
,,,-00.003130000000,  -3.56000,
,,,-00.003128000000,  -3.64000,
,,,-00.003126000000,  -3.52000,
,,,-00.003124000000,  -3.20000,
,,,-00.003122000000,  -2.64000,
,,,-00.003120000000,  -1.96000,
,,,-00.003118000000,  -1.08000,
,,,-00.003116000000,  -0.16000,
,,,-00.003114000000,   0.84000,
,,,-00.003112000000,   1.68000,
,,,-00.003110000000,   2.48000,
,,,-00.003108000000,   3.08000,
,,,-00.003106000000,   3.48000,
,,,-00.003104000000,   3.72000,
,,,-00.003102000000,   3.68000,
,,,-00.003100000000,   3.48000,
,,,-00.003098000000,   2.96000,
,,,-00.003096000000,   2.36000,
,,,-00.003094000000,   1.56000,
,,,-00.003092000000,   0.64000,
,,,-00.003090000000,  -0.28000,
,,,-00.003088000000,  -1.24000,
,,,-00.003086000000,  -2.04000,
,,,-00.003084000000,  -2.76000,
,,,-00.003082000000,  -3.32000,
,,,-00.003080000000,  -3.64000,
,,,-00.003078000000,  -3.72000,
,,,-00.003076000000,  -3.60000,
,,,-00.003074000000,  -3.20000,
,,,-00.003072000000,  -2.68000,
,,,-00.003070000000,  -1.96000,
,,,-00.003068000000,  -1.12000,
,,,-00.003066000000,  -0.16000,
,,,-00.003064000000,   0.80000,
,,,-00.003062000000,   1.68000,
,,,-00.003060000000,   2.44000,
,,,-00.003058000000,   3.12000,
,,,-00.003056000000,   3.56000,
,,,-00.003054000000,   3.80000,
,,,-00.003052000000,   3.76000,
,,,-00.003050000000,   3.48000,
,,,-00.003048000000,   3.04000,
,,,-00.003046000000,   2.36000,
,,,-00.003044000000,   1.60000,
,,,-00.003042000000,   0.68000,
,,,-00.003040000000,  -0.28000,
,,,-00.003038000000,  -1.20000,
,,,-00.003036000000,  -2.04000,
,,,-00.003034000000,  -2.80000,
,,,-00.003032000000,  -3.36000,
,,,-00.003030000000,  -3.64000,
,,,-00.003028000000,  -3.76000,
,,,-00.003026000000,  -3.60000,
,,,-00.003024000000,  -3.28000,
,,,-00.003022000000,  -2.72000,
,,,-00.003020000000,  -1.96000,
,,,-00.003018000000,  -1.12000,
,,,-00.003016000000,  -0.12000,
,,,-00.003014000000,   0.76000,
,,,-00.003012000000,   1.68000,
,,,-00.003010000000,   2.48000,
,,,-00.003008000000,   3.16000,
,,,-00.003006000000,   3.56000,
,,,-00.003004000000,   3.80000,
,,,-00.003002000000,   3.72000,
,,,-00.003000000000,   3.52000,
,,,-00.002998000000,   3.04000,
,,,-00.002996000000,   2.36000,
,,,-00.002994000000,   1.56000,
,,,-00.002992000000,   0.68000,
,,,-00.002990000000,  -0.28000,
,,,-00.002988000000,  -1.20000,
,,,-00.002986000000,  -2.08000,
,,,-00.002984000000,  -2.80000,
,,,-00.002982000000,  -3.36000,
,,,-00.002980000000,  -3.64000,
,,,-00.002978000000,  -3.76000,
,,,-00.002976000000,  -3.64000,
,,,-00.002974000000,  -3.28000,
,,,-00.002972000000,  -2.72000,
,,,-00.002970000000,  -1.96000,
,,,-00.002968000000,  -1.12000,
,,,-00.002966000000,  -0.16000,
,,,-00.002964000000,   0.84000,
,,,-00.002962000000,   1.72000,
,,,-00.002960000000,   2.48000,
,,,-00.002958000000,   3.16000,
,,,-00.002956000000,   3.56000,
,,,-00.002954000000,   3.72000,
,,,-00.002952000000,   3.76000,
,,,-00.002950000000,   3.52000,
,,,-00.002948000000,   3.00000,
,,,-00.002946000000,   2.36000,
,,,-00.002944000000,   1.56000,
,,,-00.002942000000,   0.64000,
,,,-00.002940000000,  -0.28000,
,,,-00.002938000000,  -1.24000,
,,,-00.002936000000,  -2.08000,
,,,-00.002934000000,  -2.84000,
,,,-00.002932000000,  -3.32000,
,,,-00.002930000000,  -3.60000,
,,,-00.002928000000,  -3.80000,
,,,-00.002926000000,  -3.60000,
,,,-00.002924000000,  -3.28000,
,,,-00.002922000000,  -2.64000,
,,,-00.002920000000,  -1.92000,
,,,-00.002918000000,  -1.08000,
,,,-00.002916000000,  -0.16000,
,,,-00.002914000000,   0.76000,
,,,-00.002912000000,   1.68000,
,,,-00.002910000000,   2.44000,
,,,-00.002908000000,   3.08000,
,,,-00.002906000000,   3.52000,
,,,-00.002904000000,   3.72000,
,,,-00.002902000000,   3.68000,
,,,-00.002900000000,   3.48000,
,,,-00.002898000000,   3.00000,
,,,-00.002896000000,   2.32000,
,,,-00.002894000000,   1.56000,
,,,-00.002892000000,   0.64000,
,,,-00.002890000000,  -0.36000,
,,,-00.002888000000,  -1.20000,
,,,-00.002886000000,  -2.00000,
,,,-00.002884000000,  -2.72000,
,,,-00.002882000000,  -3.28000,
,,,-00.002880000000,  -3.60000,
,,,-00.002878000000,  -3.64000,
,,,-00.002876000000,  -3.52000,
,,,-00.002874000000,  -3.16000,
,,,-00.002872000000,  -2.64000,
,,,-00.002870000000,  -1.88000,
,,,-00.002868000000,  -1.04000,
,,,-00.002866000000,  -0.16000,
,,,-00.002864000000,   0.80000,
,,,-00.002862000000,   1.64000,
,,,-00.002860000000,   2.36000,
,,,-00.002858000000,   3.00000,
,,,-00.002856000000,   3.44000,
,,,-00.002854000000,   3.68000,
,,,-00.002852000000,   3.64000,
,,,-00.002850000000,   3.40000,
,,,-00.002848000000,   2.96000,
,,,-00.002846000000,   2.36000,
,,,-00.002844000000,   1.52000,
,,,-00.002842000000,   0.64000,
,,,-00.002840000000,  -0.28000,
,,,-00.002838000000,  -1.16000,
,,,-00.002836000000,  -2.00000,
,,,-00.002834000000,  -2.64000,
,,,-00.002832000000,  -3.20000,
,,,-00.002830000000,  -3.52000,
,,,-00.002828000000,  -3.60000,
,,,-00.002826000000,  -3.48000,
,,,-00.002824000000,  -3.12000,
,,,-00.002822000000,  -2.56000,
,,,-00.002820000000,  -1.84000,
,,,-00.002818000000,  -1.00000,
,,,-00.002816000000,  -0.16000,
,,,-00.002814000000,   0.72000,
,,,-00.002812000000,   1.60000,
,,,-00.002810000000,   2.36000,
,,,-00.002808000000,   2.96000,
,,,-00.002806000000,   3.36000,
,,,-00.002804000000,   3.56000,
,,,-00.002802000000,   3.60000,
,,,-00.002800000000,   3.28000,
,,,-00.002798000000,   2.88000,
,,,-00.002796000000,   2.24000,
,,,-00.002794000000,   1.44000,
,,,-00.002792000000,   0.64000,
,,,-00.002790000000,  -0.28000,
,,,-00.002788000000,  -1.20000,
,,,-00.002786000000,  -1.96000,
,,,-00.002784000000,  -2.56000,
,,,-00.002782000000,  -3.12000,
,,,-00.002780000000,  -3.40000,
,,,-00.002778000000,  -3.48000,
,,,-00.002776000000,  -3.32000,
,,,-00.002774000000,  -3.04000,
,,,-00.002772000000,  -2.48000,
,,,-00.002770000000,  -1.84000,
,,,-00.002768000000,  -1.04000,
,,,-00.002766000000,  -0.12000,
,,,-00.002764000000,   0.72000,
,,,-00.002762000000,   1.56000,
,,,-00.002760000000,   2.28000,
,,,-00.002758000000,   2.84000,
,,,-00.002756000000,   3.24000,
,,,-00.002754000000,   3.40000,
,,,-00.002752000000,   3.40000,
,,,-00.002750000000,   3.20000,
,,,-00.002748000000,   2.72000,
,,,-00.002746000000,   2.16000,
,,,-00.002744000000,   1.44000,
,,,-00.002742000000,   0.56000,
,,,-00.002740000000,  -0.20000,
,,,-00.002738000000,  -1.12000,
,,,-00.002736000000,  -1.92000,
,,,-00.002734000000,  -2.52000,
,,,-00.002732000000,  -2.96000,
,,,-00.002730000000,  -3.24000,
,,,-00.002728000000,  -3.36000,
,,,-00.002726000000,  -3.20000,
,,,-00.002724000000,  -2.88000,
,,,-00.002722000000,  -2.40000,
,,,-00.002720000000,  -1.72000,
,,,-00.002718000000,  -1.00000,
,,,-00.002716000000,  -0.12000,
,,,-00.002714000000,   0.72000,
,,,-00.002712000000,   1.44000,
,,,-00.002710000000,   2.16000,
,,,-00.002708000000,   2.72000,
,,,-00.002706000000,   3.12000,
,,,-00.002704000000,   3.32000,
,,,-00.002702000000,   3.28000,
,,,-00.002700000000,   3.04000,
,,,-00.002698000000,   2.60000,
,,,-00.002696000000,   2.04000,
,,,-00.002694000000,   1.36000,
,,,-00.002692000000,   0.52000,
,,,-00.002690000000,  -0.24000,
,,,-00.002688000000,  -1.08000,
,,,-00.002686000000,  -1.76000,
,,,-00.002684000000,  -2.40000,
,,,-00.002682000000,  -2.84000,
,,,-00.002680000000,  -3.08000,
,,,-00.002678000000,  -3.24000,
,,,-00.002676000000,  -3.08000,
,,,-00.002674000000,  -2.80000,
,,,-00.002672000000,  -2.24000,
,,,-00.002670000000,  -1.64000,
,,,-00.002668000000,  -0.96000,
,,,-00.002666000000,  -0.08000,
,,,-00.002664000000,   0.64000,
,,,-00.002662000000,   1.44000,
,,,-00.002660000000,   2.08000,
,,,-00.002658000000,   2.60000,
,,,-00.002656000000,   2.92000,
,,,-00.002654000000,   3.12000,
,,,-00.002652000000,   3.12000,
,,,-00.002650000000,   2.92000,
,,,-00.002648000000,   2.48000,
,,,-00.002646000000,   1.96000,
,,,-00.002644000000,   1.28000,
,,,-00.002642000000,   0.48000,
,,,-00.002640000000,  -0.24000,
,,,-00.002638000000,  -0.96000,
,,,-00.002636000000,  -1.68000,
,,,-00.002634000000,  -2.24000,
,,,-00.002632000000,  -2.64000,
,,,-00.002630000000,  -2.96000,
,,,-00.002628000000,  -3.00000,
,,,-00.002626000000,  -2.88000,
,,,-00.002624000000,  -2.64000,
,,,-00.002622000000,  -2.16000,
,,,-00.002620000000,  -1.52000,
,,,-00.002618000000,  -0.88000,
,,,-00.002616000000,  -0.12000,
,,,-00.002614000000,   0.64000,
,,,-00.002612000000,   1.36000,
,,,-00.002610000000,   1.96000,
,,,-00.002608000000,   2.44000,
,,,-00.002606000000,   2.80000,
,,,-00.002604000000,   2.96000,
,,,-00.002602000000,   2.88000,
,,,-00.002600000000,   2.72000,
,,,-00.002598000000,   2.32000,
,,,-00.002596000000,   1.84000,
,,,-00.002594000000,   1.24000,
,,,-00.002592000000,   0.48000,
,,,-00.002590000000,  -0.24000,
,,,-00.002588000000,  -0.96000,
,,,-00.002586000000,  -1.60000,
,,,-00.002584000000,  -2.16000,
,,,-00.002582000000,  -2.52000,
,,,-00.002580000000,  -2.76000,
,,,-00.002578000000,  -2.84000,
,,,-00.002576000000,  -2.72000,
,,,-00.002574000000,  -2.44000,
,,,-00.002572000000,  -2.08000,
,,,-00.002570000000,  -1.40000,
,,,-00.002568000000,  -0.80000,
,,,-00.002566000000,  -0.08000,
,,,-00.002564000000,   0.60000,
,,,-00.002562000000,   1.24000,
,,,-00.002560000000,   1.80000,
,,,-00.002558000000,   2.28000,
,,,-00.002556000000,   2.60000,
,,,-00.002554000000,   2.76000,
,,,-00.002552000000,   2.72000,
,,,-00.002550000000,   2.56000,
,,,-00.002548000000,   2.20000,
,,,-00.002546000000,   1.72000,
,,,-00.002544000000,   1.16000,
,,,-00.002542000000,   0.48000,
,,,-00.002540000000,  -0.24000,
,,,-00.002538000000,  -0.88000,
,,,-00.002536000000,  -1.44000,
,,,-00.002534000000,  -2.00000,
,,,-00.002532000000,  -2.32000,
,,,-00.002530000000,  -2.60000,
,,,-00.002528000000,  -2.64000,
,,,-00.002526000000,  -2.52000,
,,,-00.002524000000,  -2.28000,
,,,-00.002522000000,  -1.84000,
,,,-00.002520000000,  -1.36000,
,,,-00.002518000000,  -0.76000,
,,,-00.002516000000,  -0.12000,
,,,-00.002514000000,   0.56000,
,,,-00.002512000000,   1.16000,
,,,-00.002510000000,   1.72000,
,,,-00.002508000000,   2.12000,
,,,-00.002506000000,   2.40000,
,,,-00.002504000000,   2.56000,
,,,-00.002502000000,   2.52000,
,,,-00.002500000000,   2.36000,
,,,-00.002498000000,   2.04000,
,,,-00.002496000000,   1.56000,
,,,-00.002494000000,   1.00000,
,,,-00.002492000000,   0.48000,
,,,-00.002490000000,  -0.20000,
,,,-00.002488000000,  -0.84000,
,,,-00.002486000000,  -1.32000,
,,,-00.002484000000,  -1.80000,
,,,-00.002482000000,  -2.20000,
,,,-00.002480000000,  -2.40000,
,,,-00.002478000000,  -2.44000,
,,,-00.002476000000,  -2.32000,
,,,-00.002474000000,  -2.08000,
,,,-00.002472000000,  -1.64000,
,,,-00.002470000000,  -1.24000,
,,,-00.002468000000,  -0.72000,
,,,-00.002466000000,  -0.08000,
,,,-00.002464000000,   0.52000,
,,,-00.002462000000,   1.08000,
,,,-00.002460000000,   1.56000,
,,,-00.002458000000,   1.96000,
,,,-00.002456000000,   2.20000,
,,,-00.002454000000,   2.36000,
,,,-00.002452000000,   2.32000,
,,,-00.002450000000,   2.16000,
,,,-00.002448000000,   1.88000,
,,,-00.002446000000,   1.44000,
,,,-00.002444000000,   0.96000,
,,,-00.002442000000,   0.40000,
,,,-00.002440000000,  -0.16000,
,,,-00.002438000000,  -0.76000,
,,,-00.002436000000,  -1.28000,
,,,-00.002434000000,  -1.68000,
,,,-00.002432000000,  -2.00000,
,,,-00.002430000000,  -2.20000,
,,,-00.002428000000,  -2.28000,
,,,-00.002426000000,  -2.16000,
,,,-00.002424000000,  -1.88000,
,,,-00.002422000000,  -1.56000,
,,,-00.002420000000,  -1.12000,
,,,-00.002418000000,  -0.64000,
,,,-00.002416000000,  -0.08000,
,,,-00.002414000000,   0.48000,
,,,-00.002412000000,   1.00000,
,,,-00.002410000000,   1.44000,
,,,-00.002408000000,   1.84000,
,,,-00.002406000000,   2.04000,
,,,-00.002404000000,   2.16000,
,,,-00.002402000000,   2.16000,
,,,-00.002400000000,   2.00000,
,,,-00.002398000000,   1.72000,
,,,-00.002396000000,   1.32000,
,,,-00.002394000000,   0.88000,
,,,-00.002392000000,   0.36000,
,,,-00.002390000000,  -0.16000,
,,,-00.002388000000,  -0.68000,
,,,-00.002386000000,  -1.16000,
,,,-00.002384000000,  -1.52000,
,,,-00.002382000000,  -1.80000,
,,,-00.002380000000,  -2.04000,
,,,-00.002378000000,  -2.04000,
,,,-00.002376000000,  -1.96000,
,,,-00.002374000000,  -1.76000,
,,,-00.002372000000,  -1.48000,
,,,-00.002370000000,  -1.08000,
,,,-00.002368000000,  -0.60000,
,,,-00.002366000000,  -0.04000,
,,,-00.002364000000,   0.44000,
,,,-00.002362000000,   0.88000,
,,,-00.002360000000,   1.32000,
,,,-00.002358000000,   1.64000,
,,,-00.002356000000,   1.84000,
,,,-00.002354000000,   1.96000,
,,,-00.002352000000,   1.96000,
,,,-00.002350000000,   1.80000,
,,,-00.002348000000,   1.56000,
,,,-00.002346000000,   1.24000,
,,,-00.002344000000,   0.80000,
,,,-00.002342000000,   0.32000,
,,,-00.002340000000,  -0.12000,
,,,-00.002338000000,  -0.64000,
,,,-00.002336000000,  -1.04000,
,,,-00.002334000000,  -1.44000,
,,,-00.002332000000,  -1.72000,
,,,-00.002330000000,  -1.84000,
,,,-00.002328000000,  -1.84000,
,,,-00.002326000000,  -1.80000,
,,,-00.002324000000,  -1.64000,
,,,-00.002322000000,  -1.32000,
,,,-00.002320000000,  -0.96000,
,,,-00.002318000000,  -0.52000,
,,,-00.002316000000,  -0.08000,
,,,-00.002314000000,   0.36000,
,,,-00.002312000000,   0.84000,
,,,-00.002310000000,   1.24000,
,,,-00.002308000000,   1.52000,
,,,-00.002306000000,   1.76000,
,,,-00.002304000000,   1.84000,
,,,-00.002302000000,   1.76000,
,,,-00.002300000000,   1.64000,
,,,-00.002298000000,   1.44000,
,,,-00.002296000000,   1.08000,
,,,-00.002294000000,   0.68000,
,,,-00.002292000000,   0.32000,
,,,-00.002290000000,  -0.16000,
,,,-00.002288000000,  -0.60000,
,,,-00.002286000000,  -0.96000,
,,,-00.002284000000,  -1.24000,
,,,-00.002282000000,  -1.52000,
,,,-00.002280000000,  -1.72000,
,,,-00.002278000000,  -1.72000,
,,,-00.002276000000,  -1.64000,
,,,-00.002274000000,  -1.48000,
,,,-00.002272000000,  -1.24000,
,,,-00.002270000000,  -0.88000,
,,,-00.002268000000,  -0.48000,
,,,-00.002266000000,  -0.04000,
,,,-00.002264000000,   0.36000,
,,,-00.002262000000,   0.76000,
,,,-00.002260000000,   1.08000,
,,,-00.002258000000,   1.36000,
,,,-00.002256000000,   1.56000,
,,,-00.002254000000,   1.60000,
